CELL_REF,EAST,WEST,NORTH,SOUTH
1A 4,522000,518587,187079,184000
1B 4,524000,522000,187079,184000
1C 4,526000,524000,187079,184000
1D 4,528000,526000,187079,184000
1E 4,530000,528000,187079,184000
2A 4,522000,518587,184000,182000
2B 4,524000,522000,184000,182000
2C 4,526000,524000,184000,182000
2D 4,528000,526000,184000,182000
2E 4,530000,528000,184000,182000
3A 4,522000,518587,182000,180000
3B 4,524000,522000,182000,180000
3C 4,526000,524000,182000,180000
3D 4,528000,526000,182000,180000
3E 4,530000,528000,182000,180000
4A 4,522000,518587,180000,178000
4B 4,524000,522000,180000,178000
4C 4,526000,524000,180000,178000
4D 4,528000,526000,180000,178000
4E 4,530000,528000,180000,178000
5A 4,522000,518587,178000,176000
5B 4,524000,522000,178000,176000
5C 4,526000,524000,178000,176000
5D 4,528000,526000,178000,176000
5E 4,530000,528000,178000,176000
6A 4,522000,518587,176000,174000
6B 4,524000,522000,176000,174000
6C 4,526000,524000,176000,174000
6D 4,528000,526000,176000,174000
6E 4,530000,528000,176000,174000
7A 4,522000,518587,174000,172000
7B 4,524000,522000,174000,172000
7C 4,526000,524000,174000,172000
7D 4,528000,526000,174000,172000
7E 4,530000,528000,174000,172000
1F 5,532000,530000,187079,184000
1G 5,534000,532000,187079,184000
1H 5,536000,534000,187079,184000
1J 5,538000,536000,187079,184000
1K 5,540000,538000,187079,184000
2F 5,532000,530000,184000,182000
2G 5,534000,532000,184000,182000
2H 5,536000,534000,184000,182000
2J 5,538000,536000,184000,182000
2K 5,540000,538000,184000,182000
3F 5,532000,530000,182000,180000
3G 5,534000,532000,182000,180000
3H 5,536000,534000,182000,180000
3J 5,538000,536000,182000,180000
3K 5,540000,538000,182000,180000
4F 5,532000,530000,180000,178000
4G 5,534000,532000,180000,178000
4H 5,536000,534000,180000,178000
4J 5,538000,536000,180000,178000
4K 5,540000,538000,180000,178000
5F 5,532000,530000,178000,176000
5G 5,534000,532000,178000,176000
5H 5,536000,534000,178000,176000
5J 5,538000,536000,178000,176000
5K 5,540000,538000,178000,176000
6F 5,532000,530000,176000,174000
6G 5,534000,532000,176000,174000
6H 5,536000,534000,176000,174000
6J 5,538000,536000,176000,174000
6K 5,540000,538000,176000,174000
7F 5,532000,530000,174000,172000
7G 5,534000,532000,174000,172000
7H 5,536000,534000,174000,172000
7J 5,538000,536000,174000,172000
7K 5,540000,538000,174000,172000
1A 6,542000,540000,187079,184000
1B 6,544000,542000,187079,184000
1C 6,546000,544000,187079,184000
1D 6,548000,546000,187079,184000
1E 6,550000,548000,187079,184000
2A 6,542000,540000,184000,182000
2B 6,544000,542000,184000,182000
2C 6,546000,544000,184000,182000
2D 6,548000,546000,184000,182000
2E 6,550000,548000,184000,182000
3A 6,542000,540000,182000,180000
3B 6,544000,542000,182000,180000
3C 6,546000,544000,182000,180000
3D 6,548000,546000,182000,180000
3E 6,550000,548000,182000,180000
4A 6,542000,540000,180000,178000
4B 6,544000,542000,180000,178000
4C 6,546000,544000,180000,178000
4D 6,548000,546000,180000,178000
4E 6,550000,548000,180000,178000
5A 6,542000,540000,178000,176000
5B 6,544000,542000,178000,176000
5C 6,546000,544000,178000,176000
5D 6,548000,546000,178000,176000
5E 6,550000,548000,178000,176000
6A 6,542000,540000,176000,174000
6B 6,544000,542000,176000,174000
6C 6,546000,544000,176000,174000
6D 6,548000,546000,176000,174000
6E 6,550000,548000,176000,174000
7A 6,542000,540000,174000,172000
7B 6,544000,542000,174000,172000
7C 6,546000,544000,174000,172000
7D 6,548000,546000,174000,172000
7E 6,550000,548000,174000,172000
1F 7,552000,550000,187079,184000
1G 7,554000,552000,187079,184000
1H 7,556000,554000,187079,184000
1J 7,558000,556000,187079,184000
1K 7,560000,558000,187079,184000
2F 7,552000,550000,184000,182000
2G 7,554000,552000,184000,182000
2H 7,556000,554000,184000,182000
2J 7,558000,556000,184000,182000
2K 7,560000,558000,184000,182000
3F 7,552000,550000,182000,180000
3G 7,554000,552000,182000,180000
3H 7,556000,554000,182000,180000
3J 7,558000,556000,182000,180000
3K 7,560000,558000,182000,180000
4F 7,552000,550000,180000,178000
4G 7,554000,552000,180000,178000
4H 7,556000,554000,180000,178000
4J 7,558000,556000,180000,178000
4K 7,560000,558000,180000,178000
5F 7,552000,550000,178000,176000
5G 7,554000,552000,178000,176000
5H 7,556000,554000,178000,176000
5J 7,558000,556000,178000,176000
5K 7,560000,558000,178000,176000
6F 7,552000,550000,176000,174000
6G 7,554000,552000,176000,174000
6H 7,556000,554000,176000,174000
6J 7,558000,556000,176000,174000
6K 7,560000,558000,176000,174000
7F 7,552000,550000,174000,172000
7G 7,554000,552000,174000,172000
7H 7,556000,554000,174000,172000
7J 7,558000,556000,174000,172000
7K 7,560000,558000,174000,172000
1A 8,562000,560000,187079,184000
1B 8,564000,562000,187079,184000
1C 8,566000,564000,187079,184000
1D 8,568000,566000,187079,184000
1E 8,570000,568000,187079,184000
2A 8,562000,560000,184000,182000
2B 8,564000,562000,184000,182000
2C 8,566000,564000,184000,182000
2D 8,568000,566000,184000,182000
2E 8,570000,568000,184000,182000
3A 8,562000,560000,182000,180000
3B 8,564000,562000,182000,180000
3C 8,566000,564000,182000,180000
3D 8,568000,566000,182000,180000
3E 8,570000,568000,182000,180000
4A 8,562000,560000,180000,178000
4B 8,564000,562000,180000,178000
4C 8,566000,564000,180000,178000
4D 8,568000,566000,180000,178000
4E 8,570000,568000,180000,178000
5A 8,562000,560000,178000,176000
5B 8,564000,562000,178000,176000
5C 8,566000,564000,178000,176000
5D 8,568000,566000,178000,176000
5E 8,570000,568000,178000,176000
6A 8,562000,560000,176000,174000
6B 8,564000,562000,176000,174000
6C 8,566000,564000,176000,174000
6D 8,568000,566000,176000,174000
6E 8,570000,568000,176000,174000
7A 8,562000,560000,174000,172000
7B 8,564000,562000,174000,172000
7C 8,566000,564000,174000,172000
7D 8,568000,566000,174000,172000
7E 8,570000,568000,174000,172000
1F 9,572000,570000,187079,184000
1G 9,574000,572000,187079,184000
1H 9,576000,574000,187079,184000
1J 9,578000,576000,187079,184000
1K 9,580000,578000,187079,184000
2F 9,572000,570000,184000,182000
2G 9,574000,572000,184000,182000
2H 9,576000,574000,184000,182000
2J 9,578000,576000,184000,182000
2K 9,580000,578000,184000,182000
3F 9,572000,570000,182000,180000
3G 9,574000,572000,182000,180000
3H 9,576000,574000,182000,180000
3J 9,578000,576000,182000,180000
3K 9,580000,578000,182000,180000
4F 9,572000,570000,180000,178000
4G 9,574000,572000,180000,178000
4H 9,576000,574000,180000,178000
4J 9,578000,576000,180000,178000
4K 9,580000,578000,180000,178000
5F 9,572000,570000,178000,176000
5G 9,574000,572000,178000,176000
5H 9,576000,574000,178000,176000
5J 9,578000,576000,178000,176000
5K 9,580000,578000,178000,176000
6F 9,572000,570000,176000,174000
6G 9,574000,572000,176000,174000
6H 9,576000,574000,176000,174000
6J 9,578000,576000,176000,174000
6K 9,580000,578000,176000,174000
7F 9,572000,570000,174000,172000
7G 9,574000,572000,174000,172000
7H 9,576000,574000,174000,172000
7J 9,578000,576000,174000,172000
7K 9,580000,578000,174000,172000
1A 10,582000,580000,187079,184000
1B 10,584000,582000,187079,184000
1C 10,586000,584000,187079,184000
1D 10,588000,586000,187079,184000
1E 10,590000,588000,187079,184000
2A 10,582000,580000,184000,182000
2B 10,584000,582000,184000,182000
2C 10,586000,584000,184000,182000
2D 10,588000,586000,184000,182000
2E 10,590000,588000,184000,182000
3A 10,582000,580000,182000,180000
3B 10,584000,582000,182000,180000
3C 10,586000,584000,182000,180000
3D 10,588000,586000,182000,180000
3E 10,590000,588000,182000,180000
4A 10,582000,580000,180000,178000
4B 10,584000,582000,180000,178000
4C 10,586000,584000,180000,178000
4D 10,588000,586000,180000,178000
4E 10,590000,588000,180000,178000
5A 10,582000,580000,178000,176000
5B 10,584000,582000,178000,176000
5C 10,586000,584000,178000,176000
5D 10,588000,586000,178000,176000
5E 10,590000,588000,178000,176000
6A 10,582000,580000,176000,174000
6B 10,584000,582000,176000,174000
6C 10,586000,584000,176000,174000
6D 10,588000,586000,176000,174000
6E 10,590000,588000,176000,174000
7A 10,582000,580000,174000,172000
7B 10,584000,582000,174000,172000
7C 10,586000,584000,174000,172000
7D 10,588000,586000,174000,172000
7E 10,590000,588000,174000,172000
1F 11,592000,590000,187079,184000
1G 11,594000,592000,187079,184000
1H 11,596000,594000,187079,184000
1J 11,598000,596000,187079,184000
1K 11,601413,598000,187079,184000
2F 11,592000,590000,184000,182000
2G 11,594000,592000,184000,182000
2H 11,596000,594000,184000,182000
2J 11,598000,596000,184000,182000
2K 11,601413,598000,184000,182000
3F 11,592000,590000,182000,180000
3G 11,594000,592000,182000,180000
3H 11,596000,594000,182000,180000
3J 11,598000,596000,182000,180000
3K 11,601413,598000,182000,180000
4F 11,592000,590000,180000,178000
4G 11,594000,592000,180000,178000
4H 11,596000,594000,180000,178000
4J 11,598000,596000,180000,178000
4K 11,601413,598000,180000,178000
5F 11,592000,590000,178000,176000
5G 11,594000,592000,178000,176000
5H 11,596000,594000,178000,176000
5J 11,598000,596000,178000,176000
5K 11,601413,598000,178000,176000
6F 11,592000,590000,176000,174000
6G 11,594000,592000,176000,174000
6H 11,596000,594000,176000,174000
6J 11,598000,596000,176000,174000
6K 11,601413,598000,176000,174000
7F 11,592000,590000,174000,172000
7G 11,594000,592000,174000,172000
7H 11,596000,594000,174000,172000
7J 11,598000,596000,174000,172000
7K 11,601413,598000,174000,172000
1A 12,522000,518587,172000,170000
1B 12,524000,522000,172000,170000
1C 12,526000,524000,172000,170000
1D 12,528000,526000,172000,170000
1E 12,530000,528000,172000,170000
2A 12,522000,518587,170000,168000
2B 12,524000,522000,170000,168000
2C 12,526000,524000,170000,168000
2D 12,528000,526000,170000,168000
2E 12,530000,528000,170000,168000
3A 12,522000,518587,168000,166000
3B 12,524000,522000,168000,166000
3C 12,526000,524000,168000,166000
3D 12,528000,526000,168000,166000
3E 12,530000,528000,168000,166000
4A 12,522000,518587,166000,164000
4B 12,524000,522000,166000,164000
4C 12,526000,524000,166000,164000
4D 12,528000,526000,166000,164000
4E 12,530000,528000,166000,164000
5A 12,522000,518587,164000,162000
5B 12,524000,522000,164000,162000
5C 12,526000,524000,164000,162000
5D 12,528000,526000,164000,162000
5E 12,530000,528000,164000,162000
6A 12,522000,518587,162000,160000
6B 12,524000,522000,162000,160000
6C 12,526000,524000,162000,160000
6D 12,528000,526000,162000,160000
6E 12,530000,528000,162000,160000
7A 12,522000,518587,160000,156921
7B 12,524000,522000,160000,156921
7C 12,526000,524000,160000,156921
7D 12,528000,526000,160000,156921
7E 12,530000,528000,160000,156921
1F 13,532000,530000,172000,170000
1G 13,534000,532000,172000,170000
1H 13,536000,534000,172000,170000
1J 13,538000,536000,172000,170000
1K 13,540000,538000,172000,170000
2F 13,532000,530000,170000,168000
2G 13,534000,532000,170000,168000
2H 13,536000,534000,170000,168000
2J 13,538000,536000,170000,168000
2K 13,540000,538000,170000,168000
3F 13,532000,530000,168000,166000
3G 13,534000,532000,168000,166000
3H 13,536000,534000,168000,166000
3J 13,538000,536000,168000,166000
3K 13,540000,538000,168000,166000
4F 13,532000,530000,166000,164000
4G 13,534000,532000,166000,164000
4H 13,536000,534000,166000,164000
4J 13,538000,536000,166000,164000
4K 13,540000,538000,166000,164000
5F 13,532000,530000,164000,162000
5G 13,534000,532000,164000,162000
5H 13,536000,534000,164000,162000
5J 13,538000,536000,164000,162000
5K 13,540000,538000,164000,162000
6F 13,532000,530000,162000,160000
6G 13,534000,532000,162000,160000
6H 13,536000,534000,162000,160000
6J 13,538000,536000,162000,160000
6K 13,540000,538000,162000,160000
7F 13,532000,530000,160000,156921
7G 13,534000,532000,160000,156921
7H 13,536000,534000,160000,156921
7J 13,538000,536000,160000,156921
7K 13,540000,538000,160000,156921
1A 14,542000,540000,172000,170000
1B 14,544000,542000,172000,170000
1C 14,546000,544000,172000,170000
1D 14,548000,546000,172000,170000
1E 14,550000,548000,172000,170000
2A 14,542000,540000,170000,168000
2B 14,544000,542000,170000,168000
2C 14,546000,544000,170000,168000
2D 14,548000,546000,170000,168000
2E 14,550000,548000,170000,168000
3A 14,542000,540000,168000,166000
3B 14,544000,542000,168000,166000
3C 14,546000,544000,168000,166000
3D 14,548000,546000,168000,166000
3E 14,550000,548000,168000,166000
4A 14,542000,540000,166000,164000
4B 14,544000,542000,166000,164000
4C 14,546000,544000,166000,164000
4D 14,548000,546000,166000,164000
4E 14,550000,548000,166000,164000
5A 14,542000,540000,164000,162000
5B 14,544000,542000,164000,162000
5C 14,546000,544000,164000,162000
5D 14,548000,546000,164000,162000
5E 14,550000,548000,164000,162000
6A 14,542000,540000,162000,160000
6B 14,544000,542000,162000,160000
6C 14,546000,544000,162000,160000
6D 14,548000,546000,162000,160000
6E 14,550000,548000,162000,160000
7A 14,542000,540000,160000,158000
7B 14,544000,542000,160000,158000
7C 14,546000,544000,160000,158000
7D 14,548000,546000,160000,158000
7E 14,550000,548000,160000,158000
1F 15,552000,550000,172000,170000
1G 15,554000,552000,172000,170000
1H 15,556000,554000,172000,170000
1J 15,558000,556000,172000,170000
1K 15,560000,558000,172000,170000
2F 15,552000,550000,170000,168000
2G 15,554000,552000,170000,168000
2H 15,556000,554000,170000,168000
2J 15,558000,556000,170000,168000
2K 15,560000,558000,170000,168000
3F 15,552000,550000,168000,166000
3G 15,554000,552000,168000,166000
3H 15,556000,554000,168000,166000
3J 15,558000,556000,168000,166000
3K 15,560000,558000,168000,166000
4F 15,552000,550000,166000,164000
4G 15,554000,552000,166000,164000
4H 15,556000,554000,166000,164000
4J 15,558000,556000,166000,164000
4K 15,560000,558000,166000,164000
5F 15,552000,550000,164000,162000
5G 15,554000,552000,164000,162000
5H 15,556000,554000,164000,162000
5J 15,558000,556000,164000,162000
5K 15,560000,558000,164000,162000
6F 15,552000,550000,162000,160000
6G 15,554000,552000,162000,160000
6H 15,556000,554000,162000,160000
6J 15,558000,556000,162000,160000
6K 15,560000,558000,162000,160000
7F 15,552000,550000,160000,158000
7G 15,554000,552000,160000,158000
7H 15,556000,554000,160000,158000
7J 15,558000,556000,160000,158000
7K 15,560000,558000,160000,158000
1A 16,562000,560000,172000,170000
1B 16,564000,562000,172000,170000
1C 16,566000,564000,172000,170000
1D 16,568000,566000,172000,170000
1E 16,570000,568000,172000,170000
2A 16,562000,560000,170000,168000
2B 16,564000,562000,170000,168000
2C 16,566000,564000,170000,168000
2D 16,568000,566000,170000,168000
2E 16,570000,568000,170000,168000
3A 16,562000,560000,168000,166000
3B 16,564000,562000,168000,166000
3C 16,566000,564000,168000,166000
3D 16,568000,566000,168000,166000
3E 16,570000,568000,168000,166000
4A 16,562000,560000,166000,164000
4B 16,564000,562000,166000,164000
4C 16,566000,564000,166000,164000
4D 16,568000,566000,166000,164000
4E 16,570000,568000,166000,164000
5A 16,562000,560000,164000,162000
5B 16,564000,562000,164000,162000
5C 16,566000,564000,164000,162000
5D 16,568000,566000,164000,162000
5E 16,570000,568000,164000,162000
6A 16,562000,560000,162000,160000
6B 16,564000,562000,162000,160000
6C 16,566000,564000,162000,160000
6D 16,568000,566000,162000,160000
6E 16,570000,568000,162000,160000
7A 16,562000,560000,160000,158000
7B 16,564000,562000,160000,158000
7C 16,566000,564000,160000,158000
7D 16,568000,566000,160000,158000
7E 16,570000,568000,160000,158000
1F 17,572000,570000,172000,170000
1G 17,574000,572000,172000,170000
1H 17,576000,574000,172000,170000
1J 17,578000,576000,172000,170000
1K 17,580000,578000,172000,170000
2F 17,572000,570000,170000,168000
2G 17,574000,572000,170000,168000
2H 17,576000,574000,170000,168000
2J 17,578000,576000,170000,168000
2K 17,580000,578000,170000,168000
3F 17,572000,570000,168000,166000
3G 17,574000,572000,168000,166000
3H 17,576000,574000,168000,166000
3J 17,578000,576000,168000,166000
3K 17,580000,578000,168000,166000
4F 17,572000,570000,166000,164000
4G 17,574000,572000,166000,164000
4H 17,576000,574000,166000,164000
4J 17,578000,576000,166000,164000
4K 17,580000,578000,166000,164000
5F 17,572000,570000,164000,162000
5G 17,574000,572000,164000,162000
5H 17,576000,574000,164000,162000
5J 17,578000,576000,164000,162000
5K 17,580000,578000,164000,162000
6F 17,572000,570000,162000,160000
6G 17,574000,572000,162000,160000
6H 17,576000,574000,162000,160000
6J 17,578000,576000,162000,160000
6K 17,580000,578000,162000,160000
7F 17,572000,570000,160000,158000
7G 17,574000,572000,160000,158000
7H 17,576000,574000,160000,158000
7J 17,578000,576000,160000,158000
7K 17,580000,578000,160000,158000
1A 18,582000,580000,172000,170000
1B 18,584000,582000,172000,170000
1C 18,586000,584000,172000,170000
1D 18,588000,586000,172000,170000
1E 18,590000,588000,172000,170000
2A 18,582000,580000,170000,168000
2B 18,584000,582000,170000,168000
2C 18,586000,584000,170000,168000
2D 18,588000,586000,170000,168000
2E 18,590000,588000,170000,168000
3A 18,582000,580000,168000,166000
3B 18,584000,582000,168000,166000
3C 18,586000,584000,168000,166000
3D 18,588000,586000,168000,166000
3E 18,590000,588000,168000,166000
4A 18,582000,580000,166000,164000
4B 18,584000,582000,166000,164000
4C 18,586000,584000,166000,164000
4D 18,588000,586000,166000,164000
4E 18,590000,588000,166000,164000
5A 18,582000,580000,164000,162000
5B 18,584000,582000,164000,162000
5C 18,586000,584000,164000,162000
5D 18,588000,586000,164000,162000
5E 18,590000,588000,164000,162000
6A 18,582000,580000,162000,160000
6B 18,584000,582000,162000,160000
6C 18,586000,584000,162000,160000
6D 18,588000,586000,162000,160000
6E 18,590000,588000,162000,160000
7A 18,582000,580000,160000,158000
7B 18,584000,582000,160000,158000
7C 18,586000,584000,160000,158000
7D 18,588000,586000,160000,158000
7E 18,590000,588000,160000,158000
1F 19,592000,590000,172000,170000
1G 19,594000,592000,172000,170000
1H 19,596000,594000,172000,170000
1J 19,598000,596000,172000,170000
1K 19,600000,598000,172000,170000
2F 19,592000,590000,170000,168000
2G 19,594000,592000,170000,168000
2H 19,596000,594000,170000,168000
2J 19,598000,596000,170000,168000
2K 19,600000,598000,170000,168000
3F 19,592000,590000,168000,166000
3G 19,594000,592000,168000,166000
3H 19,596000,594000,168000,166000
3J 19,598000,596000,168000,166000
3K 19,600000,598000,168000,166000
4F 19,592000,590000,166000,164000
4G 19,594000,592000,166000,164000
4H 19,596000,594000,166000,164000
4J 19,598000,596000,166000,164000
4K 19,600000,598000,166000,164000
5F 19,592000,590000,164000,162000
5G 19,594000,592000,164000,162000
5H 19,596000,594000,164000,162000
5J 19,598000,596000,164000,162000
5K 19,600000,598000,164000,162000
6F 19,592000,590000,162000,160000
6G 19,594000,592000,162000,160000
6H 19,596000,594000,162000,160000
6J 19,598000,596000,162000,160000
6K 19,600000,598000,162000,160000
7F 19,592000,590000,160000,158000
7G 19,594000,592000,160000,158000
7H 19,596000,594000,160000,158000
7J 19,598000,596000,160000,158000
7K 19,600000,598000,160000,158000
1A 20,602000,600000,173079,170000
1B 20,604000,602000,173079,170000
1C 20,606000,604000,173079,170000
1D 20,608000,606000,173079,170000
1E 20,610000,608000,173079,170000
2A 20,602000,600000,170000,168000
2B 20,604000,602000,170000,168000
2C 20,606000,604000,170000,168000
2D 20,608000,606000,170000,168000
2E 20,610000,608000,170000,168000
3A 20,602000,600000,168000,166000
3B 20,604000,602000,168000,166000
3C 20,606000,604000,168000,166000
3D 20,608000,606000,168000,166000
3E 20,610000,608000,168000,166000
4A 20,602000,600000,166000,164000
4B 20,604000,602000,166000,164000
4C 20,606000,604000,166000,164000
4D 20,608000,606000,166000,164000
4E 20,610000,608000,166000,164000
5A 20,602000,600000,164000,162000
5B 20,604000,602000,164000,162000
5C 20,606000,604000,164000,162000
5D 20,608000,606000,164000,162000
5E 20,610000,608000,164000,162000
6A 20,602000,600000,162000,160000
6B 20,604000,602000,162000,160000
6C 20,606000,604000,162000,160000
6D 20,608000,606000,162000,160000
6E 20,610000,608000,162000,160000
7A 20,602000,600000,160000,158000
7B 20,604000,602000,160000,158000
7C 20,606000,604000,160000,158000
7D 20,608000,606000,160000,158000
7E 20,610000,608000,160000,158000
1F 21,612000,610000,173079,170000
1G 21,614000,612000,173079,170000
1H 21,616000,614000,173079,170000
1J 21,618000,616000,173079,170000
1K 21,620000,618000,173079,170000
2F 21,612000,610000,170000,168000
2G 21,614000,612000,170000,168000
2H 21,616000,614000,170000,168000
2J 21,618000,616000,170000,168000
2K 21,620000,618000,170000,168000
3F 21,612000,610000,168000,166000
3G 21,614000,612000,168000,166000
3H 21,616000,614000,168000,166000
3J 21,618000,616000,168000,166000
3K 21,620000,618000,168000,166000
4F 21,612000,610000,166000,164000
4G 21,614000,612000,166000,164000
4H 21,616000,614000,166000,164000
4J 21,618000,616000,166000,164000
4K 21,620000,618000,166000,164000
5F 21,612000,610000,164000,162000
5G 21,614000,612000,164000,162000
5H 21,616000,614000,164000,162000
5J 21,618000,616000,164000,162000
5K 21,620000,618000,164000,162000
6F 21,612000,610000,162000,160000
6G 21,614000,612000,162000,160000
6H 21,616000,614000,162000,160000
6J 21,618000,616000,162000,160000
6K 21,620000,618000,162000,160000
7F 21,612000,610000,160000,158000
7G 21,614000,612000,160000,158000
7H 21,616000,614000,160000,158000
7J 21,618000,616000,160000,158000
7K 21,620000,618000,160000,158000
1A 22,622000,620000,173079,170000
1B 22,624000,622000,173079,170000
1C 22,626000,624000,173079,170000
1D 22,628000,626000,173079,170000
1E 22,630000,628000,173079,170000
2A 22,622000,620000,170000,168000
2B 22,624000,622000,170000,168000
2C 22,626000,624000,170000,168000
2D 22,628000,626000,170000,168000
2E 22,630000,628000,170000,168000
3A 22,622000,620000,168000,166000
3B 22,624000,622000,168000,166000
3C 22,626000,624000,168000,166000
3D 22,628000,626000,168000,166000
3E 22,630000,628000,168000,166000
4A 22,622000,620000,166000,164000
4B 22,624000,622000,166000,164000
4C 22,626000,624000,166000,164000
4D 22,628000,626000,166000,164000
4E 22,630000,628000,166000,164000
5A 22,622000,620000,164000,162000
5B 22,624000,622000,164000,162000
5C 22,626000,624000,164000,162000
5D 22,628000,626000,164000,162000
5E 22,630000,628000,164000,162000
6A 22,622000,620000,162000,160000
6B 22,624000,622000,162000,160000
6C 22,626000,624000,162000,160000
6D 22,628000,626000,162000,160000
6E 22,630000,628000,162000,160000
7A 22,622000,620000,160000,158000
7B 22,624000,622000,160000,158000
7C 22,626000,624000,160000,158000
7D 22,628000,626000,160000,158000
7E 22,630000,628000,160000,158000
1F 23,632000,630000,173079,170000
1G 23,634000,632000,173079,170000
1H 23,636000,634000,173079,170000
1J 23,638000,636000,173079,170000
1K 23,641413,638000,173079,170000
2F 23,632000,630000,170000,168000
2G 23,634000,632000,170000,168000
2H 23,636000,634000,170000,168000
2J 23,638000,636000,170000,168000
2K 23,641413,638000,170000,168000
3F 23,632000,630000,168000,166000
3G 23,634000,632000,168000,166000
3H 23,636000,634000,168000,166000
3J 23,638000,636000,168000,166000
3K 23,641413,638000,168000,166000
4F 23,632000,630000,166000,164000
4G 23,634000,632000,166000,164000
4H 23,636000,634000,166000,164000
4J 23,638000,636000,166000,164000
4K 23,641413,638000,166000,164000
5F 23,632000,630000,164000,162000
5G 23,634000,632000,164000,162000
5H 23,636000,634000,164000,162000
5J 23,638000,636000,164000,162000
5K 23,641413,638000,164000,162000
6F 23,632000,630000,162000,160000
6G 23,634000,632000,162000,160000
6H 23,636000,634000,162000,160000
6J 23,638000,636000,162000,160000
6K 23,641413,638000,162000,160000
7F 23,632000,630000,160000,158000
7G 23,634000,632000,160000,158000
7H 23,636000,634000,160000,158000
7J 23,638000,636000,160000,158000
7K 23,641413,638000,160000,158000
1A 24,542000,538587,158000,156000
1B 24,544000,542000,158000,156000
1C 24,546000,544000,158000,156000
1D 24,548000,546000,158000,156000
1E 24,550000,548000,158000,156000
2A 24,542000,538587,156000,154000
2B 24,544000,542000,156000,154000
2C 24,546000,544000,156000,154000
2D 24,548000,546000,156000,154000
2E 24,550000,548000,156000,154000
3A 24,542000,538587,154000,152000
3B 24,544000,542000,154000,152000
3C 24,546000,544000,154000,152000
3D 24,548000,546000,154000,152000
3E 24,550000,548000,154000,152000
4A 24,542000,538587,152000,150000
4B 24,544000,542000,152000,150000
4C 24,546000,544000,152000,150000
4D 24,548000,546000,152000,150000
4E 24,550000,548000,152000,150000
5A 24,542000,538587,150000,148000
5B 24,544000,542000,150000,148000
5C 24,546000,544000,150000,148000
5D 24,548000,546000,150000,148000
5E 24,550000,548000,150000,148000
6A 24,542000,538587,148000,146000
6B 24,544000,542000,148000,146000
6C 24,546000,544000,148000,146000
6D 24,548000,546000,148000,146000
6E 24,550000,548000,148000,146000
7A 24,542000,538587,146000,144000
7B 24,544000,542000,146000,144000
7C 24,546000,544000,146000,144000
7D 24,548000,546000,146000,144000
7E 24,550000,548000,146000,144000
1F 25,552000,550000,158000,156000
1G 25,554000,552000,158000,156000
1H 25,556000,554000,158000,156000
1J 25,558000,556000,158000,156000
1K 25,560000,558000,158000,156000
2F 25,552000,550000,156000,154000
2G 25,554000,552000,156000,154000
2H 25,556000,554000,156000,154000
2J 25,558000,556000,156000,154000
2K 25,560000,558000,156000,154000
3F 25,552000,550000,154000,152000
3G 25,554000,552000,154000,152000
3H 25,556000,554000,154000,152000
3J 25,558000,556000,154000,152000
3K 25,560000,558000,154000,152000
4F 25,552000,550000,152000,150000
4G 25,554000,552000,152000,150000
4H 25,556000,554000,152000,150000
4J 25,558000,556000,152000,150000
4K 25,560000,558000,152000,150000
5F 25,552000,550000,150000,148000
5G 25,554000,552000,150000,148000
5H 25,556000,554000,150000,148000
5J 25,558000,556000,150000,148000
5K 25,560000,558000,150000,148000
6F 25,552000,550000,148000,146000
6G 25,554000,552000,148000,146000
6H 25,556000,554000,148000,146000
6J 25,558000,556000,148000,146000
6K 25,560000,558000,148000,146000
7F 25,552000,550000,146000,144000
7G 25,554000,552000,146000,144000
7H 25,556000,554000,146000,144000
7J 25,558000,556000,146000,144000
7K 25,560000,558000,146000,144000
1A 26,562000,560000,158000,156000
1B 26,564000,562000,158000,156000
1C 26,566000,564000,158000,156000
1D 26,568000,566000,158000,156000
1E 26,570000,568000,158000,156000
2A 26,562000,560000,156000,154000
2B 26,564000,562000,156000,154000
2C 26,566000,564000,156000,154000
2D 26,568000,566000,156000,154000
2E 26,570000,568000,156000,154000
3A 26,562000,560000,154000,152000
3B 26,564000,562000,154000,152000
3C 26,566000,564000,154000,152000
3D 26,568000,566000,154000,152000
3E 26,570000,568000,154000,152000
4A 26,562000,560000,152000,150000
4B 26,564000,562000,152000,150000
4C 26,566000,564000,152000,150000
4D 26,568000,566000,152000,150000
4E 26,570000,568000,152000,150000
5A 26,562000,560000,150000,148000
5B 26,564000,562000,150000,148000
5C 26,566000,564000,150000,148000
5D 26,568000,566000,150000,148000
5E 26,570000,568000,150000,148000
6A 26,562000,560000,148000,146000
6B 26,564000,562000,148000,146000
6C 26,566000,564000,148000,146000
6D 26,568000,566000,148000,146000
6E 26,570000,568000,148000,146000
7A 26,562000,560000,146000,144000
7B 26,564000,562000,146000,144000
7C 26,566000,564000,146000,144000
7D 26,568000,566000,146000,144000
7E 26,570000,568000,146000,144000
1F 27,572000,570000,158000,156000
1G 27,574000,572000,158000,156000
1H 27,576000,574000,158000,156000
1J 27,578000,576000,158000,156000
1K 27,580000,578000,158000,156000
2F 27,572000,570000,156000,154000
2G 27,574000,572000,156000,154000
2H 27,576000,574000,156000,154000
2J 27,578000,576000,156000,154000
2K 27,580000,578000,156000,154000
3F 27,572000,570000,154000,152000
3G 27,574000,572000,154000,152000
3H 27,576000,574000,154000,152000
3J 27,578000,576000,154000,152000
3K 27,580000,578000,154000,152000
4F 27,572000,570000,152000,150000
4G 27,574000,572000,152000,150000
4H 27,576000,574000,152000,150000
4J 27,578000,576000,152000,150000
4K 27,580000,578000,152000,150000
5F 27,572000,570000,150000,148000
5G 27,574000,572000,150000,148000
5H 27,576000,574000,150000,148000
5J 27,578000,576000,150000,148000
5K 27,580000,578000,150000,148000
6F 27,572000,570000,148000,146000
6G 27,574000,572000,148000,146000
6H 27,576000,574000,148000,146000
6J 27,578000,576000,148000,146000
6K 27,580000,578000,148000,146000
7F 27,572000,570000,146000,144000
7G 27,574000,572000,146000,144000
7H 27,576000,574000,146000,144000
7J 27,578000,576000,146000,144000
7K 27,580000,578000,146000,144000
1A 28,582000,580000,158000,156000
1B 28,584000,582000,158000,156000
1C 28,586000,584000,158000,156000
1D 28,588000,586000,158000,156000
1E 28,590000,588000,158000,156000
2A 28,582000,580000,156000,154000
2B 28,584000,582000,156000,154000
2C 28,586000,584000,156000,154000
2D 28,588000,586000,156000,154000
2E 28,590000,588000,156000,154000
3A 28,582000,580000,154000,152000
3B 28,584000,582000,154000,152000
3C 28,586000,584000,154000,152000
3D 28,588000,586000,154000,152000
3E 28,590000,588000,154000,152000
4A 28,582000,580000,152000,150000
4B 28,584000,582000,152000,150000
4C 28,586000,584000,152000,150000
4D 28,588000,586000,152000,150000
4E 28,590000,588000,152000,150000
5A 28,582000,580000,150000,148000
5B 28,584000,582000,150000,148000
5C 28,586000,584000,150000,148000
5D 28,588000,586000,150000,148000
5E 28,590000,588000,150000,148000
6A 28,582000,580000,148000,146000
6B 28,584000,582000,148000,146000
6C 28,586000,584000,148000,146000
6D 28,588000,586000,148000,146000
6E 28,590000,588000,148000,146000
7A 28,582000,580000,146000,144000
7B 28,584000,582000,146000,144000
7C 28,586000,584000,146000,144000
7D 28,588000,586000,146000,144000
7E 28,590000,588000,146000,144000
1F 29,592000,590000,158000,156000
1G 29,594000,592000,158000,156000
1H 29,596000,594000,158000,156000
1J 29,598000,596000,158000,156000
1K 29,600000,598000,158000,156000
2F 29,592000,590000,156000,154000
2G 29,594000,592000,156000,154000
2H 29,596000,594000,156000,154000
2J 29,598000,596000,156000,154000
2K 29,600000,598000,156000,154000
3F 29,592000,590000,154000,152000
3G 29,594000,592000,154000,152000
3H 29,596000,594000,154000,152000
3J 29,598000,596000,154000,152000
3K 29,600000,598000,154000,152000
4F 29,592000,590000,152000,150000
4G 29,594000,592000,152000,150000
4H 29,596000,594000,152000,150000
4J 29,598000,596000,152000,150000
4K 29,600000,598000,152000,150000
5F 29,592000,590000,150000,148000
5G 29,594000,592000,150000,148000
5H 29,596000,594000,150000,148000
5J 29,598000,596000,150000,148000
5K 29,600000,598000,150000,148000
6F 29,592000,590000,148000,146000
6G 29,594000,592000,148000,146000
6H 29,596000,594000,148000,146000
6J 29,598000,596000,148000,146000
6K 29,600000,598000,148000,146000
7F 29,592000,590000,146000,144000
7G 29,594000,592000,146000,144000
7H 29,596000,594000,146000,144000
7J 29,598000,596000,146000,144000
7K 29,600000,598000,146000,144000
1A 30,602000,600000,158000,156000
1B 30,604000,602000,158000,156000
1C 30,606000,604000,158000,156000
1D 30,608000,606000,158000,156000
1E 30,610000,608000,158000,156000
2A 30,602000,600000,156000,154000
2B 30,604000,602000,156000,154000
2C 30,606000,604000,156000,154000
2D 30,608000,606000,156000,154000
2E 30,610000,608000,156000,154000
3A 30,602000,600000,154000,152000
3B 30,604000,602000,154000,152000
3C 30,606000,604000,154000,152000
3D 30,608000,606000,154000,152000
3E 30,610000,608000,154000,152000
4A 30,602000,600000,152000,150000
4B 30,604000,602000,152000,150000
4C 30,606000,604000,152000,150000
4D 30,608000,606000,152000,150000
4E 30,610000,608000,152000,150000
5A 30,602000,600000,150000,148000
5B 30,604000,602000,150000,148000
5C 30,606000,604000,150000,148000
5D 30,608000,606000,150000,148000
5E 30,610000,608000,150000,148000
6A 30,602000,600000,148000,146000
6B 30,604000,602000,148000,146000
6C 30,606000,604000,148000,146000
6D 30,608000,606000,148000,146000
6E 30,610000,608000,148000,146000
7A 30,602000,600000,146000,144000
7B 30,604000,602000,146000,144000
7C 30,606000,604000,146000,144000
7D 30,608000,606000,146000,144000
7E 30,610000,608000,146000,144000
1F 31,612000,610000,158000,156000
1G 31,614000,612000,158000,156000
1H 31,616000,614000,158000,156000
1J 31,618000,616000,158000,156000
1K 31,620000,618000,158000,156000
2F 31,612000,610000,156000,154000
2G 31,614000,612000,156000,154000
2H 31,616000,614000,156000,154000
2J 31,618000,616000,156000,154000
2K 31,620000,618000,156000,154000
3F 31,612000,610000,154000,152000
3G 31,614000,612000,154000,152000
3H 31,616000,614000,154000,152000
3J 31,618000,616000,154000,152000
3K 31,620000,618000,154000,152000
4F 31,612000,610000,152000,150000
4G 31,614000,612000,152000,150000
4H 31,616000,614000,152000,150000
4J 31,618000,616000,152000,150000
4K 31,620000,618000,152000,150000
5F 31,612000,610000,150000,148000
5G 31,614000,612000,150000,148000
5H 31,616000,614000,150000,148000
5J 31,618000,616000,150000,148000
5K 31,620000,618000,150000,148000
6F 31,612000,610000,148000,146000
6G 31,614000,612000,148000,146000
6H 31,616000,614000,148000,146000
6J 31,618000,616000,148000,146000
6K 31,620000,618000,148000,146000
7F 31,612000,610000,146000,144000
7G 31,614000,612000,146000,144000
7H 31,616000,614000,146000,144000
7J 31,618000,616000,146000,144000
7K 31,620000,618000,146000,144000
1A 32,622000,620000,158000,156000
1B 32,624000,622000,158000,156000
1C 32,626000,624000,158000,156000
1D 32,628000,626000,158000,156000
1E 32,630000,628000,158000,156000
2A 32,622000,620000,156000,154000
2B 32,624000,622000,156000,154000
2C 32,626000,624000,156000,154000
2D 32,628000,626000,156000,154000
2E 32,630000,628000,156000,154000
3A 32,622000,620000,154000,152000
3B 32,624000,622000,154000,152000
3C 32,626000,624000,154000,152000
3D 32,628000,626000,154000,152000
3E 32,630000,628000,154000,152000
4A 32,622000,620000,152000,150000
4B 32,624000,622000,152000,150000
4C 32,626000,624000,152000,150000
4D 32,628000,626000,152000,150000
4E 32,630000,628000,152000,150000
5A 32,622000,620000,150000,148000
5B 32,624000,622000,150000,148000
5C 32,626000,624000,150000,148000
5D 32,628000,626000,150000,148000
5E 32,630000,628000,150000,148000
6A 32,622000,620000,148000,146000
6B 32,624000,622000,148000,146000
6C 32,626000,624000,148000,146000
6D 32,628000,626000,148000,146000
6E 32,630000,628000,148000,146000
7A 32,622000,620000,146000,144000
7B 32,624000,622000,146000,144000
7C 32,626000,624000,146000,144000
7D 32,628000,626000,146000,144000
7E 32,630000,628000,146000,144000
1F 33,632000,630000,158000,156000
1G 33,634000,632000,158000,156000
1H 33,636000,634000,158000,156000
1J 33,638000,636000,158000,156000
1K 33,641413,638000,158000,156000
2F 33,632000,630000,156000,154000
2G 33,634000,632000,156000,154000
2H 33,636000,634000,156000,154000
2J 33,638000,636000,156000,154000
2K 33,641413,638000,156000,154000
3F 33,632000,630000,154000,152000
3G 33,634000,632000,154000,152000
3H 33,636000,634000,154000,152000
3J 33,638000,636000,154000,152000
3K 33,641413,638000,154000,152000
4F 33,632000,630000,152000,150000
4G 33,634000,632000,152000,150000
4H 33,636000,634000,152000,150000
4J 33,638000,636000,152000,150000
4K 33,641413,638000,152000,150000
5F 33,632000,630000,150000,148000
5G 33,634000,632000,150000,148000
5H 33,636000,634000,150000,148000
5J 33,638000,636000,150000,148000
5K 33,641413,638000,150000,148000
6F 33,632000,630000,148000,146000
6G 33,634000,632000,148000,146000
6H 33,636000,634000,148000,146000
6J 33,638000,636000,148000,146000
6K 33,641413,638000,148000,146000
7F 33,632000,630000,146000,144000
7G 33,634000,632000,146000,144000
7H 33,636000,634000,146000,144000
7J 33,638000,636000,146000,144000
7K 33,641413,638000,146000,144000
1A 34,542000,538587,144000,142000
1B 34,544000,542000,144000,142000
1C 34,546000,544000,144000,142000
1D 34,548000,546000,144000,142000
1E 34,550000,548000,144000,142000
2A 34,542000,538587,142000,140000
2B 34,544000,542000,142000,140000
2C 34,546000,544000,142000,140000
2D 34,548000,546000,142000,140000
2E 34,550000,548000,142000,140000
3A 34,542000,538587,140000,138000
3B 34,544000,542000,140000,138000
3C 34,546000,544000,140000,138000
3D 34,548000,546000,140000,138000
3E 34,550000,548000,140000,138000
4A 34,542000,538587,138000,136000
4B 34,544000,542000,138000,136000
4C 34,546000,544000,138000,136000
4D 34,548000,546000,138000,136000
4E 34,550000,548000,138000,136000
5A 34,542000,538587,136000,134000
5B 34,544000,542000,136000,134000
5C 34,546000,544000,136000,134000
5D 34,548000,546000,136000,134000
5E 34,550000,548000,136000,134000
6A 34,542000,538587,134000,132000
6B 34,544000,542000,134000,132000
6C 34,546000,544000,134000,132000
6D 34,548000,546000,134000,132000
6E 34,550000,548000,134000,132000
7A 34,542000,538587,132000,128921
7B 34,544000,542000,132000,128921
7C 34,546000,544000,132000,128921
7D 34,548000,546000,132000,128921
7E 34,550000,548000,132000,128921
1F 35,552000,550000,144000,142000
1G 35,554000,552000,144000,142000
1H 35,556000,554000,144000,142000
1J 35,558000,556000,144000,142000
1K 35,560000,558000,144000,142000
2F 35,552000,550000,142000,140000
2G 35,554000,552000,142000,140000
2H 35,556000,554000,142000,140000
2J 35,558000,556000,142000,140000
2K 35,560000,558000,142000,140000
3F 35,552000,550000,140000,138000
3G 35,554000,552000,140000,138000
3H 35,556000,554000,140000,138000
3J 35,558000,556000,140000,138000
3K 35,560000,558000,140000,138000
4F 35,552000,550000,138000,136000
4G 35,554000,552000,138000,136000
4H 35,556000,554000,138000,136000
4J 35,558000,556000,138000,136000
4K 35,560000,558000,138000,136000
5F 35,552000,550000,136000,134000
5G 35,554000,552000,136000,134000
5H 35,556000,554000,136000,134000
5J 35,558000,556000,136000,134000
5K 35,560000,558000,136000,134000
6F 35,552000,550000,134000,132000
6G 35,554000,552000,134000,132000
6H 35,556000,554000,134000,132000
6J 35,558000,556000,134000,132000
6K 35,560000,558000,134000,132000
7F 35,552000,550000,132000,128921
7G 35,554000,552000,132000,128921
7H 35,556000,554000,132000,128921
7J 35,558000,556000,132000,128921
7K 35,560000,558000,132000,128921
1A 36,562000,560000,144000,142000
1B 36,564000,562000,144000,142000
1C 36,566000,564000,144000,142000
1D 36,568000,566000,144000,142000
1E 36,570000,568000,144000,142000
2A 36,562000,560000,142000,140000
2B 36,564000,562000,142000,140000
2C 36,566000,564000,142000,140000
2D 36,568000,566000,142000,140000
2E 36,570000,568000,142000,140000
3A 36,562000,560000,140000,138000
3B 36,564000,562000,140000,138000
3C 36,566000,564000,140000,138000
3D 36,568000,566000,140000,138000
3E 36,570000,568000,140000,138000
4A 36,562000,560000,138000,136000
4B 36,564000,562000,138000,136000
4C 36,566000,564000,138000,136000
4D 36,568000,566000,138000,136000
4E 36,570000,568000,138000,136000
5A 36,562000,560000,136000,134000
5B 36,564000,562000,136000,134000
5C 36,566000,564000,136000,134000
5D 36,568000,566000,136000,134000
5E 36,570000,568000,136000,134000
6A 36,562000,560000,134000,132000
6B 36,564000,562000,134000,132000
6C 36,566000,564000,134000,132000
6D 36,568000,566000,134000,132000
6E 36,570000,568000,134000,132000
7A 36,562000,560000,132000,128921
7B 36,564000,562000,132000,128921
7C 36,566000,564000,132000,128921
7D 36,568000,566000,132000,128921
7E 36,570000,568000,132000,128921
1F 37,572000,570000,144000,142000
1G 37,574000,572000,144000,142000
1H 37,576000,574000,144000,142000
1J 37,578000,576000,144000,142000
1K 37,580000,578000,144000,142000
2F 37,572000,570000,142000,140000
2G 37,574000,572000,142000,140000
2H 37,576000,574000,142000,140000
2J 37,578000,576000,142000,140000
2K 37,580000,578000,142000,140000
3F 37,572000,570000,140000,138000
3G 37,574000,572000,140000,138000
3H 37,576000,574000,140000,138000
3J 37,578000,576000,140000,138000
3K 37,580000,578000,140000,138000
4F 37,572000,570000,138000,136000
4G 37,574000,572000,138000,136000
4H 37,576000,574000,138000,136000
4J 37,578000,576000,138000,136000
4K 37,580000,578000,138000,136000
5F 37,572000,570000,136000,134000
5G 37,574000,572000,136000,134000
5H 37,576000,574000,136000,134000
5J 37,578000,576000,136000,134000
5K 37,580000,578000,136000,134000
6F 37,572000,570000,134000,132000
6G 37,574000,572000,134000,132000
6H 37,576000,574000,134000,132000
6J 37,578000,576000,134000,132000
6K 37,580000,578000,134000,132000
7F 37,572000,570000,132000,130000
7G 37,574000,572000,132000,130000
7H 37,576000,574000,132000,130000
7J 37,578000,576000,132000,130000
7K 37,580000,578000,132000,130000
1A 38,582000,580000,144000,142000
1B 38,584000,582000,144000,142000
1C 38,586000,584000,144000,142000
1D 38,588000,586000,144000,142000
1E 38,590000,588000,144000,142000
2A 38,582000,580000,142000,140000
2B 38,584000,582000,142000,140000
2C 38,586000,584000,142000,140000
2D 38,588000,586000,142000,140000
2E 38,590000,588000,142000,140000
3A 38,582000,580000,140000,138000
3B 38,584000,582000,140000,138000
3C 38,586000,584000,140000,138000
3D 38,588000,586000,140000,138000
3E 38,590000,588000,140000,138000
4A 38,582000,580000,138000,136000
4B 38,584000,582000,138000,136000
4C 38,586000,584000,138000,136000
4D 38,588000,586000,138000,136000
4E 38,590000,588000,138000,136000
5A 38,582000,580000,136000,134000
5B 38,584000,582000,136000,134000
5C 38,586000,584000,136000,134000
5D 38,588000,586000,136000,134000
5E 38,590000,588000,136000,134000
6A 38,582000,580000,134000,132000
6B 38,584000,582000,134000,132000
6C 38,586000,584000,134000,132000
6D 38,588000,586000,134000,132000
6E 38,590000,588000,134000,132000
7A 38,582000,580000,132000,130000
7B 38,584000,582000,132000,130000
7C 38,586000,584000,132000,130000
7D 38,588000,586000,132000,130000
7E 38,590000,588000,132000,130000
1F 39,592000,590000,144000,142000
1G 39,594000,592000,144000,142000
1H 39,596000,594000,144000,142000
1J 39,598000,596000,144000,142000
1K 39,600000,598000,144000,142000
2F 39,592000,590000,142000,140000
2G 39,594000,592000,142000,140000
2H 39,596000,594000,142000,140000
2J 39,598000,596000,142000,140000
2K 39,600000,598000,142000,140000
3F 39,592000,590000,140000,138000
3G 39,594000,592000,140000,138000
3H 39,596000,594000,140000,138000
3J 39,598000,596000,140000,138000
3K 39,600000,598000,140000,138000
4F 39,592000,590000,138000,136000
4G 39,594000,592000,138000,136000
4H 39,596000,594000,138000,136000
4J 39,598000,596000,138000,136000
4K 39,600000,598000,138000,136000
5F 39,592000,590000,136000,134000
5G 39,594000,592000,136000,134000
5H 39,596000,594000,136000,134000
5J 39,598000,596000,136000,134000
5K 39,600000,598000,136000,134000
6F 39,592000,590000,134000,132000
6G 39,594000,592000,134000,132000
6H 39,596000,594000,134000,132000
6J 39,598000,596000,134000,132000
6K 39,600000,598000,134000,132000
7F 39,592000,590000,132000,130000
7G 39,594000,592000,132000,130000
7H 39,596000,594000,132000,130000
7J 39,598000,596000,132000,130000
7K 39,600000,598000,132000,130000
1A 40,602000,600000,144000,142000
1B 40,604000,602000,144000,142000
1C 40,606000,604000,144000,142000
1D 40,608000,606000,144000,142000
1E 40,610000,608000,144000,142000
2A 40,602000,600000,142000,140000
2B 40,604000,602000,142000,140000
2C 40,606000,604000,142000,140000
2D 40,608000,606000,142000,140000
2E 40,610000,608000,142000,140000
3A 40,602000,600000,140000,138000
3B 40,604000,602000,140000,138000
3C 40,606000,604000,140000,138000
3D 40,608000,606000,140000,138000
3E 40,610000,608000,140000,138000
4A 40,602000,600000,138000,136000
4B 40,604000,602000,138000,136000
4C 40,606000,604000,138000,136000
4D 40,608000,606000,138000,136000
4E 40,610000,608000,138000,136000
5A 40,602000,600000,136000,134000
5B 40,604000,602000,136000,134000
5C 40,606000,604000,136000,134000
5D 40,608000,606000,136000,134000
5E 40,610000,608000,136000,134000
6A 40,602000,600000,134000,132000
6B 40,604000,602000,134000,132000
6C 40,606000,604000,134000,132000
6D 40,608000,606000,134000,132000
6E 40,610000,608000,134000,132000
7A 40,602000,600000,132000,130000
7B 40,604000,602000,132000,130000
7C 40,606000,604000,132000,130000
7D 40,608000,606000,132000,130000
7E 40,610000,608000,132000,130000
1F 41,612000,610000,144000,142000
1G 41,614000,612000,144000,142000
1H 41,616000,614000,144000,142000
1J 41,618000,616000,144000,142000
1K 41,620000,618000,144000,142000
2F 41,612000,610000,142000,140000
2G 41,614000,612000,142000,140000
2H 41,616000,614000,142000,140000
2J 41,618000,616000,142000,140000
2K 41,620000,618000,142000,140000
3F 41,612000,610000,140000,138000
3G 41,614000,612000,140000,138000
3H 41,616000,614000,140000,138000
3J 41,618000,616000,140000,138000
3K 41,620000,618000,140000,138000
4F 41,612000,610000,138000,136000
4G 41,614000,612000,138000,136000
4H 41,616000,614000,138000,136000
4J 41,618000,616000,138000,136000
4K 41,620000,618000,138000,136000
5F 41,612000,610000,136000,134000
5G 41,614000,612000,136000,134000
5H 41,616000,614000,136000,134000
5J 41,618000,616000,136000,134000
5K 41,620000,618000,136000,134000
6F 41,612000,610000,134000,132000
6G 41,614000,612000,134000,132000
6H 41,616000,614000,134000,132000
6J 41,618000,616000,134000,132000
6K 41,620000,618000,134000,132000
7F 41,612000,610000,132000,128921
7G 41,614000,612000,132000,128921
7H 41,616000,614000,132000,128921
7J 41,618000,616000,132000,128921
7K 41,620000,618000,132000,128921
1A 42,622000,620000,144000,142000
1B 42,624000,622000,144000,142000
1C 42,626000,624000,144000,142000
1D 42,628000,626000,144000,142000
1E 42,630000,628000,144000,142000
2A 42,622000,620000,142000,140000
2B 42,624000,622000,142000,140000
2C 42,626000,624000,142000,140000
2D 42,628000,626000,142000,140000
2E 42,630000,628000,142000,140000
3A 42,622000,620000,140000,138000
3B 42,624000,622000,140000,138000
3C 42,626000,624000,140000,138000
3D 42,628000,626000,140000,138000
3E 42,630000,628000,140000,138000
4A 42,622000,620000,138000,136000
4B 42,624000,622000,138000,136000
4C 42,626000,624000,138000,136000
4D 42,628000,626000,138000,136000
4E 42,630000,628000,138000,136000
5A 42,622000,620000,136000,134000
5B 42,624000,622000,136000,134000
5C 42,626000,624000,136000,134000
5D 42,628000,626000,136000,134000
5E 42,630000,628000,136000,134000
6A 42,622000,620000,134000,132000
6B 42,624000,622000,134000,132000
6C 42,626000,624000,134000,132000
6D 42,628000,626000,134000,132000
6E 42,630000,628000,134000,132000
7A 42,622000,620000,132000,128921
7B 42,624000,622000,132000,128921
7C 42,626000,624000,132000,128921
7D 42,628000,626000,132000,128921
7E 42,630000,628000,132000,128921
1F 43,632000,630000,144000,142000
1G 43,634000,632000,144000,142000
1H 43,636000,634000,144000,142000
1J 43,638000,636000,144000,142000
1K 43,641413,638000,144000,142000
2F 43,632000,630000,142000,140000
2G 43,634000,632000,142000,140000
2H 43,636000,634000,142000,140000
2J 43,638000,636000,142000,140000
2K 43,641413,638000,142000,140000
3F 43,632000,630000,140000,138000
3G 43,634000,632000,140000,138000
3H 43,636000,634000,140000,138000
3J 43,638000,636000,140000,138000
3K 43,641413,638000,140000,138000
4F 43,632000,630000,138000,136000
4G 43,634000,632000,138000,136000
4H 43,636000,634000,138000,136000
4J 43,638000,636000,138000,136000
4K 43,641413,638000,138000,136000
5F 43,632000,630000,136000,134000
5G 43,634000,632000,136000,134000
5H 43,636000,634000,136000,134000
5J 43,638000,636000,136000,134000
5K 43,641413,638000,136000,134000
6F 43,632000,630000,134000,132000
6G 43,634000,632000,134000,132000
6H 43,636000,634000,134000,132000
6J 43,638000,636000,134000,132000
6K 43,641413,638000,134000,132000
7F 43,632000,630000,132000,128921
7G 43,634000,632000,132000,128921
7H 43,636000,634000,132000,128921
7J 43,638000,636000,132000,128921
7K 43,641413,638000,132000,128921
1A 44,572000,568587,130000,128000
1B 44,574000,572000,130000,128000
1C 44,576000,574000,130000,128000
1D 44,578000,576000,130000,128000
1E 44,580000,578000,130000,128000
2A 44,572000,568587,128000,126000
2B 44,574000,572000,128000,126000
2C 44,576000,574000,128000,126000
2D 44,578000,576000,128000,126000
2E 44,580000,578000,128000,126000
3A 44,572000,568587,126000,124000
3B 44,574000,572000,126000,124000
3C 44,576000,574000,126000,124000
3D 44,578000,576000,126000,124000
3E 44,580000,578000,126000,124000
4A 44,572000,568587,124000,122000
4B 44,574000,572000,124000,122000
4C 44,576000,574000,124000,122000
4D 44,578000,576000,124000,122000
4E 44,580000,578000,124000,122000
5A 44,572000,568587,122000,120000
5B 44,574000,572000,122000,120000
5C 44,576000,574000,122000,120000
5D 44,578000,576000,122000,120000
5E 44,580000,578000,122000,120000
6A 44,572000,568587,120000,118000
6B 44,574000,572000,120000,118000
6C 44,576000,574000,120000,118000
6D 44,578000,576000,120000,118000
6E 44,580000,578000,120000,118000
7A 44,572000,568587,118000,114921
7B 44,574000,572000,118000,114921
7C 44,576000,574000,118000,114921
7D 44,578000,576000,118000,114921
7E 44,580000,578000,118000,114921
1F 45,582000,580000,130000,128000
1G 45,584000,582000,130000,128000
1H 45,586000,584000,130000,128000
1J 45,588000,586000,130000,128000
1K 45,590000,588000,130000,128000
2F 45,582000,580000,128000,126000
2G 45,584000,582000,128000,126000
2H 45,586000,584000,128000,126000
2J 45,588000,586000,128000,126000
2K 45,590000,588000,128000,126000
3F 45,582000,580000,126000,124000
3G 45,584000,582000,126000,124000
3H 45,586000,584000,126000,124000
3J 45,588000,586000,126000,124000
3K 45,590000,588000,126000,124000
4F 45,582000,580000,124000,122000
4G 45,584000,582000,124000,122000
4H 45,586000,584000,124000,122000
4J 45,588000,586000,124000,122000
4K 45,590000,588000,124000,122000
5F 45,582000,580000,122000,120000
5G 45,584000,582000,122000,120000
5H 45,586000,584000,122000,120000
5J 45,588000,586000,122000,120000
5K 45,590000,588000,122000,120000
6F 45,582000,580000,120000,118000
6G 45,584000,582000,120000,118000
6H 45,586000,584000,120000,118000
6J 45,588000,586000,120000,118000
6K 45,590000,588000,120000,118000
7F 45,582000,580000,118000,114921
7G 45,584000,582000,118000,114921
7H 45,586000,584000,118000,114921
7J 45,588000,586000,118000,114921
7K 45,590000,588000,118000,114921
1A 46,592000,590000,130000,128000
1B 46,594000,592000,130000,128000
1C 46,596000,594000,130000,128000
1D 46,598000,596000,130000,128000
1E 46,600000,598000,130000,128000
2A 46,592000,590000,128000,126000
2B 46,594000,592000,128000,126000
2C 46,596000,594000,128000,126000
2D 46,598000,596000,128000,126000
2E 46,600000,598000,128000,126000
3A 46,592000,590000,126000,124000
3B 46,594000,592000,126000,124000
3C 46,596000,594000,126000,124000
3D 46,598000,596000,126000,124000
3E 46,600000,598000,126000,124000
4A 46,592000,590000,124000,122000
4B 46,594000,592000,124000,122000
4C 46,596000,594000,124000,122000
4D 46,598000,596000,124000,122000
4E 46,600000,598000,124000,122000
5A 46,592000,590000,122000,120000
5B 46,594000,592000,122000,120000
5C 46,596000,594000,122000,120000
5D 46,598000,596000,122000,120000
5E 46,600000,598000,122000,120000
6A 46,592000,590000,120000,118000
6B 46,594000,592000,120000,118000
6C 46,596000,594000,120000,118000
6D 46,598000,596000,120000,118000
6E 46,600000,598000,120000,118000
7A 46,592000,590000,118000,114921
7B 46,594000,592000,118000,114921
7C 46,596000,594000,118000,114921
7D 46,598000,596000,118000,114921
7E 46,600000,598000,118000,114921
1F 47,602000,600000,130000,128000
1G 47,604000,602000,130000,128000
1H 47,606000,604000,130000,128000
1J 47,608000,606000,130000,128000
1K 47,611413,608000,130000,128000
2F 47,602000,600000,128000,126000
2G 47,604000,602000,128000,126000
2H 47,606000,604000,128000,126000
2J 47,608000,606000,128000,126000
2K 47,611413,608000,128000,126000
3F 47,602000,600000,126000,124000
3G 47,604000,602000,126000,124000
3H 47,606000,604000,126000,124000
3J 47,608000,606000,126000,124000
3K 47,611413,608000,126000,124000
4F 47,602000,600000,124000,122000
4G 47,604000,602000,124000,122000
4H 47,606000,604000,124000,122000
4J 47,608000,606000,124000,122000
4K 47,611413,608000,124000,122000
5F 47,602000,600000,122000,120000
5G 47,604000,602000,122000,120000
5H 47,606000,604000,122000,120000
5J 47,608000,606000,122000,120000
5K 47,611413,608000,122000,120000
6F 47,602000,600000,120000,118000
6G 47,604000,602000,120000,118000
6H 47,606000,604000,120000,118000
6J 47,608000,606000,120000,118000
6K 47,611413,608000,120000,118000
7F 47,602000,600000,118000,114921
7G 47,604000,602000,118000,114921
7H 47,606000,604000,118000,114921
7J 47,608000,606000,118000,114921
7K 47,611413,608000,118000,114921
