From 115704.log on kentres
12-11-2014 11:13:07  22   2 14  283 type  6 gen by USER AGENT
destinations: 22   014   ackreq 1 pri 1 prot 1
Message is 316 bytes total

   0     16  0 8e 4b c1 16  0  e 11  2  ...K......
  10     37  6  1  1  1  1  0  1  3 32  7........2
  20     30 31  f 53 4f 4d 45 20 43 4f  01.SOME CO
  30     4d 4d 45 4e 54 41 52 59  0 30  MMENTARY.0
  40     38 46 45 42 30 31 31 32 31 38  8FEB011218
  50     35 34 30 38 46 45 42 30 31 31  5408FEB011
  60     32 31 39 35 39  0  0  0  1 12  21959.....
  70     4e 41 54 55 52 45 20 4f 46 20  NATURE OF
  80     49 4e 43 49 44 45 4e 54 17 48  INCIDENT.H
  90     69 67 68 20 53 74 72 65 65 74  igh Street
 100     2c 20 4e 65 77 20 52 6f 6d 6e  , New Romn
 110     65 79  0  0  0  0  0  0  8 54  ey.......T
 120     4e 32 38 20 38 41 5a  1  3 32  N28 8AZ..2
 130     30 31 17 48 69 67 68 20 53 74  01.High St
 140     72 65 65 74 2c 20 4e 65 77 20  reet, New
 150     52 6f 6d 6e 65 79  0  7 45 4b  Romney..EK
 160     32 30 30 42 36  8 36 30 36 36  200B6.6066
 170     31 32 34 39  3 39 39 39  0 16  1249.999..
 180     41 44 44 49 54 49 4f 4e 41 4c  ADDITIONAL
 190     20 49 4e 46 4f 52 4d 41 54 49   INFORMATI
 200     4f 4e 24 46 20 4f 50 50 20 53  ON$F OPP S
 210     48 49 50 20 48 4f 54 45 4c 20  HIP HOTEL
 220     4f 53 20 43 49 4e 51 55 45 20  OS CINQUE
 230     50 4f 52 54 20 41 52 4d 53  0  PORT ARMS.
 240     49  d  a 52 69 73 6b 20 43 61  I..Risk Ca
 250     72 64 20 3a 20  d  a  d  a 53  rd : ....S
 260     74 61 74 69 6f 6e 20 47 72 6f  tation Gro
 270     75 6e 64 20 3a 20 32 30  d  a  und : 20..
 280     43 61 6c 6c 65 72 20 49 6e 66  Caller Inf
 290     6f 20 3a  d  a 48 69 67 68 20  o :..High
 300     73 74 2c 20 4e 65 77 20 52 6f  st, New Ro
 310     6d 6e 65 79  0 18              mney..

TestGateway log
11/12/2014 11:13:18-17-Info-MOB2  Frame 22 2 14 283 of 318 bytes received for 22 0 14
01-16-00-8E-4B-C1-16-00-0E-11-02-37-06-01-01-01-01-00-01-03-32-30-31-0F-53-4F-4D-45-20-43-4F-4D-4D-45-4E-54-41-52-59-00-30-38-46-45-42-30-31-31-32-31-38-35-34-30-38-46-45-42-30-31-31-32-31-39-35-39-00-00-00-01-12-4E-41-54-55-52-45-20-4F-46-20-49-4E-43-49-44-45-4E-54-17-48-69-67-68-20-53-74-72-65-65-74-2C-20-4E-65-77-20-52-6F-6D-6E-65-79-00-00-00-00-00-00-08-54-4E-32-38-20-38-41-5A-01-03-32-30-31-17-48-69-67-68-20-53-74-72-65-65-74-2C-20-4E-65-77-20-52-6F-6D-6E-65-79-00-07-45-4B-32-30-30-42-36-08-36-30-36-36-31-32-34-39-03-39-39-39-00-16-41-44-44-49-54-49-4F-4E-41-4C-20-49-4E-46-4F-52-4D-41-54-49-4F-4E-24-46-20-4F-50-50-20-53-48-49-50-20-48-4F-54-45-4C-20-4F-53-20-43-49-4E-51-55-45-20-50-4F-52-54-20-41-52-4D-53-00-49-0D-0A-52-69-73-6B-20-43-61-72-64-20-3A-20-0D-0A-0D-0A-53-74-61-74-69-6F-6E-20-47-72-6F-75-6E-64-20-3A-20-32-30-0D-0A-43-61-6C-6C-65-72-20-49-6E-66-6F-20-3A-0D-0A-48-69-67-68-20-73-74-2C-20-4E-65-77-20-52-6F-6D-6E-65-79-00-18-04.
11/12/2014 11:13:18-17-Info-Frame 22 2 14 283 added to queue for Local UserAgent (preference 1) at priority 1.
11/12/2014 11:13:19-15-Info-Received message type MobiliseMessage6 serial number 17843.
11/12/2014 11:13:19-17-Notice-GD92Handler Received message type MobiliseMessage6 from MOB2.
11/12/2014 11:13:20-17-Info-GD92Handler <?xml version="1.0" encoding="utf-16"?>
<GD92Msg6>
  <SerialNumber>17843</SerialNumber>
  <MsgType>MobiliseMessage6</MsgType>
  <Header ProtocolVersion="1" Priority="1" StandardPort="15" />
  <Destination>MOB0</Destination>
  <SentAt>2001-02-08T12:19:59</SentAt>
  <ReceivedAt>2014-11-12T11:13:19.5167466+00:00</ReceivedAt>
  <From>MOB2</From>
  <ManualAck>true</ManualAck>
  <FromAddress>
    <Brigade>22</Brigade>
    <Node>2</Node>
    <Port>14</Port>
  </FromAddress>
  <DestAddress>
    <Brigade>22</Brigade>
    <Node>0</Node>
    <Port>14</Port>
  </DestAddress>
  <MobilisationType>1</MobilisationType>
  <AssistanceMessage />
  <ResourcesList>
    <GD92Msg6Resource>
      <Callsign>201</Callsign>
      <Commentary>SOME COMMENTARY</Commentary>
    </GD92Msg6Resource>
  </ResourcesList>
  <AllResourcesList />
  <IncidentTimeAndDate>2001-02-08T12:18:54</IncidentTimeAndDate>
  <IncidentNumber>1</IncidentNumber>
  <IncidentType>NATURE OF INCIDENT</IncidentType>
  <Address>High Street, New Romney</Address>
  <Postcode>TN28 8AZ</Postcode>
  <FirstAttendance>
    <Callsigns>
      <string>201</string>
    </Callsigns>
    <Address>High Street, New Romney</Address>
  </FirstAttendance>
  <SecondAttendance>
    <Callsigns />
    <Address />
  </SecondAttendance>
  <MapBook>EK200B6</MapBook>
  <MapRef>60661249</MapRef>
  <HowReceived>999</HowReceived>
  <TelNumber />
  <OperatorInfo>ADDITIONAL INFORMATION</OperatorInfo>
  <WaterInformation>F OPP SHIP HOTEL OS CINQUE PORT ARMS</WaterInformation>
  <LocationNotices>
Risk Card : 

Station Ground : 20
Caller Info :
High st, New Romney</LocationNotices>
  <AddText />
</GD92Msg6>.
11/12/2014 11:13:20-17-Info-Sending message type MobiliseMessage6 serial number 17844.
11/12/2014 11:13:20-17-Debug-TransmitQueue for MOB0 port 14 adding frame 22 2 14 4992 count now 1.
11/12/2014 11:13:20-17-Info-Routing frame 22 2 14 4992 of 319 bytes to 22 0 14
01-16-00-8E-4C-01-16-00-0E-11-27-01-06-01-01-01-01-00-01-03-32-30-31-0F-53-4F-4D-45-20-43-4F-4D-4D-45-4E-54-41-52-59-00-30-38-46-65-62-30-31-31-32-31-38-35-34-31-32-4E-6F-76-31-34-31-31-31-33-32-30-00-00-00-01-12-4E-41-54-55-52-45-20-4F-46-20-49-4E-43-49-44-45-4E-54-17-48-69-67-68-20-53-74-72-65-65-74-2C-20-4E-65-77-20-52-6F-6D-6E-65-79-00-00-00-00-00-00-08-54-4E-32-38-20-38-41-5A-01-03-32-30-31-17-48-69-67-68-20-53-74-72-65-65-74-2C-20-4E-65-77-20-52-6F-6D-6E-65-79-00-00-07-45-4B-32-30-30-42-36-08-36-30-36-36-31-32-34-39-03-39-39-39-00-16-41-44-44-49-54-49-4F-4E-41-4C-20-49-4E-46-4F-52-4D-41-54-49-4F-4E-24-46-20-4F-50-50-20-53-48-49-50-20-48-4F-54-45-4C-20-4F-53-20-43-49-4E-51-55-45-20-50-4F-52-54-20-41-52-4D-53-00-49-0D-0A-52-69-73-6B-20-43-61-72-64-20-3A-20-0D-0A-0D-0A-53-74-61-74-69-6F-6E-20-47-72-6F-75-6E-64-20-3A-20-32-30-0D-0A-43-61-6C-6C-65-72-20-49-6E-66-6F-20-3A-0D-0A-48-69-67-68-20-73-74-2C-20-4E-65-77-20-52-6F-6D-6E-65-79-00-D2-04.
11/12/2014 11:13:20-17-Info-Frame 22 2 14 4992 added to queue for MOB0 MLAN (preference 1) at 


|Type:06 Mobilise^M
|Manual acknowledgement:Y^M
|Mobilisation_type:1 INCIDENT^M
|Assistance_message:^M
|Resources_list:201 SOME COMMENTARY^M
|All_resources_list: ^M
|Incident_time_and_date:08Feb01121854^M
|Sent at:12Nov14111320^M
|Incident_number:1^M
|Incident_type:NATURE OF INCIDENT^M
|Address:High Street, New Romney^M
|Post Code:TN28 8AZ^M
|First_attendance:201, High Street, New Romney^M
|Second_attendance: ^M
|Map_book:^M
|Map-ref:EK200B6^M
|How_received:60661249^M
|Tel_number:999^M
|Operator_info:^M
|Water_information:ADDITIONAL INFORMATION^M
|Location_notices: OPP SHIP HOTEL OS CINQUE PORT ARMS^M
|Add_text:^M
|End:^M


12-11-2014 11:13:08  22   2 14 4992 type  6 RX from ROUTER
destinations: 22   014   ackreq 1 pri 1 prot 1
Message is 317 bytes total

   0     16  0 8e 4c  1 16  0  e 11 27  ...L.....'
  10      1  6  1  1  1  1  0  1  3 32  .........2
  20     30 31  f 53 4f 4d 45 20 43 4f  01.SOME CO
  30     4d 4d 45 4e 54 41 52 59  0 30  MMENTARY.0
  40     38 46 65 62 30 31 31 32 31 38  8Feb011218
  50     35 34 31 32 4e 6f 76 31 34 31  5412Nov141
  60     31 31 33 32 30  0  0  0  1 12  11320.....
  70     4e 41 54 55 52 45 20 4f 46 20  NATURE OF
  80     49 4e 43 49 44 45 4e 54 17 48  INCIDENT.H
  90     69 67 68 20 53 74 72 65 65 74  igh Street
 100     2c 20 4e 65 77 20 52 6f 6d 6e  , New Romn
 110     65 79  0  0  0  0  0  0  8 54  ey.......T
 120     4e 32 38 20 38 41 5a  1  3 32  N28 8AZ..2
 130     30 31 17 48 69 67 68 20 53 74  01.High St
 140     72 65 65 74 2c 20 4e 65 77 20  reet, New
 150     52 6f 6d 6e 65 79  0  0  7 45  Romney...E  extra 0 inserted
 160     4b 32 30 30 42 36  8 36 30 36  K200B6.606
 170     36 31 32 34 39  3 39 39 39  0  61249.999.
 180     16 41 44 44 49 54 49 4f 4e 41  .ADDITIONA
 190     4c 20 49 4e 46 4f 52 4d 41 54  L INFORMAT
 200     49 4f 4e 24 46 20 4f 50 50 20  ION$F OPP
 210     53 48 49 50 20 48 4f 54 45 4c  SHIP HOTEL
 220     20 4f 53 20 43 49 4e 51 55 45   OS CINQUE
 230     20 50 4f 52 54 20 41 52 4d 53   PORT ARMS
 240      0 49  d  a 52 69 73 6b 20 43  .I..Risk C
 250     61 72 64 20 3a 20  d  a  d  a  ard : ....
 260     53 74 61 74 69 6f 6e 20 47 72  Station Gr
 270     6f 75 6e 64 20 3a 20 32 30  d  ound : 20.
 280      a 43 61 6c 6c 65 72 20 49 6e  .Caller In
 290     66 6f 20 3a  d  a 48 69 67 68  fo :..High
 300     20 73 74 2c 20 4e 65 77 20 52   st, New R
 310     6f 6d 6e 65 79  0 d2           omney..

Copied from above
01-16-00-8E-4C-01-16-00-0E-11-27-01-06-01-01-01-01-00-01-03-32-30-31-0F-53-4F-4D-45-20-43-4F-4D-4D-45-4E-54-41-52-59-00-30-38-46-65-62-30-31-31-32-31-38-35-34-31-32-4E-6F-76-31-34-31-31-31-33-32-30-00-00-00-01-12-4E-41-54-55-52-45-20-4F-46-20-49-4E-43-49-44-45-4E-54-17-48-69-67-68-20-53-74-72-65-65-74-2C-20-4E-65-77-20-52-6F-6D-6E-65-79-00-00-00-00-00-00-08-54-4E-32-38-20-38-41-5A-01-03-32-30-31-17-48-69-67-68-20-53-74-72-65-65-74-2C-20-4E-65-77-20-52-6F-6D-6E-65-79-00-00-07-45-4B-32-30-30-42-36-08-36-30-36-36-31-32-34-39-03-39-39-39-00-16-41-44-44-49-54-49-4F-4E-41-4C-20-49-4E-46-4F-52-4D-41-54-49-4F-4E-24-46-20-4F-50-50-20-53-48-49-50-20-48-4F-54-45-4C-20-4F-53-20-43-49-4E-51-55-45-20-50-4F-52-54-20-41-52-4D-53-00-49-0D-0A-52-69-73-6B-20-43-61-72-64-20-3A-20-0D-0A-0D-0A-53-74-61-74-69-6F-6E-20-47-72-6F-75-6E-64-20-3A-20-32-30-0D-0A-43-61-6C-6C-65-72-20-49-6E-66-6F-20-3A-0D-0A-48-69-67-68-20-73-74-2C-20-4E-65-77-20-52-6F-6D-6E-65-79-00-D2-04.
11/12/2014 11:13:20-17-Info-Frame 22 2 14 4992 added to queue for MOB0 MLAN (preference 1) at 


