11/28/2014 15:42:10-20-Info-STORM  Sending ENQ.
11/28/2014 15:42:10-22-Info-STORM  ACK received.
11/28/2014 15:42:15-13-Info-MDG1  Frame 22 702 1 15990 of 19 bytes received for 22 0 10
01-16-AF-81-01-01-16-00-0A-31-7C-ED-05-03-53-31-31-D1-04.
11/28/2014 15:42:15-13-Info-Frame 22 702 1 15990 added to queue for Local UserAgent (preference 1) at priority 3.
11/28/2014 15:42:15-20-Info-UA Received message type ResourceStatusRequest serial number 28107.
11/28/2014 15:42:15-20-Info-GW_Msg5 Received message 28107 type ResourceStatusRequest from 22 702 1 for 22 0 10.
11/28/2014 15:42:15-20-Info-GW_Msg5 <?xml version="1.0" encoding="utf-16"?>
<GD92Msg5>
  <SerialNumber>28107</SerialNumber>
  <MsgType>ResourceStatusRequest</MsgType>
  <Header ProtocolVersion="1" Priority="3" StandardPort="1" />
  <Destination>STORM</Destination>
  <SentAt>0001-01-01T00:00:00</SentAt>
  <ReceivedAt>2014-11-28T15:42:15.9398688+00:00</ReceivedAt>
  <From>Node702</From>
  <ManualAck>false</ManualAck>
  <FromAddress>
    <Brigade>22</Brigade>
    <Node>702</Node>
    <Port>1</Port>
  </FromAddress>
  <DestAddress>
    <Brigade>22</Brigade>
    <Node>0</Node>
    <Port>10</Port>
  </DestAddress>
  <FromNodeType>Rsc</FromNodeType>
  <DestNodeType>Storm</DestNodeType>
  <Callsign>S11</Callsign>
</GD92Msg5>.
11/28/2014 15:42:15-20-Info-GD92Component Sending message type Ack serial number 28108 in reply to 28107.
11/28/2014 15:42:15-20-Info-TransmittedFrames Routing frame 22 0 10 15990 of 15 bytes to 22 702 1
01-16-00-0A-00-01-16-AF-81-31-7C-EC-32-B6-04.
11/28/2014 15:42:15-20-Info-Frame 22 0 10 15990 added to queue for MDG1 MLAN (preference 1) at priority 3.
11/28/2014 15:42:16-21-Info-MDG1  Sending 15 bytes.
11/28/2014 15:42:18-13-Info-MDG1  Frame 22 702 1 15991 of 78 bytes received for 22 0 10
01-16-AF-81-0F-C1-16-00-0A-11-7C-EF-1B-01-01-00-3B-7C-54-79-70-65-3A-32-37-0D-0A-7C-43-72-65-77-52-65-71-75-65-73-74-3A-53-54-4E-20-53-31-31-20-4F-4E-47-4F-49-4E-47-0D-0A-7C-43-72-65-77-52-65-70-6F-72-74-54-6F-3A-53-31-31-0D-0A-70-04.
11/28/2014 15:42:18-13-Info-Frame 22 702 1 15991 added to queue for Local UserAgent (preference 1) at priority 1.
11/28/2014 15:42:18-21-Info-UA Received message type Text serial number 28109.
11/28/2014 15:42:18-21-Info-GW_Msg27FromRSC Received message 28109 type Text from 22 702 1 for 22 0 10.
11/28/2014 15:42:18-21-Info-GW_Msg27FromRSC <?xml version="1.0" encoding="utf-16"?>
<GD92Msg27>
  <SerialNumber>28109</SerialNumber>
  <MsgType>Text</MsgType>
  <Header ProtocolVersion="1" Priority="1" StandardPort="15" />
  <Destination>STORM</Destination>
  <SentAt>0001-01-01T00:00:00</SentAt>
  <ReceivedAt>2014-11-28T15:42:18.939816+00:00</ReceivedAt>
  <From>Node702</From>
  <ManualAck>false</ManualAck>
  <FromAddress>
    <Brigade>22</Brigade>
    <Node>702</Node>
    <Port>1</Port>
  </FromAddress>
  <DestAddress>
    <Brigade>22</Brigade>
    <Node>0</Node>
    <Port>10</Port>
  </DestAddress>
  <FromNodeType>Rsc</FromNodeType>
  <DestNodeType>Storm</DestNodeType>
  <Text>|Type:27
|CrewRequest:STN S11 ONGOING
|CrewReportTo:S11
</Text>
</GD92Msg27>.
11/28/2014 15:42:18-21-Info-GD92Component Sending message type Ack serial number 28110 in reply to 28109.
11/28/2014 15:42:18-21-Info-TransmittedFrames Routing frame 22 0 10 15991 of 15 bytes to 22 702 1
01-16-00-0A-00-01-16-AF-81-11-7C-EE-32-94-04.
11/28/2014 15:42:18-21-Info-Frame 22 0 10 15991 added to queue for MDG1 MLAN (preference 1) at priority 1.
11/28/2014 15:42:19-20-Info-MDG1  Sending 15 bytes.
11/28/2014 15:42:28-13-Info-MDG1  Locked by ProcessEnquiry 0 ACKs pending.
11/28/2014 15:42:28-13-Info-MDG1  Sending ENQ.
11/28/2014 15:42:29-38-Info-MDG1  ACK received.
11/28/2014 15:42:48-13-Info-MDG1  Locked by ProcessEnquiry 0 ACKs pending.
11/28/2014 15:42:48-13-Info-MDG1  Sending ENQ.
11/28/2014 15:42:49-34-Info-MDG1  ACK received.
11/28/2014 15:42:51-34-Info-MDG1  ENQ received.
11/28/2014 15:42:51-34-Info-MDG1  Sending ACK.
11/28/2014 15:42:58-7-Info-STORM  Locked by ProcessEnquiry 0 ACKs pending.
11/28/2014 15:42:58-7-Info-STORM  Sending ENQ.
11/28/2014 15:42:58-34-Info-STORM  ACK received.
11/28/2014 15:43:08-41-Info-MDG1  Locked by ProcessEnquiry 0 ACKs pending.
11/28/2014 15:43:08-41-Info-MDG1  Sending ENQ.
11/28/2014 15:43:09-22-Info-MDG1  ACK received.
11/28/2014 15:43:09-21-Info-STORM  Frame 22 0 10 1706 of 18 bytes received for 22 702 16
01-16-00-0A-00-C1-16-AF-90-11-0D-55-01-00-00-01-BD-04.
11/28/2014 15:43:09-21-Info-Frame 22 0 10 1706 added to queue for Local UserAgent (preference 1) at priority 1.
11/28/2014 15:43:10-41-Info-STORM  Frame 22 0 10 1707 of 612 bytes received for 22 702 24
01-16-00-0A-95-41-16-AF-98-11-0D-57-02-01-02-00-32-38-4E-6F-76-31-34-31-35-34-33-30-36-02-07-46-4A-4B-31-31-50-31-07-46-4A-4B-31-31-52-31-00-00-00-20-01-09-41-4C-45-58-20-46-41-52-4D-00-07-44-55-43-4B-20-4C-4E-00-0B-53-48-41-44-4F-58-48-55-52-53-54-07-41-53-48-46-4F-52-44-04-4B-45-4E-54-07-54-4E-32-36-31-4C-54-0C-35-39-37-30-32-34-31-33-37-35-34-31-00-01-FB-49-6E-63-69-64-65-6E-74-20-54-69-6D-65-3A-20-20-31-35-3A-33-38-3A-34-37-20-32-38-2F-31-31-2F-32-30-31-34-0D-0D-49-6E-63-69-64-65-6E-74-20-54-79-70-65-3A-20-20-46-49-52-45-20-43-48-49-4D-4E-45-59-2C-20-54-48-49-53-20-49-53-20-41-44-44-49-54-49-4F-4E-41-4C-20-54-45-58-54-0D-0D-41-73-73-69-73-74-61-6E-63-65-20-6D-65-73-73-61-67-65-3A-20-20-0D-0D-41-6C-6C-20-72-65-73-6F-75-63-65-73-20-6C-69-73-74-3A-20-20-0D-0D-46-69-72-73-74-20-41-74-74-65-6E-64-61-6E-63-65-3A-20-20-46-4A-4B-31-31-50-31-20-5B-50-4C-3A-5D-2C-46-4A-4B-31-31-52-31-20-5B-3A-5D-2C-20-41-4C-45-58-20-46-41-52-4D-2C-20-44-55-43-4B-20-4C-4E-2C-20-53-48-41-44-4F-58-48-55-52-53-54-2C-20-41-53-48-46-4F-52-44-0D-0D-4D-61-70-20-62-6F-6F-6B-3A-20-20-55-44-46-38-20-4C-4F-43-20-52-45-43-0D-0D-4F-53-47-52-3A-20-20-35-39-37-30-32-34-31-33-37-35-34-31-0D-0D-54-65-6C-20-4E-75-6D-62-65-72-3A-20-20-0D-0D-4C-6F-63-20-49-6E-66-6F-3A-20-20-0D-0D-4C-6F-63-61-74-69-6F-6E-20-4E-6F-74-69-63-65-73-3A-20-20-54-48-49-53-20-49-53-20-41-4E-20-4F-42-4A-45-43-54-20-41-4E-44-20-49-54-53-20-54-59-50-45-20-49-53-20-52-49-53-4B-2C-20-54-48-49-53-20-49-53-20-41-20-4C-4F-43-41-54-49-4F-4E-20-4E-4F-54-49-43-45-20-57-49-54-48-20-4C-4F-54-53-20-4F-46-20-54-45-58-54-20-1B-4D-0B-20-46-4F-52-20-56-45-52-59-4F-4E-45-20-54-4F-20-56-45-49-57-20-2E-20-50-41-52-54-20-4F-46-20-54-45-53-54-49-4E-47-20-46-4F-52-20-4A-4F-48-4E-20-41-4E-44-20-50-48-49-4C-20-1B-2E-0F-0D-0D-4C-6F-63-61-74-69-6F-6E-20-52-69-73-6B-3A-20-20-0D-0D-4C-6F-63-61-74-76-04.
11/28/2014 15:43:10-41-Info-Frame 22 0 10 1707 added to queue for Local UserAgent (preference 1) at priority 1.
11/28/2014 15:43:10-41-Info-STORM  Frame 22 0 10 1708 of 35 bytes received for 22 702 24
01-16-00-0A-05-01-16-AF-98-11-0D-59-02-02-02-00-69-6F-6E-20-43-6F-6D-6D-65-6E-74-3A-20-20-0D-0D-20-7F-04.
11/28/2014 15:43:10-41-Info-Frame 22 0 10 1708 added to queue for Local UserAgent (preference 1) at priority 1.
11/28/2014 15:43:10-13-Info-UA Received message type MobiliseCommand serial number 28111.
11/28/2014 15:43:10-13-Info-UA Local UserAgent Replying to Frame 22 0 10 1707 with Ack 22 702 24 1707 of 15 bytes
01-16-AF-98-00-01-16-00-0A-11-0D-56-32-44-04.
11/28/2014 15:43:10-13-Info-Frame 22 702 24 1707 added to queue for STORM SLAN (preference 1) at priority 1.
11/28/2014 15:43:10-13-Info-UA Received message type MobiliseMessage serial number 28112.
11/28/2014 15:43:10-13-Info-GW_Msg1 Received message 28111 type MobiliseCommand from 22 0 10 for 22 702 16.
11/28/2014 15:43:10-13-Info-GW_Msg1 <?xml version="1.0" encoding="utf-16"?>
<GD92Msg1>
  <SerialNumber>28111</SerialNumber>
  <MsgType>MobiliseCommand</MsgType>
  <Header ProtocolVersion="1" Priority="1" StandardPort="12" />
  <Destination>Node702</Destination>
  <SentAt>0001-01-01T00:00:00</SentAt>
  <ReceivedAt>2014-11-28T15:43:10.9395392+00:00</ReceivedAt>
  <From>STORM</From>
  <ManualAck>true</ManualAck>
  <FromAddress>
    <Brigade>22</Brigade>
    <Node>0</Node>
    <Port>10</Port>
  </FromAddress>
  <DestAddress>
    <Brigade>22</Brigade>
    <Node>702</Node>
    <Port>16</Port>
  </DestAddress>
  <FromNodeType>Storm</FromNodeType>
  <DestNodeType>Rsc</DestNodeType>
  <Sounders>false</Sounders>
  <Lights>false</Lights>
  <Spare2>false</Spare2>
  <Spare3>false</Spare3>
  <Spare4>false</Spare4>
  <Doors>false</Doors>
  <StandbySounder>false</StandbySounder>
  <Appliance9>false</Appliance9>
  <Appliance1>false</Appliance1>
  <Appliance2>false</Appliance2>
  <Appliance3>false</Appliance3>
  <Appliance4>false</Appliance4>
  <Appliance5>false</Appliance5>
  <Appliance6>false</Appliance6>
  <Appliance7>false</Appliance7>
  <Appliance8>false</Appliance8>
</GD92Msg1>.
11/28/2014 15:43:10-13-Info-GD92Component Sending message type MobiliseCommand serial number 28113.
11/28/2014 15:43:10-13-Info-TransmittedFrames Routing frame 22 0 10 9809 of 18 bytes to 22 702 16
01-16-00-0A-00-C1-16-AF-90-11-4C-A3-01-00-00-01-0A-04.
11/28/2014 15:43:10-13-Info-Frame 22 0 10 9809 added to queue for MDG1 MLAN (preference 1) at priority 1.
11/28/2014 15:43:11-13-Info-GW_Msg2 Received message 28112 type MobiliseMessage from 22 0 10 for 22 702 24.
11/28/2014 15:43:11-13-Info-GW_Msg2 <?xml version="1.0" encoding="utf-16"?>
<GD92Msg2>
  <SerialNumber>28112</SerialNumber>
  <MsgType>MobiliseMessage</MsgType>
  <Header ProtocolVersion="1" Priority="1" StandardPort="15" />
  <Destination>Node702</Destination>
  <SentAt>2014-11-28T15:43:06</SentAt>
  <ReceivedAt>2014-11-28T15:43:10.9395392+00:00</ReceivedAt>
  <From>STORM</From>
  <ManualAck>false</ManualAck>
  <FromAddress>
    <Brigade>22</Brigade>
    <Node>0</Node>
    <Port>10</Port>
  </FromAddress>
  <DestAddress>
    <Brigade>22</Brigade>
    <Node>702</Node>
    <Port>24</Port>
  </DestAddress>
  <FromNodeType>Storm</FromNodeType>
  <DestNodeType>Rsc</DestNodeType>
  <CallsignList>
    <string>FJK11P1</string>
    <string>FJK11R1</string>
  </CallsignList>
  <IncidentNumber>32</IncidentNumber>
  <MobilisationType>1</MobilisationType>
  <Address>ALEX FARM</Address>
  <MapRef />
  <TelNumber>DUCK LN</TelNumber>
  <Text>SHADOXHURST</Text>
</GD92Msg2>.
11/28/2014 15:43:11-13-Info-GD92Component Sending message type Ack serial number 28114 in reply to 28112.
11/28/2014 15:43:11-13-Info-TransmittedFrames Routing frame 22 702 24 1708 of 15 bytes to 22 0 10
01-16-AF-98-00-01-16-00-0A-11-0D-58-32-4A-04.
11/28/2014 15:43:11-13-Info-Frame 22 702 24 1708 added to queue for STORM SLAN (preference 1) at priority 1.
11/28/2014 15:43:11-20-Info-STORM  Sending 15 bytes.
11/28/2014 15:43:11-20-Info-STORM  Sending 15 bytes.
11/28/2014 15:43:11-20-Info-MDG1  Sending 18 bytes.
11/28/2014 15:43:12-22-Info-STORM  ACK received.
11/28/2014 15:43:12-22-Info-STORM  ACK received.
11/28/2014 15:43:13-41-Info-MDG1  Frame 22 702 16 9809 of 21 bytes received for 22 0 10
01-16-AF-90-01-81-16-00-0A-11-4C-A2-33-01-16-AF-90-01-09-59-04.
11/28/2014 15:43:13-41-Info-Frame 22 702 16 9809 added to queue for Local UserAgent (preference 1) at priority 1.
11/28/2014 15:43:13-20-Info-UA Received message type Nak serial number 28115 in reply to 28113.
11/28/2014 15:43:13-20-Info-GW_Msg51 Received reply 28115 to 28113 (28111) type Nak from 22 702 16 for 22 0 10.
11/28/2014 15:43:13-20-Info-GW_Msg51 <?xml version="1.0" encoding="utf-16"?>
<GD92Msg51>
  <SerialNumber>28115</SerialNumber>
  <MsgType>Nak</MsgType>
  <Header ProtocolVersion="1" Priority="1" StandardPort="1" />
  <Destination>STORM</Destination>
  <SentAt>0001-01-01T00:00:00</SentAt>
  <ReceivedAt>2014-11-28T15:43:13.9395584+00:00</ReceivedAt>
  <From>Node702</From>
  <ManualAck>false</ManualAck>
  <FromAddress>
    <Brigade>22</Brigade>
    <Node>702</Node>
    <Port>16</Port>
  </FromAddress>
  <DestAddress>
    <Brigade>22</Brigade>
    <Node>0</Node>
    <Port>10</Port>
  </DestAddress>
  <FromNodeType>Rsc</FromNodeType>
  <DestNodeType>Storm</DestNodeType>
  <OriginalDestination>
    <Brigade>22</Brigade>
    <Node>702</Node>
    <Port>16</Port>
  </OriginalDestination>
  <ReasonCodeSet>General</ReasonCodeSet>
  <ReasonCode>9</ReasonCode>
</GD92Msg51>.
11/28/2014 15:43:13-20-Info-GD92Component Sending message type Nak serial number 28116 in reply to 28111.
11/28/2014 15:43:13-20-Info-TransmittedFrames Routing frame 22 702 16 1706 of 21 bytes to 22 0 10
01-16-AF-90-01-81-16-00-0A-11-0D-54-33-01-00-00-00-01-09-C7-04.
11/28/2014 15:43:13-20-Info-Frame 22 702 16 1706 added to queue for STORM SLAN (preference 1) at priority 1.
11/28/2014 15:43:14-8-Info-STORM  Sending 21 bytes.
11/28/2014 15:43:15-22-Info-STORM  ACK received.
11/28/2014 15:43:15-21-Info-MDG1  Frame 22 702 1 15992 of 78 bytes received for 22 0 10
01-16-AF-81-0F-C1-16-00-0A-11-7C-F1-1B-01-01-00-3B-7C-54-79-70-65-3A-32-37-0D-0A-7C-43-72-65-77-52-65-71-75-65-73-74-3A-53-54-4E-20-53-31-31-20-4F-4E-47-4F-49-4E-47-0D-0A-7C-43-72-65-77-52-65-70-6F-72-74-54-6F-3A-53-31-31-0D-0A-6E-04.
11/28/2014 15:43:15-21-Info-Frame 22 702 1 15992 added to queue for Local UserAgent (preference 1) at priority 1.
11/28/2014 15:43:15-20-Info-UA Received message type Text serial number 28117.
11/28/2014 15:43:15-20-Info-GW_Msg27FromRSC Received message 28117 type Text from 22 702 1 for 22 0 10.
11/28/2014 15:43:15-20-Info-GW_Msg27FromRSC <?xml version="1.0" encoding="utf-16"?>
<GD92Msg27>
  <SerialNumber>28117</SerialNumber>
  <MsgType>Text</MsgType>
  <Header ProtocolVersion="1" Priority="1" StandardPort="15" />
  <Destination>STORM</Destination>
  <SentAt>0001-01-01T00:00:00</SentAt>
  <ReceivedAt>2014-11-28T15:43:15.9395712+00:00</ReceivedAt>
  <From>Node702</From>
  <ManualAck>false</ManualAck>
  <FromAddress>
    <Brigade>22</Brigade>
    <Node>702</Node>
    <Port>1</Port>
  </FromAddress>
  <DestAddress>
    <Brigade>22</Brigade>
    <Node>0</Node>
    <Port>10</Port>
  </DestAddress>
  <FromNodeType>Rsc</FromNodeType>
  <DestNodeType>Storm</DestNodeType>
  <Text>|Type:27
|CrewRequest:STN S11 ONGOING
|CrewReportTo:S11
</Text>
</GD92Msg27>.
11/28/2014 15:43:15-20-Info-GD92Component Sending message type Ack serial number 28118 in reply to 28117.
11/28/2014 15:43:15-20-Info-TransmittedFrames Routing frame 22 0 10 15992 of 15 bytes to 22 702 1
01-16-00-0A-00-01-16-AF-81-11-7C-F0-32-8A-04.
11/28/2014 15:43:15-20-Info-Frame 22 0 10 15992 added to queue for MDG1 MLAN (preference 1) at priority 1.
11/28/2014 15:43:16-8-Info-MDG1  Sending 15 bytes.
11/28/2014 15:43:28-13-Info-MDG1  Locked by ProcessEnquiry 0 ACKs pending.
11/28/2014 15:43:28-13-Info-MDG1  Sending ENQ.
11/28/2014 15:43:29-9-Info-MDG1  ACK received.
11/28/2014 15:43:46-41-Info-STORM  Locked by ProcessEnquiry 0 ACKs pending.
11/28/2014 15:43:46-41-Info-STORM  Sending ENQ.
11/28/2014 15:43:46-26-Info-STORM  ACK received.
11/28/2014 15:43:48-26-Info-MDG1  ENQ received.
11/28/2014 15:43:48-26-Info-MDG1  Sending ACK.
11/28/2014 15:43:48-21-Info-MDG1  Locked by ProcessEnquiry 0 ACKs pending.
11/28/2014 15:43:48-21-Info-MDG1  Sending ENQ.
11/28/2014 15:43:49-26-Info-MDG1  ACK received.
11/28/2014 15:43:50-13-Info-UA Local UserAgent Replying to self about Frame 22 0 10 9808 with Nak (TransmissionTimedOut) 22 116 0 9808 of 21 bytes
01-16-1D-00-01-81-16-1D-01-11-4C-A0-33-01-16-B0-90-01-0E-77-04.
11/28/2014 15:43:50-13-Info-Frame 22 116 0 9808 added to queue for Local UserAgent (preference 1) at priority 1.
11/28/2014 15:43:50-7-Warning-TransmitQueue for MDG1 Frame 22 0 10 9808 not found - queue is empty).
11/28/2014 15:43:50-7-Info-UA Received message type Nak serial number 28119 in reply to 28097.
11/28/2014 15:43:50-7-Info-GW_LocalReply Received reply 28119 to 28097 (28095) type Nak from 22 116 0 for 22 116 1.
11/28/2014 15:43:50-7-Info-GW_LocalReply <?xml version="1.0" encoding="utf-16"?>
<GD92Msg51>
  <SerialNumber>28119</SerialNumber>
  <MsgType>Nak</MsgType>
  <Header ProtocolVersion="1" Priority="1" StandardPort="1" />
  <Destination>SGW1</Destination>
  <SentAt>0001-01-01T00:00:00</SentAt>
  <ReceivedAt>2014-11-28T15:43:50.93864+00:00</ReceivedAt>
  <From>Node706</From>
  <ManualAck>false</ManualAck>
  <FromAddress>
    <Brigade>22</Brigade>
    <Node>116</Node>
    <Port>0</Port>
  </FromAddress>
  <DestAddress>
    <Brigade>22</Brigade>
    <Node>116</Node>
    <Port>1</Port>
  </DestAddress>
  <FromNodeType>None</FromNodeType>
  <DestNodeType>None</DestNodeType>
  <OriginalDestination>
    <Brigade>22</Brigade>
    <Node>706</Node>
    <Port>16</Port>
  </OriginalDestination>
  <ReasonCodeSet>General</ReasonCodeSet>
  <ReasonCode>14</ReasonCode>
</GD92Msg51>.
11/28/2014 15:44:08-8-Info-MDG1  Locked by ProcessEnquiry 0 ACKs pending.
11/28/2014 15:44:08-8-Info-MDG1  Sending ENQ.
11/28/2014 15:44:09-19-Info-MDG1  ACK received.
11/28/2014 15:44:15-7-Info-MDG1  Frame 22 702 1 15993 of 78 bytes received for 22 0 10
01-16-AF-81-0F-C1-16-00-0A-11-7C-F3-1B-01-01-00-3B-7C-54-79-70-65-3A-32-37-0D-0A-7C-43-72-65-77-52-65-71-75-65-73-74-3A-53-54-4E-20-53-31-31-20-4F-4E-47-4F-49-4E-47-0D-0A-7C-43-72-65-77-52-65-70-6F-72-74-54-6F-3A-53-31-31-0D-0A-6C-04.
11/28/2014 15:44:15-7-Info-Frame 22 702 1 15993 added to queue for Local UserAgent (preference 1) at priority 1.
11/28/2014 15:44:15-7-Info-UA Received message type Text serial number 28120.
11/28/2014 15:44:15-7-Info-GW_Msg27FromRSC Received message 28120 type Text from 22 702 1 for 22 0 10.
11/28/2014 15:44:15-7-Info-GW_Msg27FromRSC <?xml version="1.0" encoding="utf-16"?>
<GD92Msg27>
  <SerialNumber>28120</SerialNumber>
  <MsgType>Text</MsgType>
  <Header ProtocolVersion="1" Priority="1" StandardPort="15" />
  <Destination>STORM</Destination>
  <SentAt>0001-01-01T00:00:00</SentAt>
  <ReceivedAt>2014-11-28T15:44:15.9385542+00:00</ReceivedAt>
  <From>Node702</From>
  <ManualAck>false</ManualAck>
  <FromAddress>
    <Brigade>22</Brigade>
    <Node>702</Node>
    <Port>1</Port>
  </FromAddress>
  <DestAddress>
    <Brigade>22</Brigade>
    <Node>0</Node>
    <Port>10</Port>
  </DestAddress>
  <FromNodeType>Rsc</FromNodeType>
  <DestNodeType>Storm</DestNodeType>
  <Text>|Type:27
|CrewRequest:STN S11 ONGOING
|CrewReportTo:S11
</Text>
</GD92Msg27>.
11/28/2014 15:44:15-7-Info-GD92Component Sending message type Ack serial number 28121 in reply to 28120.
11/28/2014 15:44:15-7-Info-TransmittedFrames Routing frame 22 0 10 15993 of 15 bytes to 22 702 1
01-16-00-0A-00-01-16-AF-81-11-7C-F2-32-88-04.
11/28/2014 15:44:15-7-Info-Frame 22 0 10 15993 added to queue for MDG1 MLAN (preference 1) at priority 1.
11/28/2014 15:44:16-13-Info-MDG1  Sending 15 bytes.
11/28/2014 15:44:28-8-Info-MDG1  Locked by ProcessEnquiry 0 ACKs pending.
11/28/2014 15:44:28-8-Info-MDG1  Sending ENQ.
11/28/2014 15:44:29-45-Info-MDG1  ACK received.
11/28/2014 15:44:34-13-Info-STORM  Locked by ProcessEnquiry 0 ACKs pending.
11/28/2014 15:44:34-13-Info-STORM  Sending ENQ.
11/28/2014 15:44:34-45-Info-STORM  ACK received.
11/28/2014 15:44:48-45-Info-MDG1  ENQ received.
11/28/2014 15:44:48-45-Info-MDG1  Sending ACK.
11/28/2014 15:44:48-20-Info-MDG1  Locked by ProcessEnquiry 0 ACKs pending.
11/28/2014 15:44:48-20-Info-MDG1  Sending ENQ.
11/28/2014 15:44:49-35-Info-MDG1  ACK received.
11/28/2014 15:45:08-41-Info-MDG1  Locked by ProcessEnquiry 0 ACKs pending.
11/28/2014 15:45:08-41-Info-MDG1  Sending ENQ.
11/28/2014 15:45:09-19-Info-MDG1  ACK received.
11/28/2014 15:45:15-13-Info-MDG1  Frame 22 702 1 15994 of 78 bytes received for 22 0 10
01-16-AF-81-0F-C1-16-00-0A-11-7C-F5-1B-01-01-00-3B-7C-54-79-70-65-3A-32-37-0D-0A-7C-43-72-65-77-52-65-71-75-65-73-74-3A-53-54-4E-20-53-31-31-20-4F-4E-47-4F-49-4E-47-0D-0A-7C-43-72-65-77-52-65-70-6F-72-74-54-6F-3A-53-31-31-0D-0A-6A-04.
11/28/2014 15:45:15-13-Info-Frame 22 702 1 15994 added to queue for Local UserAgent (preference 1) at priority 1.
11/28/2014 15:45:15-7-Info-UA Received message type Text serial number 28122.
11/28/2014 15:45:15-7-Info-GW_Msg27FromRSC Received message 28122 type Text from 22 702 1 for 22 0 10.
11/28/2014 15:45:15-7-Info-GW_Msg27FromRSC <?xml version="1.0" encoding="utf-16"?>
<GD92Msg27>
  <SerialNumber>28122</SerialNumber>
  <MsgType>Text</MsgType>
  <Header ProtocolVersion="1" Priority="1" StandardPort="15" />
  <Destination>STORM</Destination>
  <SentAt>0001-01-01T00:00:00</SentAt>
  <ReceivedAt>2014-11-28T15:45:15.9383998+00:00</ReceivedAt>
  <From>Node702</From>
  <ManualAck>false</ManualAck>
  <FromAddress>
    <Brigade>22</Brigade>
    <Node>702</Node>
    <Port>1</Port>
  </FromAddress>
  <DestAddress>
    <Brigade>22</Brigade>
    <Node>0</Node>
    <Port>10</Port>
  </DestAddress>
  <FromNodeType>Rsc</FromNodeType>
  <DestNodeType>Storm</DestNodeType>
  <Text>|Type:27
|CrewRequest:STN S11 ONGOING
|CrewReportTo:S11
</Text>
</GD92Msg27>.
11/28/2014 15:45:15-7-Info-GD92Component Sending message type Ack serial number 28123 in reply to 28122.
11/28/2014 15:45:15-7-Info-TransmittedFrames Routing frame 22 0 10 15994 of 15 bytes to 22 702 1
01-16-00-0A-00-01-16-AF-81-11-7C-F4-32-8E-04.
11/28/2014 15:45:15-7-Info-Frame 22 0 10 15994 added to queue for MDG1 MLAN (preference 1) at priority 1.
11/28/2014 15:45:16-41-Info-MDG1  Sending 15 bytes.
11/28/2014 15:45:22-13-Info-STORM  Locked by ProcessEnquiry 0 ACKs pending.
11/28/2014 15:45:22-13-Info-STORM  Sending ENQ.
11/28/2014 15:45:22-19-Info-STORM  ACK received.
11/28/2014 15:45:28-20-Info-MDG1  Locked by ProcessEnquiry 0 ACKs pending.
11/28/2014 15:45:28-20-Info-MDG1  Sending ENQ.
11/28/2014 15:45:29-26-Info-MDG1  ACK received.
11/28/2014 15:45:48-26-Info-MDG1  ENQ received.
11/28/2014 15:45:48-26-Info-MDG1  Sending ACK.
11/28/2014 15:45:48-20-Info-MDG1  Locked by ProcessEnquiry 0 ACKs pending.
11/28/2014 15:45:48-20-Info-MDG1  Sending ENQ.
11/28/2014 15:45:49-9-Info-MDG1  ACK received.
11/28/2014 15:46:08-20-Info-MDG1  Locked by ProcessEnquiry 0 ACKs pending.
11/28/2014 15:46:08-20-Info-MDG1  Sending ENQ.
11/28/2014 15:46:09-22-Info-MDG1  ACK received.
11/28/2014 15:46:10-7-Info-STORM  Locked by ProcessEnquiry 0 ACKs pending.
11/28/2014 15:46:10-7-Info-STORM  Sending ENQ.
11/28/2014 15:46:10-22-Info-STORM  ACK received.
11/28/2014 15:46:15-41-Info-MDG1  Frame 22 702 1 15995 of 19 bytes received for 22 0 10
01-16-AF-81-01-01-16-00-0A-31-7C-F7-05-03-53-31-31-CB-04.
11/28/2014 15:46:15-41-Info-Frame 22 702 1 15995 added to queue for Local UserAgent (preference 1) at priority 3.
11/28/2014 15:46:15-7-Info-UA Received message type ResourceStatusRequest serial number 28124.
11/28/2014 15:46:15-7-Info-GW_Msg5 Received message 28124 type ResourceStatusRequest from 22 702 1 for 22 0 10.
11/28/2014 15:46:15-7-Info-GW_Msg5 <?xml version="1.0" encoding="utf-16"?>
<GD92Msg5>
  <SerialNumber>28124</SerialNumber>
  <MsgType>ResourceStatusRequest</MsgType>
  <Header ProtocolVersion="1" Priority="3" StandardPort="1" />
  <Destination>STORM</Destination>
  <SentAt>0001-01-01T00:00:00</SentAt>
  <ReceivedAt>2014-11-28T15:46:15.938385+00:00</ReceivedAt>
  <From>Node702</From>
  <ManualAck>false</ManualAck>
  <FromAddress>
    <Brigade>22</Brigade>
    <Node>702</Node>
    <Port>1</Port>
  </FromAddress>
  <DestAddress>
    <Brigade>22</Brigade>
    <Node>0</Node>
    <Port>10</Port>
  </DestAddress>
  <FromNodeType>Rsc</FromNodeType>
  <DestNodeType>Storm</DestNodeType>
  <Callsign>S11</Callsign>
</GD92Msg5>.
11/28/2014 15:46:15-7-Info-GD92Component Sending message type Ack serial number 28125 in reply to 28124.
11/28/2014 15:46:15-7-Info-TransmittedFrames Routing frame 22 0 10 15995 of 15 bytes to 22 702 1
01-16-00-0A-00-01-16-AF-81-31-7C-F6-32-AC-04.
11/28/2014 15:46:15-7-Info-Frame 22 0 10 15995 added to queue for MDG1 MLAN (preference 1) at priority 3.
11/28/2014 15:46:16-8-Info-MDG1  Sending 15 bytes.
11/28/2014 15:46:18-41-Info-MDG1  Frame 22 702 1 15996 of 78 bytes received for 22 0 10
01-16-AF-81-0F-C1-16-00-0A-11-7C-F9-1B-01-01-00-3B-7C-54-79-70-65-3A-32-37-0D-0A-7C-43-72-65-77-52-65-71-75-65-73-74-3A-53-54-4E-20-53-31-31-20-4F-4E-47-4F-49-4E-47-0D-0A-7C-43-72-65-77-52-65-70-6F-72-74-54-6F-3A-53-31-31-0D-0A-66-04.
11/28/2014 15:46:18-41-Info-Frame 22 702 1 15996 added to queue for Local UserAgent (preference 1) at priority 1.
11/28/2014 15:46:18-8-Info-UA Received message type Text serial number 28126.
11/28/2014 15:46:18-8-Info-GW_Msg27FromRSC Received message 28126 type Text from 22 702 1 for 22 0 10.
11/28/2014 15:46:18-8-Info-GW_Msg27FromRSC <?xml version="1.0" encoding="utf-16"?>
<GD92Msg27>
  <SerialNumber>28126</SerialNumber>
  <MsgType>Text</MsgType>
  <Header ProtocolVersion="1" Priority="1" StandardPort="15" />
  <Destination>STORM</Destination>
  <SentAt>0001-01-01T00:00:00</SentAt>
  <ReceivedAt>2014-11-28T15:46:18.938383+00:00</ReceivedAt>
  <From>Node702</From>
  <ManualAck>false</ManualAck>
  <FromAddress>
    <Brigade>22</Brigade>
    <Node>702</Node>
    <Port>1</Port>
  </FromAddress>
  <DestAddress>
    <Brigade>22</Brigade>
    <Node>0</Node>
    <Port>10</Port>
  </DestAddress>
  <FromNodeType>Rsc</FromNodeType>
  <DestNodeType>Storm</DestNodeType>
  <Text>|Type:27
|CrewRequest:STN S11 ONGOING
|CrewReportTo:S11
</Text>
</GD92Msg27>.
11/28/2014 15:46:18-8-Info-GD92Component Sending message type Ack serial number 28127 in reply to 28126.
11/28/2014 15:46:18-8-Info-TransmittedFrames Routing frame 22 0 10 15996 of 15 bytes to 22 702 1
01-16-00-0A-00-01-16-AF-81-11-7C-F8-32-82-04.
11/28/2014 15:46:18-8-Info-Frame 22 0 10 15996 added to queue for MDG1 MLAN (preference 1) at priority 1.
11/28/2014 15:46:19-7-Info-MDG1  Sending 15 bytes.
11/28/2014 15:46:28-21-Info-MDG1  Locked by ProcessEnquiry 0 ACKs pending.
11/28/2014 15:46:28-21-Info-MDG1  Sending ENQ.
11/28/2014 15:46:29-34-Info-MDG1  ACK received.
11/28/2014 15:46:48-41-Info-MDG1  Locked by ProcessEnquiry 0 ACKs pending.
11/28/2014 15:46:48-41-Info-MDG1  Sending ENQ.
11/28/2014 15:46:49-38-Info-MDG1  ACK received.
11/28/2014 15:46:51-38-Info-MDG1  ENQ received.
11/28/2014 15:46:51-38-Info-MDG1  Sending ACK.
11/28/2014 15:46:58-21-Info-STORM  Locked by ProcessEnquiry 0 ACKs pending.
11/28/2014 15:46:58-21-Info-STORM  Sending ENQ.
11/28/2014 15:46:58-38-Info-STORM  ACK received.
11/28/2014 15:47:08-8-Info-MDG1  Locked by ProcessEnquiry 0 ACKs pending.
11/28/2014 15:47:08-8-Info-MDG1  Sending ENQ.
11/28/2014 15:47:09-32-Info-MDG1  ACK received.
11/28/2014 15:47:15-21-Info-MDG1  Frame 22 702 1 15997 of 78 bytes received for 22 0 10
01-16-AF-81-0F-C1-16-00-0A-11-7C-FB-1B-01-01-00-3B-7C-54-79-70-65-3A-32-37-0D-0A-7C-43-72-65-77-52-65-71-75-65-73-74-3A-53-54-4E-20-53-31-31-20-4F-4E-47-4F-49-4E-47-0D-0A-7C-43-72-65-77-52-65-70-6F-72-74-54-6F-3A-53-31-31-0D-0A-64-04.
11/28/2014 15:47:15-21-Info-Frame 22 702 1 15997 added to queue for Local UserAgent (preference 1) at priority 1.
11/28/2014 15:47:15-13-Info-UA Received message type Text serial number 28128.
11/28/2014 15:47:15-13-Info-GW_Msg27FromRSC Received message 28128 type Text from 22 702 1 for 22 0 10.
11/28/2014 15:47:15-13-Info-GW_Msg27FromRSC <?xml version="1.0" encoding="utf-16"?>
<GD92Msg27>
  <SerialNumber>28128</SerialNumber>
  <MsgType>Text</MsgType>
  <Header ProtocolVersion="1" Priority="1" StandardPort="15" />
  <Destination>STORM</Destination>
  <SentAt>0001-01-01T00:00:00</SentAt>
  <ReceivedAt>2014-11-28T15:47:15.9381654+00:00</ReceivedAt>
  <From>Node702</From>
  <ManualAck>false</ManualAck>
  <FromAddress>
    <Brigade>22</Brigade>
    <Node>702</Node>
    <Port>1</Port>
  </FromAddress>
  <DestAddress>
    <Brigade>22</Brigade>
    <Node>0</Node>
    <Port>10</Port>
  </DestAddress>
  <FromNodeType>Rsc</FromNodeType>
  <DestNodeType>Storm</DestNodeType>
  <Text>|Type:27
|CrewRequest:STN S11 ONGOING
|CrewReportTo:S11
</Text>
</GD92Msg27>.
11/28/2014 15:47:15-13-Info-GD92Component Sending message type Ack serial number 28129 in reply to 28128.
11/28/2014 15:47:15-13-Info-TransmittedFrames Routing frame 22 0 10 15997 of 15 bytes to 22 702 1
01-16-00-0A-00-01-16-AF-81-11-7C-FA-32-80-04.
11/28/2014 15:47:15-13-Info-Frame 22 0 10 15997 added to queue for MDG1 MLAN (preference 1) at priority 1.
11/28/2014 15:47:16-8-Info-MDG1  Sending 15 bytes.
11/28/2014 15:47:28-41-Info-MDG1  Locked by ProcessEnquiry 0 ACKs pending.
11/28/2014 15:47:28-41-Info-MDG1  Sending ENQ.
11/28/2014 15:47:29-34-Info-MDG1  ACK received.
11/28/2014 15:47:46-7-Info-STORM  Locked by ProcessEnquiry 0 ACKs pending.
11/28/2014 15:47:46-7-Info-STORM  Sending ENQ.
11/28/2014 15:47:46-22-Info-STORM  ACK received.
11/28/2014 15:47:48-22-Info-MDG1  ENQ received.
11/28/2014 15:47:48-22-Info-MDG1  Sending ACK.
11/28/2014 15:47:48-21-Info-MDG1  Locked by ProcessEnquiry 0 ACKs pending.
11/28/2014 15:47:48-21-Info-MDG1  Sending ENQ.
11/28/2014 15:47:49-22-Info-MDG1  ACK received.
11/28/2014 15:48:08-20-Info-MDG1  Locked by ProcessEnquiry 0 ACKs pending.
11/28/2014 15:48:08-20-Info-MDG1  Sending ENQ.
11/28/2014 15:48:09-9-Info-MDG1  ACK received.
11/28/2014 15:48:13-8-Info-UA Local UserAgent Replying to self about Frame 22 0 10 9809 with Nak (TransmissionTimedOut) 22 116 0 9809 of 21 bytes
01-16-1D-00-01-81-16-1D-01-11-4C-A2-33-01-16-AF-90-01-0E-6A-04.
11/28/2014 15:48:13-8-Info-Frame 22 116 0 9809 added to queue for Local UserAgent (preference 1) at priority 1.
11/28/2014 15:48:13-8-Warning-TransmitQueue for MDG1 Frame 22 0 10 9809 not found - queue is empty).
11/28/2014 15:48:13-8-Info-UA Received message type Nak serial number 28130 in reply to 28113.
11/28/2014 15:48:13-8-Info-GW_LocalReply Received reply 28130 to 28113 (28111) type Nak from 22 116 0 for 22 116 1.
11/28/2014 15:48:13-8-Info-GW_LocalReply <?xml version="1.0" encoding="utf-16"?>
<GD92Msg51>
  <SerialNumber>28130</SerialNumber>
  <MsgType>Nak</MsgType>
  <Header ProtocolVersion="1" Priority="1" StandardPort="1" />
  <Destination>SGW1</Destination>
  <SentAt>0001-01-01T00:00:00</SentAt>
  <ReceivedAt>2014-11-28T15:48:13.9383028+00:00</ReceivedAt>
  <From>Node702</From>
  <ManualAck>false</ManualAck>
  <FromAddress>
    <Brigade>22</Brigade>
    <Node>116</Node>
    <Port>0</Port>
  </FromAddress>
  <DestAddress>
    <Brigade>22</Brigade>
    <Node>116</Node>
    <Port>1</Port>
  </DestAddress>
  <FromNodeType>None</FromNodeType>
  <DestNodeType>None</DestNodeType>
  <OriginalDestination>
    <Brigade>22</Brigade>
    <Node>702</Node>
    <Port>16</Port>
  </OriginalDestination>
  <ReasonCodeSet>General</ReasonCodeSet>
  <ReasonCode>14</ReasonCode>
</GD92Msg51>.
11/28/2014 15:48:15-41-Info-MDG1  Frame 22 702 1 15998 of 78 bytes received for 22 0 10
01-16-AF-81-0F-C1-16-00-0A-11-7C-FD-1B-01-01-00-3B-7C-54-79-70-65-3A-32-37-0D-0A-7C-43-72-65-77-52-65-71-75-65-73-74-3A-53-54-4E-20-53-31-31-20-4F-4E-47-4F-49-4E-47-0D-0A-7C-43-72-65-77-52-65-70-6F-72-74-54-6F-3A-53-31-31-0D-0A-62-04.
11/28/2014 15:48:15-41-Info-Frame 22 702 1 15998 added to queue for Local UserAgent (preference 1) at priority 1.
11/28/2014 15:48:15-8-Info-UA Received message type Text serial number 28131.
11/28/2014 15:48:15-8-Info-GW_Msg27FromRSC Received message 28131 type Text from 22 702 1 for 22 0 10.
11/28/2014 15:48:15-8-Info-GW_Msg27FromRSC <?xml version="1.0" encoding="utf-16"?>
<GD92Msg27>
  <SerialNumber>28131</SerialNumber>
  <MsgType>Text</MsgType>
  <Header ProtocolVersion="1" Priority="1" StandardPort="15" />
  <Destination>STORM</Destination>
  <SentAt>0001-01-01T00:00:00</SentAt>
  <ReceivedAt>2014-11-28T15:48:15.9383156+00:00</ReceivedAt>
  <From>Node702</From>
  <ManualAck>false</ManualAck>
  <FromAddress>
    <Brigade>22</Brigade>
    <Node>702</Node>
    <Port>1</Port>
  </FromAddress>
  <DestAddress>
    <Brigade>22</Brigade>
    <Node>0</Node>
    <Port>10</Port>
  </DestAddress>
  <FromNodeType>Rsc</FromNodeType>
  <DestNodeType>Storm</DestNodeType>
  <Text>|Type:27
|CrewRequest:STN S11 ONGOING
|CrewReportTo:S11
</Text>
</GD92Msg27>.
11/28/2014 15:48:15-8-Info-GD92Component Sending message type Ack serial number 28132 in reply to 28131.
11/28/2014 15:48:15-8-Info-TransmittedFrames Routing frame 22 0 10 15998 of 15 bytes to 22 702 1
01-16-00-0A-00-01-16-AF-81-11-7C-FC-32-86-04.
11/28/2014 15:48:15-8-Info-Frame 22 0 10 15998 added to queue for MDG1 MLAN (preference 1) at priority 1.
11/28/2014 15:48:16-20-Info-MDG1  Sending 15 bytes.
11/28/2014 15:48:28-13-Info-MDG1  Locked by ProcessEnquiry 0 ACKs pending.
11/28/2014 15:48:28-13-Info-MDG1  Sending ENQ.
11/28/2014 15:48:29-26-Info-MDG1  ACK received.
11/28/2014 15:48:34-20-Info-STORM  Locked by ProcessEnquiry 0 ACKs pending.
11/28/2014 15:48:34-20-Info-STORM  Sending ENQ.
11/28/2014 15:48:34-26-Info-STORM  ACK received.
11/28/2014 15:48:48-26-Info-MDG1  ENQ received.
11/28/2014 15:48:48-26-Info-MDG1  Sending ACK.
11/28/2014 15:48:48-8-Info-MDG1  Locked by ProcessEnquiry 0 ACKs pending.
11/28/2014 15:48:48-8-Info-MDG1  Sending ENQ.
11/28/2014 15:48:49-22-Info-MDG1  ACK received.
11/28/2014 15:49:08-41-Info-MDG1  Locked by ProcessEnquiry 0 ACKs pending.
11/28/2014 15:49:08-41-Info-MDG1  Sending ENQ.
11/28/2014 15:49:09-34-Info-MDG1  ACK received.
11/28/2014 15:49:15-7-Info-MDG1  Frame 22 702 1 15999 of 78 bytes received for 22 0 10
01-16-AF-81-0F-C1-16-00-0A-11-7C-FF-1B-01-01-00-3B-7C-54-79-70-65-3A-32-37-0D-0A-7C-43-72-65-77-52-65-71-75-65-73-74-3A-53-54-4E-20-53-31-31-20-4F-4E-47-4F-49-4E-47-0D-0A-7C-43-72-65-77-52-65-70-6F-72-74-54-6F-3A-53-31-31-0D-0A-60-04.
11/28/2014 15:49:15-7-Info-Frame 22 702 1 15999 added to queue for Local UserAgent (preference 1) at priority 1.
11/28/2014 15:49:15-13-Info-STORM  Frame 22 0 10 1709 of 97 bytes received for 22 702 24
01-16-00-0A-14-81-16-AF-98-51-0D-5B-1B-01-02-00-4E-53-65-6E-74-20-62-79-20-4D-41-46-49-52-31-20-66-72-6F-6D-20-63-6F-6E-73-6F-6C-65-20-34-36-57-52-30-32-32-33-33-31-20-61-74-20-32-38-2F-31-31-2F-31-34-20-31-35-3A-34-38-20-3A-20-0D-1B-41-4E-1B-42-60-1B-43-49-1B-56-47-1B-42-40-1B-58-44-FE-04.
11/28/2014 15:49:15-13-Info-Frame 22 0 10 1709 added to queue for Local UserAgent (preference 1) at priority 5.
11/28/2014 15:49:15-20-Info-STORM  Frame 22 0 10 1710 of 36 bytes received for 22 702 24
01-16-00-0A-05-41-16-AF-98-51-0D-5D-1B-02-02-00-11-1B-58-86-48-45-4C-4C-4F-20-50-48-49-4C-1B-0D-06-20-F8-04.
11/28/2014 15:49:15-20-Info-Frame 22 0 10 1710 added to queue for Local UserAgent (preference 1) at priority 5.
11/28/2014 15:49:15-20-Info-STORM  Frame 22 0 10 1711 of 97 bytes received for 22 702 24
01-16-00-0A-14-81-16-AF-98-51-0D-5F-1B-01-02-00-4E-53-65-6E-74-20-62-79-20-4D-41-46-49-52-31-20-66-72-6F-6D-20-63-6F-6E-73-6F-6C-65-20-34-36-57-52-30-32-32-33-33-31-20-61-74-20-32-38-2F-31-31-2F-31-34-20-31-35-3A-34-38-20-3A-20-0D-1B-41-4E-1B-42-60-1B-43-49-1B-56-47-1B-42-40-1B-58-44-FA-04.
11/28/2014 15:49:15-20-Info-Frame 22 0 10 1711 added to queue for Local UserAgent (preference 1) at priority 5.
11/28/2014 15:49:15-20-Info-STORM  Frame 22 0 10 1712 of 36 bytes received for 22 702 24
01-16-00-0A-05-41-16-AF-98-51-0D-61-1B-02-02-00-11-1B-58-86-48-45-4C-4C-4F-20-50-48-49-4C-1B-0D-06-20-C4-04.
11/28/2014 15:49:15-20-Info-Frame 22 0 10 1712 added to queue for Local UserAgent (preference 1) at priority 5.
11/28/2014 15:49:15-7-Info-UA Received message type Text serial number 28133.
11/28/2014 15:49:15-7-Info-UA Local UserAgent Replying to Frame 22 0 10 1709 with Ack 22 702 24 1709 of 15 bytes
01-16-AF-98-00-01-16-00-0A-51-0D-5A-32-08-04.
11/28/2014 15:49:15-7-Info-Frame 22 702 24 1709 added to queue for STORM SLAN (preference 1) at priority 5.
11/28/2014 15:49:15-7-Info-UA Received message type Text serial number 28134.
11/28/2014 15:49:15-7-Info-UA Local UserAgent Replying to Frame 22 0 10 1711 with Ack 22 702 24 1711 of 15 bytes
01-16-AF-98-00-01-16-00-0A-51-0D-5E-32-0C-04.
11/28/2014 15:49:15-7-Info-Frame 22 702 24 1711 added to queue for STORM SLAN (preference 1) at priority 5.
11/28/2014 15:49:15-7-Info-UA Received message type Text serial number 28135.
11/28/2014 15:49:16-7-Info-GW_Msg27FromRSC Received message 28133 type Text from 22 702 1 for 22 0 10.
11/28/2014 15:49:16-7-Info-GW_Msg27FromRSC <?xml version="1.0" encoding="utf-16"?>
<GD92Msg27>
  <SerialNumber>28133</SerialNumber>
  <MsgType>Text</MsgType>
  <Header ProtocolVersion="1" Priority="1" StandardPort="15" />
  <Destination>STORM</Destination>
  <SentAt>0001-01-01T00:00:00</SentAt>
  <ReceivedAt>2014-11-28T15:49:15.9390364+00:00</ReceivedAt>
  <From>Node702</From>
  <ManualAck>false</ManualAck>
  <FromAddress>
    <Brigade>22</Brigade>
    <Node>702</Node>
    <Port>1</Port>
  </FromAddress>
  <DestAddress>
    <Brigade>22</Brigade>
    <Node>0</Node>
    <Port>10</Port>
  </DestAddress>
  <FromNodeType>Rsc</FromNodeType>
  <DestNodeType>Storm</DestNodeType>
  <Text>|Type:27
|CrewRequest:STN S11 ONGOING
|CrewReportTo:S11
</Text>
</GD92Msg27>.
11/28/2014 15:49:16-7-Info-GD92Component Sending message type Ack serial number 28136 in reply to 28133.
11/28/2014 15:49:16-7-Info-TransmittedFrames Routing frame 22 0 10 15999 of 15 bytes to 22 702 1
01-16-00-0A-00-01-16-AF-81-11-7C-FE-32-84-04.
11/28/2014 15:49:16-7-Info-Frame 22 0 10 15999 added to queue for MDG1 MLAN (preference 1) at priority 1.
11/28/2014 15:49:16-7-Info-GW_Msg27 Received message 28134 type Text from 22 0 10 for 22 702 24.
11/28/2014 15:49:16-7-Info-GW_Msg27 <?xml version="1.0" encoding="utf-16"?>
<GD92Msg27>
  <SerialNumber>28134</SerialNumber>
  <MsgType>Text</MsgType>
  <Header ProtocolVersion="1" Priority="1" StandardPort="15" />
  <Destination>Node702</Destination>
  <SentAt>0001-01-01T00:00:00</SentAt>
  <ReceivedAt>2014-11-28T15:49:15.9390364+00:00</ReceivedAt>
  <From>STORM</From>
  <ManualAck>false</ManualAck>
  <FromAddress>
    <Brigade>22</Brigade>
    <Node>0</Node>
    <Port>10</Port>
  </FromAddress>
  <DestAddress>
    <Brigade>22</Brigade>
    <Node>702</Node>
    <Port>24</Port>
  </DestAddress>
  <FromNodeType>Storm</FromNodeType>
  <DestNodeType>Rsc</DestNodeType>
  <Text>Sent by MAFIR1 from console 46WR022331 at 28/11/14 15:48 : AAAAAAAAAAAAAAAAAAAAAAAAAAAAAAAAAAAAAAAAAAAAAAAAAAAAAAAAAAAAAAAAAAAAAAAAAAAAAABBBBBBBBBBBBBBBBBBBBBBBBBBBBBBBBBBBBBBBBBBBBBBBBBBBBBBBBBBBBBBBBBBBBBBBBBBBBBBBBBBBBBBBBBBBBBBBBCCCCCCCCCCCCCCCCCCCCCCCCCCCCCCCCCCCCCCCCCCCCCCCCCCCCCCCCCCCCCCCCCCCCCCCCCVVVVVVVVVVVVVVVVVVVVVVVVVVVVVVVVVVVVVVVVVVVVVVVVVVVVVVVVVVVVVVVVVVVVVVVBBBBBBBBBBBBBBBBBBBBBBBBBBBBBBBBBBBBBBBBBBBBBBBBBBBBBBBBBBBBBBBBXXXXXXXXXXXXXXXXXXXXXXXXXXXXXXXXXXXXXXXXXXXXXXXXXXXXXXXXXXXXXXXXXXXX</Text>
</GD92Msg27>.
11/28/2014 15:49:16-7-Info-GD92Component Sending message type Text serial number 28137.
11/28/2014 15:49:16-7-Info-TransmittedFrames Routing frame 22 0 10 9810 of 97 bytes to 22 702 24
01-16-00-0A-14-81-16-AF-98-11-4C-A5-1B-01-01-00-4E-53-65-6E-74-20-62-79-20-4D-41-46-49-52-31-20-66-72-6F-6D-20-63-6F-6E-73-6F-6C-65-20-34-36-57-52-30-32-32-33-33-31-20-61-74-20-32-38-2F-31-31-2F-31-34-20-31-35-3A-34-38-20-3A-20-0D-1B-41-4E-1B-42-60-1B-43-49-1B-56-47-1B-42-40-1B-58-44-02-04.
11/28/2014 15:49:16-7-Info-Frame 22 0 10 9810 added to queue for MDG1 MLAN (preference 1) at priority 1.
11/28/2014 15:49:16-7-Info-GW_Msg27 Received message 28135 type Text from 22 0 10 for 22 702 24.
11/28/2014 15:49:16-7-Info-GW_Msg27 <?xml version="1.0" encoding="utf-16"?>
<GD92Msg27>
  <SerialNumber>28135</SerialNumber>
  <MsgType>Text</MsgType>
  <Header ProtocolVersion="1" Priority="1" StandardPort="15" />
  <Destination>Node702</Destination>
  <SentAt>0001-01-01T00:00:00</SentAt>
  <ReceivedAt>2014-11-28T15:49:15.9390364+00:00</ReceivedAt>
  <From>STORM</From>
  <ManualAck>false</ManualAck>
  <FromAddress>
    <Brigade>22</Brigade>
    <Node>0</Node>
    <Port>10</Port>
  </FromAddress>
  <DestAddress>
    <Brigade>22</Brigade>
    <Node>702</Node>
    <Port>24</Port>
  </DestAddress>
  <FromNodeType>Storm</FromNodeType>
  <DestNodeType>Rsc</DestNodeType>
  <Text>Sent by MAFIR1 from console 46WR022331 at 28/11/14 15:48 : AAAAAAAAAAAAAAAAAAAAAAAAAAAAAAAAAAAAAAAAAAAAAAAAAAAAAAAAAAAAAAAAAAAAAAAAAAAAAABBBBBBBBBBBBBBBBBBBBBBBBBBBBBBBBBBBBBBBBBBBBBBBBBBBBBBBBBBBBBBBBBBBBBBBBBBBBBBBBBBBBBBBBBBBBBBBBCCCCCCCCCCCCCCCCCCCCCCCCCCCCCCCCCCCCCCCCCCCCCCCCCCCCCCCCCCCCCCCCCCCCCCCCCVVVVVVVVVVVVVVVVVVVVVVVVVVVVVVVVVVVVVVVVVVVVVVVVVVVVVVVVVVVVVVVVVVVVVVVBBBBBBBBBBBBBBBBBBBBBBBBBBBBBBBBBBBBBBBBBBBBBBBBBBBBBBBBBBBBBBBBXXXXXXXXXXXXXXXXXXXXXXXXXXXXXXXXXXXXXXXXXXXXXXXXXXXXXXXXXXXXXXXXXXXX</Text>
</GD92Msg27>.
11/28/2014 15:49:16-7-Info-GD92Component Sending message type Text serial number 28138.
11/28/2014 15:49:16-20-Info-STORM  Sending 15 bytes.
11/28/2014 15:49:16-20-Info-STORM  Sending 15 bytes.
11/28/2014 15:49:16-20-Info-MDG1  Sending 15 bytes.
11/28/2014 15:49:16-20-Info-MDG1  Sending 97 bytes.
11/28/2014 15:49:17-34-Info-STORM  ACK received.
11/28/2014 15:49:17-34-Info-STORM  ACK received.
11/28/2014 15:49:18-41-Info-MDG1  Frame 22 702 24 9810 of 15 bytes received for 22 0 10
01-16-AF-98-00-01-16-00-0A-11-4C-A4-32-F7-04.
11/28/2014 15:49:18-41-Info-Frame 22 702 24 9810 added to queue for Local UserAgent (preference 1) at priority 1.
11/28/2014 15:49:18-20-Info-TransmittedFrames Routing frame 22 0 10 9811 of 97 bytes to 22 702 24
01-16-00-0A-14-81-16-AF-98-11-4C-A7-1B-01-01-00-4E-53-65-6E-74-20-62-79-20-4D-41-46-49-52-31-20-66-72-6F-6D-20-63-6F-6E-73-6F-6C-65-20-34-36-57-52-30-32-32-33-33-31-20-61-74-20-32-38-2F-31-31-2F-31-34-20-31-35-3A-34-38-20-3A-20-0D-1B-41-4E-1B-42-60-1B-43-49-1B-56-47-1B-42-40-1B-58-44-00-04.
11/28/2014 15:49:18-20-Info-Frame 22 0 10 9811 added to queue for MDG1 MLAN (preference 1) at priority 1.
11/28/2014 15:49:18-20-Info-UA Received message type Ack serial number 28139 in reply to 28137.
11/28/2014 15:49:18-20-Info-GW_ReplyHandler Received reply 28139 to 28137 (28134) type Ack from 22 702 24 for 22 0 10.
11/28/2014 15:49:18-20-Info-GD92Component Sending message type Ack serial number 28140 in reply to 28134.
11/28/2014 15:49:18-20-Info-TransmittedFrames Routing frame 22 702 24 1710 of 15 bytes to 22 0 10
01-16-AF-98-00-01-16-00-0A-51-0D-5C-32-0E-04.
11/28/2014 15:49:18-20-Info-Frame 22 702 24 1710 added to queue for STORM SLAN (preference 1) at priority 5.
11/28/2014 15:49:19-13-Info-STORM  Sending 15 bytes.
11/28/2014 15:49:19-13-Info-MDG1  Sending 97 bytes.
11/28/2014 15:49:20-34-Info-STORM  ACK received.
11/28/2014 15:49:21-41-Info-MDG1  Frame 22 702 24 9811 of 15 bytes received for 22 0 10
01-16-AF-98-00-01-16-00-0A-11-4C-A6-32-F5-04.
11/28/2014 15:49:21-41-Info-Frame 22 702 24 9811 added to queue for Local UserAgent (preference 1) at priority 1.
11/28/2014 15:49:21-13-Info-UA Received message type Ack serial number 28141 in reply to 28138.
11/28/2014 15:49:21-13-Info-GW_ReplyHandler Received reply 28141 to 28138 (28135) type Ack from 22 702 24 for 22 0 10.
11/28/2014 15:49:21-13-Info-GD92Component Sending message type Ack serial number 28142 in reply to 28135.
11/28/2014 15:49:21-13-Info-TransmittedFrames Routing frame 22 702 24 1712 of 15 bytes to 22 0 10
01-16-AF-98-00-01-16-00-0A-51-0D-60-32-32-04.
11/28/2014 15:49:21-13-Info-Frame 22 702 24 1712 added to queue for STORM SLAN (preference 1) at priority 5.
11/28/2014 15:49:22-8-Info-STORM  Locked by ProcessEnquiry 0 ACKs pending.
11/28/2014 15:49:22-8-Info-STORM  Sending ENQ.
11/28/2014 15:49:22-34-Info-STORM  ACK received.
11/28/2014 15:49:22-41-Info-STORM  Sending 15 bytes.
11/28/2014 15:49:23-34-Info-STORM  ACK received.
11/28/2014 15:49:28-7-Info-MDG1  Locked by ProcessEnquiry 0 ACKs pending.
11/28/2014 15:49:28-7-Info-MDG1  Sending ENQ.
11/28/2014 15:49:29-19-Info-MDG1  ACK received.
11/28/2014 15:49:48-13-Info-MDG1  Locked by ProcessEnquiry 0 ACKs pending.
11/28/2014 15:49:48-13-Info-MDG1  Sending ENQ.
11/28/2014 15:49:49-35-Info-MDG1  ACK received.
11/28/2014 15:49:54-35-Info-MDG1  ENQ received.
11/28/2014 15:49:54-35-Info-MDG1  Sending ACK.
11/28/2014 15:50:08-13-Info-MDG1  Locked by ProcessEnquiry 0 ACKs pending.
11/28/2014 15:50:08-13-Info-MDG1  Sending ENQ.
11/28/2014 15:50:09-45-Info-MDG1  ACK received.
11/28/2014 15:50:10-7-Info-STORM  Locked by ProcessEnquiry 0 ACKs pending.
11/28/2014 15:50:10-7-Info-STORM  Sending ENQ.
11/28/2014 15:50:10-45-Info-STORM  ACK received.
11/28/2014 15:50:15-20-Info-MDG1  Frame 22 702 1 16000 of 19 bytes received for 22 0 10
01-16-AF-81-01-01-16-00-0A-31-7D-01-05-03-53-31-31-3C-04.
11/28/2014 15:50:15-20-Info-Frame 22 702 1 16000 added to queue for Local UserAgent (preference 1) at priority 3.
11/28/2014 15:50:15-7-Info-UA Received message type ResourceStatusRequest serial number 28143.
11/28/2014 15:50:15-7-Info-GW_Msg5 Received message 28143 type ResourceStatusRequest from 22 702 1 for 22 0 10.
11/28/2014 15:50:15-7-Info-GW_Msg5 <?xml version="1.0" encoding="utf-16"?>
<GD92Msg5>
  <SerialNumber>28143</SerialNumber>
  <MsgType>ResourceStatusRequest</MsgType>
  <Header ProtocolVersion="1" Priority="3" StandardPort="1" />
  <Destination>STORM</Destination>
  <SentAt>0001-01-01T00:00:00</SentAt>
  <ReceivedAt>2014-11-28T15:50:15.9393722+00:00</ReceivedAt>
  <From>Node702</From>
  <ManualAck>false</ManualAck>
  <FromAddress>
    <Brigade>22</Brigade>
    <Node>702</Node>
    <Port>1</Port>
  </FromAddress>
  <DestAddress>
    <Brigade>22</Brigade>
    <Node>0</Node>
    <Port>10</Port>
  </DestAddress>
  <FromNodeType>Rsc</FromNodeType>
  <DestNodeType>Storm</DestNodeType>
  <Callsign>S11</Callsign>
</GD92Msg5>.
11/28/2014 15:50:15-7-Info-GD92Component Sending message type Ack serial number 28144 in reply to 28143.
11/28/2014 15:50:15-7-Info-TransmittedFrames Routing frame 22 0 10 16000 of 15 bytes to 22 702 1
01-16-00-0A-00-01-16-AF-81-31-7D-00-32-5B-04.
11/28/2014 15:50:15-7-Info-Frame 22 0 10 16000 added to queue for MDG1 MLAN (preference 1) at priority 3.
11/28/2014 15:50:16-8-Info-MDG1  Sending 15 bytes.
11/28/2014 15:50:18-20-Info-MDG1  Frame 22 702 1 16001 of 78 bytes received for 22 0 10
01-16-AF-81-0F-C1-16-00-0A-11-7D-03-1B-01-01-00-3B-7C-54-79-70-65-3A-32-37-0D-0A-7C-43-72-65-77-52-65-71-75-65-73-74-3A-53-54-4E-20-53-31-31-20-4F-4E-47-4F-49-4E-47-0D-0A-7C-43-72-65-77-52-65-70-6F-72-74-54-6F-3A-53-31-31-0D-0A-9D-04.
11/28/2014 15:50:18-20-Info-Frame 22 702 1 16001 added to queue for Local UserAgent (preference 1) at priority 1.
11/28/2014 15:50:18-8-Info-UA Received message type Text serial number 28145.
11/28/2014 15:50:18-8-Info-GW_Msg27FromRSC Received message 28145 type Text from 22 702 1 for 22 0 10.
11/28/2014 15:50:18-8-Info-GW_Msg27FromRSC <?xml version="1.0" encoding="utf-16"?>
<GD92Msg27>
  <SerialNumber>28145</SerialNumber>
  <MsgType>Text</MsgType>
  <Header ProtocolVersion="1" Priority="1" StandardPort="15" />
  <Destination>STORM</Destination>
  <SentAt>0001-01-01T00:00:00</SentAt>
  <ReceivedAt>2014-11-28T15:50:18.9394088+00:00</ReceivedAt>
  <From>Node702</From>
  <ManualAck>false</ManualAck>
  <FromAddress>
    <Brigade>22</Brigade>
    <Node>702</Node>
    <Port>1</Port>
  </FromAddress>
  <DestAddress>
    <Brigade>22</Brigade>
    <Node>0</Node>
    <Port>10</Port>
  </DestAddress>
  <FromNodeType>Rsc</FromNodeType>
  <DestNodeType>Storm</DestNodeType>
  <Text>|Type:27
|CrewRequest:STN S11 ONGOING
|CrewReportTo:S11
</Text>
</GD92Msg27>.
11/28/2014 15:50:18-8-Info-GD92Component Sending message type Ack serial number 28146 in reply to 28145.
11/28/2014 15:50:18-8-Info-TransmittedFrames Routing frame 22 0 10 16001 of 15 bytes to 22 702 1
01-16-00-0A-00-01-16-AF-81-11-7D-02-32-79-04.
11/28/2014 15:50:18-8-Info-Frame 22 0 10 16001 added to queue for MDG1 MLAN (preference 1) at priority 1.
11/28/2014 15:50:19-7-Info-MDG1  Sending 15 bytes.