﻿MOB2 - MDT1 - MOB0
Msg1 and Msg40 end to end with Ack returned
Msg1 with ManAck set gets Nak returned
Msg5 is unexpected from Storm (MOB2 source address is < 200)
Msg6 and Msg65 are unexpected in either direction


11/26/2014 09:32:30-10-Notice-GW_TestGateway Activating GatewayLib, Version=1.0.1.0, Culture=neutral, PublicKeyToken=null.
11/26/2014 09:32:30-13-Notice-GD92Component Activating GD92Lib, Version=1.0.1.0, Culture=neutral, PublicKeyToken=null.
11/26/2014 09:32:30-13-Warning-Router Registry access failed for key Software\Syseca\Kent MDG\MtaData\.
11/26/2014 09:32:30-13-Warning-Router Registry access failed for key Software\Syseca\Kent MDG\LAN.
11/26/2014 09:32:30-13-Warning-Router Registry access failed for key Software\Syseca\Kent MDG\LAN2.
11/26/2014 09:32:30-13-Info-MLAN FrameAckCharSent is  NUL.
11/26/2014 09:32:30-13-Info-MLAN FrameAckCharExpected is  NUL.
11/26/2014 09:32:30-13-Info-Router Adding MTA from Registry Root MLAN.
11/26/2014 09:32:30-13-Warning-Router Registry access failed for key Software\Syseca\Kent MDG\TS.
11/26/2014 09:32:30-13-Warning-Router Registry access failed for key Software\Syseca\Kent MDG\GWAY.
11/26/2014 09:32:30-13-Warning-Router Registry access failed for key Software\Syseca\Kent MDG\GSM.
11/26/2014 09:32:30-13-Warning-Router Registry access failed for key Software\Syseca\Kent MDG\GPRS.
11/26/2014 09:32:30-13-Warning-Router Registry access failed for key Software\Syseca\Kent MDG\DHCP.
11/26/2014 09:32:30-13-Info-Router No direct connection to node MDG1.
11/26/2014 09:32:30-13-Info-Router Adding bearer MOB0  141.20.199.99 17300.
11/26/2014 09:32:30-13-Info-Router No direct connection to node MOB1.
11/26/2014 09:32:30-13-Info-Router Adding bearer MOB2  141.20.199.96 17300.
11/26/2014 09:32:30-13-Info-Router Adding node MDG1 22 201.
11/26/2014 09:32:30-13-Info-Router Adding node MOB0 22 0.
11/26/2014 09:32:30-13-Info-Router Adding route via bearer MOB0 MLAN preference 1.
11/26/2014 09:32:30-13-Info-Router Adding node MOB1 22 1.
11/26/2014 09:32:30-13-Warning-Router Route to MOB1 Name MOB1 or Mta MLAN not configured - The given key was not present in the dictionary..
11/26/2014 09:32:30-13-Warning-Router Route to MOB1 preference 1 is missing.
11/26/2014 09:32:30-13-Info-Router Adding node MOB2 22 2.
11/26/2014 09:32:30-13-Info-Router Adding route via bearer MOB2 MLAN preference 1.
11/26/2014 09:32:30-13-Notice-UA NoAckTimeout set to 20.
11/26/2014 09:32:30-13-Notice-UA Retries set to 3 (note: retries are not implemented).
11/26/2014 09:32:30-13-Notice-UA GatewayName set to MDG1.
11/26/2014 09:32:30-13-Notice-UA DefaultRoute set to MOB2.
11/26/2014 09:32:30-13-Notice-GD92Component This node is MDG1 address 22 201 1.
11/26/2014 09:32:30-13-Notice-GD92Component Gateway is MDG1 node 22 201.
11/26/2014 09:32:30-12-Debug-MOB0  Locked by ProcessConnection.
11/26/2014 09:32:30-13-Debug-MOB2  Locked by ProcessConnection.
11/26/2014 09:32:30-14-Debug-MOB2  Locked by ConnectCallback.
11/26/2014 09:32:30-4-Debug-MOB0  Locked by ConnectCallback.
11/26/2014 09:32:30-14-Info-MOB2  ProcessConnection MOB2  ACKs pending.
11/26/2014 09:32:30-4-Info-MOB0  ProcessConnection MOB0  ACKs pending.
11/26/2014 09:32:30-14-Info-MOB2  Sending ENQ.
11/26/2014 09:32:30-4-Info-MOB0  Sending ENQ.
11/26/2014 09:32:30-4-Debug-MOB0  Locked by SendCallback.
11/26/2014 09:32:30-14-Debug-MOB2  Locked by SendCallback.
11/26/2014 09:32:30-4-Debug-MOB0  Sent 1 bytes.
11/26/2014 09:32:30-14-Debug-MOB2  Sent 1 bytes.
11/26/2014 09:32:36-4-Debug-MOB0  Locked by ReceiveCallback.
11/26/2014 09:32:36-4-Debug-MOB0  EndReceive 1 bytes added to read buffer.
11/26/2014 09:32:36-4-Info-MOB0  Connected.
11/26/2014 09:32:36-4-Debug-MOB0  Read 1 bytes. firstByteIndex 0 bytes in buffer 1 unprocessed 1
05
..
11/26/2014 09:32:36-4-Info-MOB0  ENQ received.
11/26/2014 09:32:36-4-Info-MOB0  Sending ACK.
11/26/2014 09:32:36-13-Info-MOB0  Locked by ProcessEnquiry 0 ACKs pending.
11/26/2014 09:32:36-13-Info-MOB0  Sending ENQ.
11/26/2014 09:32:36-4-Debug-MOB0  Locked by SendCallback.
11/26/2014 09:32:36-4-Debug-MOB0  Sent 1 bytes.
11/26/2014 09:32:36-14-Debug-MOB0  Locked by SendCallback.
11/26/2014 09:32:36-14-Debug-MOB0  Sent 1 bytes.
11/26/2014 09:32:36-4-Debug-MOB0  Locked by ReceiveCallback.
11/26/2014 09:32:36-4-Debug-MOB0  EndReceive 1 bytes added to read buffer.
11/26/2014 09:32:36-4-Debug-MOB0  Read 1 bytes. firstByteIndex 0 bytes in buffer 1 unprocessed 1
06
..
11/26/2014 09:32:36-4-Info-MOB0  ACK received.
11/26/2014 09:32:36-4-Debug-MOB0  Locked by ReceiveCallback.
11/26/2014 09:32:36-4-Debug-MOB0  EndReceive 1 bytes added to read buffer.
11/26/2014 09:32:36-4-Debug-MOB0  Read 1 bytes. firstByteIndex 0 bytes in buffer 1 unprocessed 1
06
..
11/26/2014 09:32:36-4-Info-MOB0  ACK received.
11/26/2014 09:32:37-12-Notice-GW_GD92Handler MOB0 MLAN connected.
11/26/2014 09:32:38-14-Debug-MOB2  Locked by ReceiveCallback.
11/26/2014 09:32:38-14-Debug-MOB2  EndReceive 1 bytes added to read buffer.
11/26/2014 09:32:38-14-Info-MOB2  Connected.
11/26/2014 09:32:38-14-Debug-MOB2  Read 1 bytes. firstByteIndex 0 bytes in buffer 1 unprocessed 1
05
..
11/26/2014 09:32:38-14-Info-MOB2  ENQ received.
11/26/2014 09:32:38-14-Info-MOB2  Sending ACK.
11/26/2014 09:32:38-14-Debug-MOB2  Locked by SendCallback.
11/26/2014 09:32:38-14-Debug-MOB2  Sent 1 bytes.
11/26/2014 09:32:38-13-Info-MOB2  Locked by ProcessEnquiry 0 ACKs pending.
11/26/2014 09:32:38-13-Info-MOB2  Sending ENQ.
11/26/2014 09:32:38-14-Debug-MOB2  Locked by SendCallback.
11/26/2014 09:32:38-14-Debug-MOB2  Sent 1 bytes.
11/26/2014 09:32:38-14-Debug-MOB2  Locked by ReceiveCallback.
11/26/2014 09:32:38-14-Debug-MOB2  EndReceive 1 bytes added to read buffer.
11/26/2014 09:32:38-14-Debug-MOB2  Read 1 bytes. firstByteIndex 0 bytes in buffer 1 unprocessed 1
06
..
11/26/2014 09:32:38-14-Info-MOB2  ACK received.
11/26/2014 09:32:38-14-Debug-MOB2  Locked by ReceiveCallback.
11/26/2014 09:32:38-14-Debug-MOB2  EndReceive 1 bytes added to read buffer.
11/26/2014 09:32:38-14-Debug-MOB2  Read 1 bytes. firstByteIndex 0 bytes in buffer 1 unprocessed 1
06
..
11/26/2014 09:32:38-14-Info-MOB2  ACK received.
11/26/2014 09:32:39-15-Notice-GW_GD92Handler MOB2 MLAN connected.
11/26/2014 09:32:40-12-Debug-MOB0  Locked by ProcessConnection.
11/26/2014 09:32:40-12-Debug-MOB2  Locked by ProcessConnection.
11/26/2014 09:32:46-4-Debug-MOB0  Locked by ReceiveCallback.
11/26/2014 09:32:46-4-Debug-MOB0  EndReceive 1 bytes added to read buffer.
11/26/2014 09:32:46-4-Debug-MOB0  Read 1 bytes. firstByteIndex 0 bytes in buffer 1 unprocessed 1
05
..
11/26/2014 09:32:46-4-Info-MOB0  ENQ received.
11/26/2014 09:32:46-4-Info-MOB0  Sending ACK.
11/26/2014 09:32:46-4-Debug-MOB0  Locked by SendCallback.
11/26/2014 09:32:46-4-Debug-MOB0  Sent 1 bytes.
11/26/2014 09:32:46-12-Info-MOB0  Locked by ProcessEnquiry 0 ACKs pending.
11/26/2014 09:32:46-12-Info-MOB0  Sending ENQ.
11/26/2014 09:32:46-4-Debug-MOB0  Locked by SendCallback.
11/26/2014 09:32:46-4-Debug-MOB0  Sent 1 bytes.
11/26/2014 09:32:46-14-Debug-MOB2  Locked by ReceiveCallback.
11/26/2014 09:32:46-14-Debug-MOB2  EndReceive 20 bytes added to read buffer.
11/26/2014 09:32:46-14-Debug-MOB2  Read 20 bytes. firstByteIndex 0 bytes in buffer 20 unprocessed 20
01-16-00-8E-01-41-16-00-0E-11-01-19-28-41-0D-00-80-40-6D-04
.....A......(A...@m..
11/26/2014 09:32:46-4-Debug-MOB0  Locked by ReceiveCallback.
11/26/2014 09:32:46-4-Debug-MOB0  EndReceive 1 bytes added to read buffer.
11/26/2014 09:32:46-4-Debug-MOB0  Read 1 bytes. firstByteIndex 0 bytes in buffer 1 unprocessed 1
06
..
11/26/2014 09:32:46-4-Info-MOB0  ACK received.
11/26/2014 09:32:46-13-Info-MOB2  Frame 22 2 14 140 of 20 bytes received for 22 0 14
01-16-00-8E-01-41-16-00-0E-11-01-19-28-41-0D-00-80-40-6D-04.
11/26/2014 09:32:46-13-Info-Frame 22 2 14 140 added to queue for Local UserAgent (preference 1) at priority 1.
11/26/2014 09:32:47-17-Info-UA Received message type AlertCrew serial number 18426.
11/26/2014 09:32:48-12-Info-GW_Msg40 Received message 18426 type AlertCrew from 22 2 14 for 22 0 14.
11/26/2014 09:32:48-14-Debug-MOB2  Locked by ReceiveCallback.
11/26/2014 09:32:48-14-Debug-MOB2  EndReceive 1 bytes added to read buffer.
11/26/2014 09:32:48-14-Debug-MOB2  Read 1 bytes. firstByteIndex 0 bytes in buffer 1 unprocessed 1
05
..
11/26/2014 09:32:48-14-Info-MOB2  ENQ received.
11/26/2014 09:32:48-14-Info-MOB2  Sending ACK.
11/26/2014 09:32:48-14-Debug-MOB2  Locked by SendCallback.
11/26/2014 09:32:48-14-Debug-MOB2  Sent 1 bytes.
11/26/2014 09:32:48-15-Info-MOB2  Locked by ProcessEnquiry 0 ACKs pending.
11/26/2014 09:32:48-15-Info-MOB2  Sending ENQ.
11/26/2014 09:32:48-14-Debug-MOB2  Locked by SendCallback.
11/26/2014 09:32:48-14-Debug-MOB2  Sent 1 bytes.
11/26/2014 09:32:48-14-Debug-MOB2  Locked by ReceiveCallback.
11/26/2014 09:32:48-14-Debug-MOB2  EndReceive 1 bytes added to read buffer.
11/26/2014 09:32:48-14-Debug-MOB2  Read 1 bytes. firstByteIndex 0 bytes in buffer 1 unprocessed 1
06
..
11/26/2014 09:32:48-14-Info-MOB2  ACK received.
11/26/2014 09:32:50-12-Info-GW_Msg40 <?xml version="1.0" encoding="utf-16"?>
<GD92Msg40>
  <SerialNumber>18426</SerialNumber>
  <MsgType>AlertCrew</MsgType>
  <Header ProtocolVersion="1" Priority="1" StandardPort="13" />
  <Destination>MOB0</Destination>
  <SentAt>0001-01-01T00:00:00</SentAt>
  <ReceivedAt>2014-11-26T09:32:47.7522135+00:00</ReceivedAt>
  <From>MOB2</From>
  <ManualAck>false</ManualAck>
  <FromAddress>
    <Brigade>22</Brigade>
    <Node>2</Node>
    <Port>14</Port>
  </FromAddress>
  <DestAddress>
    <Brigade>22</Brigade>
    <Node>0</Node>
    <Port>14</Port>
  </DestAddress>
  <Sounders>true</Sounders>
  <Lights>false</Lights>
  <Spare2>false</Spare2>
  <Spare3>false</Spare3>
  <Spare4>false</Spare4>
  <Doors>false</Doors>
  <StandbySounder>false</StandbySounder>
  <Appliance9>false</Appliance9>
  <Appliance1>false</Appliance1>
  <Appliance2>true</Appliance2>
  <Appliance3>false</Appliance3>
  <Appliance4>false</Appliance4>
  <Appliance5>false</Appliance5>
  <Appliance6>false</Appliance6>
  <Appliance7>false</Appliance7>
  <Appliance8>false</Appliance8>
  <AlertGroup>A</AlertGroup>
</GD92Msg40>.
11/26/2014 09:32:50-12-Debug-TransmitQueue for MOB0 Port 14 adding frame 22 2 14 5099 count now 1.
11/26/2014 09:32:50-12-Info-TransmittedFrames Routing frame 22 2 14 5099 of 20 bytes to 22 0 14
01-16-00-8E-01-41-16-00-0E-11-27-D7-28-41-0D-00-80-40-85-04.
11/26/2014 09:32:50-12-Info-Frame 22 2 14 5099 added to queue for MOB0 MLAN (preference 1) at priority 1.
11/26/2014 09:32:50-17-Debug-MOB0  Locked by GetNextFrameAndSendIt.
11/26/2014 09:32:50-17-Info-MOB0  Sending 20 bytes.
11/26/2014 09:32:50-17-Debug-MOB2  Locked by ProcessConnection.
11/26/2014 09:32:50-18-Debug-MOB0  Locked by ProcessConnection.
11/26/2014 09:32:50-16-Debug-MOB0  Locked by SendCallback.
11/26/2014 09:32:50-16-Debug-MOB0  Sent 20 bytes.
11/26/2014 09:32:50-4-Debug-MOB0  Locked by ReceiveCallback.
11/26/2014 09:32:50-4-Debug-MOB0  EndReceive 15 bytes added to read buffer.
11/26/2014 09:32:50-4-Debug-MOB0  Read 15 bytes. firstByteIndex 0 bytes in buffer 15 unprocessed 15
01-16-00-0E-00-01-16-00-8E-11-27-D6-32-53-04
..........'Ö2S..
11/26/2014 09:32:50-12-Info-MOB0  Frame 22 0 14 5099 of 15 bytes received for 22 2 14
01-16-00-0E-00-01-16-00-8E-11-27-D6-32-53-04.
11/26/2014 09:32:50-12-Info-Frame 22 0 14 5099 added to queue for Local UserAgent (preference 1) at priority 1.
11/26/2014 09:32:51-15-Debug-TransmittedFrames Frame 22 2 14 5099 removed.
11/26/2014 09:32:51-15-Debug-TransmitQueue for MOB0 Removing frame 22 2 14 5099 from Pending Port 14 - frame matched.
11/26/2014 09:32:51-15-Debug-TransmitQueue for MOB0 Pending Port 14 now empty.
11/26/2014 09:32:51-15-Info-UA Received message type Ack serial number 18428 in reply to 18427.
11/26/2014 09:32:52-18-Info-GW_ReplyHandler Received reply 18428 to 18427 (18426) type Ack from 22 0 14 for 22 2 14.
11/26/2014 09:32:52-18-Info-TransmittedFrames Routing frame 22 0 14 140 of 15 bytes to 22 2 14
01-16-00-0E-00-01-16-00-8E-11-01-18-32-BB-04.
11/26/2014 09:32:52-18-Info-Frame 22 0 14 140 added to queue for MOB2 MLAN (preference 1) at priority 1.
11/26/2014 09:32:52-18-Debug-MOB2  Locked by GetNextFrameAndSendIt.
11/26/2014 09:32:52-18-Info-MOB2  Sending 15 bytes.
11/26/2014 09:32:52-4-Debug-MOB2  Locked by SendCallback.
11/26/2014 09:32:52-4-Debug-MOB2  Sent 15 bytes.
11/26/2014 09:32:54-14-Debug-MOB2  Locked by ReceiveCallback.
11/26/2014 09:32:54-14-Debug-MOB2  EndReceive 318 bytes added to read buffer.
11/26/2014 09:32:54-14-Debug-MOB2  Read 318 bytes. firstByteIndex 0 bytes in buffer 318 unprocessed 318
01-16-00-8E-4B-C1-16-00-0E-11-01-1B-06-01-01-01-01-00-01-03 . . .
....KÁ.............. . . ..
11/26/2014 09:32:54-15-Info-MOB2  Frame 22 2 14 141 of 318 bytes received for 22 0 14
01-16-00-8E-4B-C1-16-00-0E-11-01-1B-06-01-01-01-01-00-01-03-32-30-31-0F-53-4F-4D-45-20-43-4F-4D-4D-45-4E-54-41-52-59-00-30-38-46-45-42-30-31-31-32-31-38-35-34-30-38-46-45-42-30-31-31-32-31-39-35-39-00-00-00-01-12-4E-41-54-55-52-45-20-4F-46-20-49-4E-43-49-44-45-4E-54-17-48-69-67-68-20-53-74-72-65-65-74-2C-20-4E-65-77-20-52-6F-6D-6E-65-79-00-00-00-00-00-00-08-54-4E-32-38-20-38-41-5A-01-03-32-30-31-17-48-69-67-68-20-53-74-72-65-65-74-2C-20-4E-65-77-20-52-6F-6D-6E-65-79-00-07-45-4B-32-30-30-42-36-08-36-30-36-36-31-32-34-39-03-39-39-39-00-16-41-44-44-49-54-49-4F-4E-41-4C-20-49-4E-46-4F-52-4D-41-54-49-4F-4E-24-46-20-4F-50-50-20-53-48-49-50-20-48-4F-54-45-4C-20-4F-53-20-43-49-4E-51-55-45-20-50-4F-52-54-20-41-52-4D-53-00-49-0D-0A-52-69-73-6B-20-43-61-72-64-20-3A-20-0D-0A-0D-0A-53-74-61-74-69-6F-6E-20-47-72-6F-75-6E-64-20-3A-20-32-30-0D-0A-43-61-6C-6C-65-72-20-49-6E-66-6F-20-3A-0D-0A-48-69-67-68-20-73-74-2C-20-4E-65-77-20-52-6F-6D-6E-65-79-00-37-04.
11/26/2014 09:32:54-15-Info-Frame 22 2 14 141 added to queue for Local UserAgent (preference 1) at priority 1.
11/26/2014 09:32:54-18-Info-UA Received message type MobiliseMessage6 serial number 18430.
11/26/2014 09:32:55-12-Warning-GW_Unexpected Received message 18430 type MobiliseMessage6 from 22 2 14 for 22 0 14.
11/26/2014 09:32:55-12-Info-TransmittedFrames Routing frame 22 0 14 141 of 21 bytes to 22 2 14
01-16-00-0E-01-81-16-00-8E-11-01-1A-33-01-00-00-00-01-08-31-04.
11/26/2014 09:32:55-12-Info-Frame 22 0 14 141 added to queue for MOB2 MLAN (preference 1) at priority 1.
11/26/2014 09:32:55-15-Debug-MOB2  Locked by GetNextFrameAndSendIt.
11/26/2014 09:32:55-15-Info-MOB2  Sending 21 bytes.
11/26/2014 09:32:55-14-Debug-MOB2  Locked by SendCallback.
11/26/2014 09:32:55-14-Debug-MOB2  Sent 21 bytes.
11/26/2014 09:32:56-4-Debug-MOB0  Locked by ReceiveCallback.
11/26/2014 09:32:56-4-Debug-MOB0  EndReceive 1 bytes added to read buffer.
11/26/2014 09:32:56-4-Debug-MOB0  Read 1 bytes. firstByteIndex 0 bytes in buffer 1 unprocessed 1
05
..
11/26/2014 09:32:56-4-Info-MOB0  ENQ received.
11/26/2014 09:32:56-4-Info-MOB0  Sending ACK.
11/26/2014 09:32:56-4-Debug-MOB0  Locked by SendCallback.
11/26/2014 09:32:56-4-Debug-MOB0  Sent 1 bytes.
11/26/2014 09:32:56-12-Info-MOB0  Locked by ProcessEnquiry 0 ACKs pending.
11/26/2014 09:32:56-12-Info-MOB0  Sending ENQ.
11/26/2014 09:32:56-12-Debug-MOB0  Locked by SendCallback.
11/26/2014 09:32:56-12-Debug-MOB0  Sent 1 bytes.
11/26/2014 09:32:56-4-Debug-MOB0  Locked by ReceiveCallback.
11/26/2014 09:32:56-4-Debug-MOB0  EndReceive 1 bytes added to read buffer.
11/26/2014 09:32:56-4-Debug-MOB0  Read 1 bytes. firstByteIndex 0 bytes in buffer 1 unprocessed 1
06
..
11/26/2014 09:32:56-4-Info-MOB0  ACK received.
11/26/2014 09:32:57-14-Debug-MOB2  Locked by ReceiveCallback.
11/26/2014 09:32:57-14-Debug-MOB2  EndReceive 43 bytes added to read buffer.
11/26/2014 09:32:57-14-Debug-MOB2  Read 43 bytes. firstByteIndex 0 bytes in buffer 43 unprocessed 43
01-16-00-8E-07-01-16-00-0E-41-01-1D-16-03-36-30-31-00-00-03 . . .
.........A....601... . . ..
11/26/2014 09:32:57-18-Info-MOB2  Frame 22 2 14 142 of 43 bytes received for 22 0 14
01-16-00-8E-07-01-16-00-0E-41-01-1D-16-03-36-30-31-00-00-03-E5-13-4C-4F-47-20-55-50-44-41-54-45-20-46-52-4F-4D-20-36-30-31-58-04.
11/26/2014 09:32:57-18-Info-Frame 22 2 14 142 added to queue for Local UserAgent (preference 1) at priority 4.
11/26/2014 09:32:57-12-Info-UA Received message type LogUpdate serial number 18432.
11/26/2014 09:32:58-18-Info-GW_Msg22 Received message 18432 type LogUpdate from 22 2 14 for 22 0 14.
11/26/2014 09:32:58-14-Debug-MOB2  Locked by ReceiveCallback.
11/26/2014 09:32:58-14-Debug-MOB2  EndReceive 1 bytes added to read buffer.
11/26/2014 09:32:58-14-Debug-MOB2  Read 1 bytes. firstByteIndex 0 bytes in buffer 1 unprocessed 1
05
..
11/26/2014 09:32:58-14-Info-MOB2  ENQ received.
11/26/2014 09:32:58-14-Info-MOB2  Sending ACK.
11/26/2014 09:32:58-16-Debug-MOB2  Locked by SendCallback.
11/26/2014 09:32:58-16-Debug-MOB2  Sent 1 bytes.
11/26/2014 09:32:58-12-Info-MOB2  Locked by ProcessEnquiry 0 ACKs pending.
11/26/2014 09:32:58-12-Info-MOB2  Sending ENQ.
11/26/2014 09:32:58-16-Debug-MOB2  Locked by SendCallback.
11/26/2014 09:32:58-16-Debug-MOB2  Sent 1 bytes.
11/26/2014 09:32:58-14-Debug-MOB2  Locked by ReceiveCallback.
11/26/2014 09:32:58-14-Debug-MOB2  EndReceive 1 bytes added to read buffer.
11/26/2014 09:32:58-14-Debug-MOB2  Read 1 bytes. firstByteIndex 0 bytes in buffer 1 unprocessed 1
06
..
11/26/2014 09:32:58-14-Info-MOB2  ACK received.
11/26/2014 09:32:58-18-Info-GW_Msg22 <?xml version="1.0" encoding="utf-16"?>
<GD92Msg22>
  <SerialNumber>18432</SerialNumber>
  <MsgType>LogUpdate</MsgType>
  <Header ProtocolVersion="1" Priority="4" StandardPort="1" />
  <Destination>MOB0</Destination>
  <SentAt>0001-01-01T00:00:00</SentAt>
  <ReceivedAt>2014-11-26T09:32:57.7363329+00:00</ReceivedAt>
  <From>MOB2</From>
  <ManualAck>false</ManualAck>
  <FromAddress>
    <Brigade>22</Brigade>
    <Node>2</Node>
    <Port>14</Port>
  </FromAddress>
  <DestAddress>
    <Brigade>22</Brigade>
    <Node>0</Node>
    <Port>14</Port>
  </DestAddress>
  <Callsign>601</Callsign>
  <IncidentNumber>997</IncidentNumber>
  <Update>LOG UPDATE FROM 601</Update>
</GD92Msg22>.
11/26/2014 09:32:58-18-Info-TransmittedFrames Routing frame 22 0 14 142 of 15 bytes to 22 2 14
01-16-00-0E-00-01-16-00-8E-41-01-1C-32-EF-04.
11/26/2014 09:32:58-18-Info-Frame 22 0 14 142 added to queue for MOB2 MLAN (preference 1) at priority 4.
11/26/2014 09:32:58-15-Debug-MOB2  Locked by GetNextFrameAndSendIt.
11/26/2014 09:32:58-15-Info-MOB2  Sending 15 bytes.
11/26/2014 09:32:58-16-Debug-MOB2  Locked by SendCallback.
11/26/2014 09:32:58-16-Debug-MOB2  Sent 15 bytes.
11/26/2014 09:33:00-14-Debug-MOB2  Locked by ReceiveCallback.
11/26/2014 09:33:00-14-Debug-MOB2  EndReceive 837 bytes added to read buffer.
11/26/2014 09:33:00-14-Debug-MOB2  Read 837 bytes. firstByteIndex 0 bytes in buffer 837 unprocessed 837
01-16-00-8E-CD-81-16-00-0E-11-01-1F-1B-01-03-07-16-31-2E-20 . . .
....Í............1.  . . ..
11/26/2014 09:33:00-18-Info-MOB2  Frame 22 2 14 143 of 837 bytes received for 22 0 14
01-16-00-8E-CD-81-16-00-0E-11-01-1F-1B-01-03-07-16-31-2E-20-54-68-69-73-20-69-73-20-61-20-72-65-63-6F-72-64-20-6F-66-20-64-69-73-74-72-69-63-74-73-20-77-69-74-68-20-6E-6F-20-61-72-65-61-20-28-61-73-20-73-68-6F-77-6E-20-69-6E-20-6D-65-72-67-65-2E-74-78-74-29-20-74-68-61-74-20-63-61-6E-6E-6F-74-20-62-65-20-66-6F-75-6E-64-20-69-6E-20-61-64-64-72-65-73-73-20-70-6F-69-6E-74-20-64-61-74-61-20-28-61-64-64-2D-64-64-61-2E-74-78-74-29-2E-20-44-20-61-74-20-74-68-65-20-65-6E-64-20-6F-66-20-74-68-65-20-6C-69-6E-65-20-6D-61-72-6B-73-20-74-68-65-6D-20-61-73-20-72-65-73-6F-6C-76-65-64-20-75-73-69-6E-67-20-4F-53-20-72-65-66-65-72-65-6E-63-65-20-61-6E-64-20-6D-61-70-62-6F-6F-6B-2E-20-53-6F-6D-65-20-61-70-70-65-61-72-65-64-20-74-6F-20-66-61-6C-6C-20-6F-75-74-73-69-64-65-20-4B-65-6E-74-20-73-6F-20-77-65-72-65-20-6C-65-66-74-20-61-73-20-69-73-2E-0A-32-2E-20-54-68-69-73-20-69-73-20-61-20-72-65-63-6F-72-64-20-6F-66-20-64-69-73-74-72-69-63-74-73-20-77-69-74-68-20-6E-6F-20-61-72-65-61-20-28-61-73-20-73-68-6F-77-6E-20-69-6E-20-6D-65-72-67-65-2E-74-78-74-29-20-74-68-61-74-20-63-61-6E-6E-6F-74-20-62-65-20-66-6F-75-6E-64-20-69-6E-20-61-64-64-72-65-73-73-20-70-6F-69-6E-74-20-64-61-74-61-20-28-61-64-64-2D-64-64-61-2E-74-78-74-29-2E-20-44-20-61-74-20-74-68-65-20-65-6E-64-20-6F-66-20-74-68-65-20-6C-69-6E-65-20-6D-61-72-6B-73-20-74-68-65-6D-20-61-73-20-72-65-73-6F-6C-76-65-64-20-75-73-69-6E-67-20-4F-53-20-72-65-66-65-72-65-6E-63-65-20-61-6E-64-20-6D-61-70-62-6F-6F-6B-2E-20-53-6F-6D-65-20-61-70-70-65-61-72-65-64-20-74-6F-20-66-61-6C-6C-20-6F-75-74-73-69-64-65-20-4B-65-6E-74-20-73-6F-20-77-65-72-65-20-6C-65-66-74-20-61-73-20-69-73-2E-0A-33-2E-20-54-68-69-73-20-69-73-20-61-20-72-65-63-6F-72-64-20-6F-66-20-64-69-73-74-72-69-63-74-73-20-77-69-74-68-20-6E-6F-20-61-72-65-61-20-28-61-73-20-73-68-6F-77-6E-20-69-6E-20-6D-65-72-67-65-2E-74-78-74-29-20-74-68-61-74-20-63-61-6E-6E-6F-74-20-62-65-20-66-6F-75-6E-64-20-69-6E-20-61-64-64-72-65-73-73-20-70-6F-69-6E-74-20-64-61-74-61-20-28-61-64-64-2D-64-64-61-2E-74-78-74-29-2E-20-44-20-61-74-20-74-68-65-20-65-6E-64-20-6F-66-20-74-68-65-20-6C-69-6E-65-20-6D-61-72-6B-73-20-74-68-65-6D-20-61-73-20-72-65-73-6F-6C-76-65-64-20-75-73-69-6E-67-20-4F-53-20-72-65-66-65-72-65-6E-63-65-20-61-6E-64-20-6D-61-70-62-6F-6F-6B-2E-20-53-6F-6D-65-20-61-70-70-65-61-72-65-64-20-74-6F-20-66-61-6C-6C-20-6F-75-74-73-69-64-65-20-4B-65-6E-74-20-73-6F-20-77-65-72-65-20-6C-65-66-74-20-61-73-20-69-73-2E-0A-34-2E-20-54-68-69-73-20-69-73-20-61-20-72-65-63-6F-72-64-20-6F-66-20-64-69-73-74-72-69-C9-04.
11/26/2014 09:33:00-18-Info-Frame 22 2 14 143 added to queue for Local UserAgent (preference 1) at priority 1.
11/26/2014 09:33:00-18-Debug-MOB2  Locked by ProcessConnection.
11/26/2014 09:33:00-15-Debug-MOB0  Locked by ProcessConnection.
11/26/2014 09:33:00-17-Info-UA Local UserAgent Replying to Frame 22 2 14 143 with Ack 22 0 14 143 of 15 bytes
01-16-00-0E-00-01-16-00-8E-11-01-1E-32-BD-04.
11/26/2014 09:33:00-17-Info-Frame 22 0 14 143 added to queue for MOB2 MLAN (preference 1) at priority 1.
11/26/2014 09:33:01-15-Debug-MOB2  Locked by GetNextFrameAndSendIt.
11/26/2014 09:33:01-15-Info-MOB2  Sending 15 bytes.
11/26/2014 09:33:01-14-Debug-MOB2  Locked by SendCallback.
11/26/2014 09:33:01-14-Debug-MOB2  Sent 15 bytes.
11/26/2014 09:33:03-14-Debug-MOB2  Locked by ReceiveCallback.
11/26/2014 09:33:03-14-Debug-MOB2  EndReceive 837 bytes added to read buffer.
11/26/2014 09:33:03-14-Debug-MOB2  Read 837 bytes. firstByteIndex 0 bytes in buffer 837 unprocessed 837
01-16-00-8E-CD-81-16-00-0E-11-01-21-1B-02-03-63-74-73-20-77 . . .
....Í......!...cts w . . ..
11/26/2014 09:33:03-13-Info-MOB2  Frame 22 2 14 144 of 837 bytes received for 22 0 14
01-16-00-8E-CD-81-16-00-0E-11-01-21-1B-02-03-63-74-73-20-77-69-74-68-20-6E-6F-20-61-72-65-61-20-28-61-73-20-73-68-6F-77-6E-20-69-6E-20-6D-65-72-67-65-2E-74-78-74-29-20-74-68-61-74-20-63-61-6E-6E-6F-74-20-62-65-20-66-6F-75-6E-64-20-69-6E-20-61-64-64-72-65-73-73-20-70-6F-69-6E-74-20-64-61-74-61-20-28-61-64-64-2D-64-64-61-2E-74-78-74-29-2E-20-44-20-61-74-20-74-68-65-20-65-6E-64-20-6F-66-20-74-68-65-20-6C-69-6E-65-20-6D-61-72-6B-73-20-74-68-65-6D-20-61-73-20-72-65-73-6F-6C-76-65-64-20-75-73-69-6E-67-20-4F-53-20-72-65-66-65-72-65-6E-63-65-20-61-6E-64-20-6D-61-70-62-6F-6F-6B-2E-20-53-6F-6D-65-20-61-70-70-65-61-72-65-64-20-74-6F-20-66-61-6C-6C-20-6F-75-74-73-69-64-65-20-4B-65-6E-74-20-73-6F-20-77-65-72-65-20-6C-65-66-74-20-61-73-20-69-73-2E-0A-35-2E-20-54-68-69-73-20-69-73-20-61-20-72-65-63-6F-72-64-20-6F-66-20-64-69-73-74-72-69-63-74-73-20-77-69-74-68-20-6E-6F-20-61-72-65-61-20-28-61-73-20-73-68-6F-77-6E-20-69-6E-20-6D-65-72-67-65-2E-74-78-74-29-20-74-68-61-74-20-63-61-6E-6E-6F-74-20-62-65-20-66-6F-75-6E-64-20-69-6E-20-61-64-64-72-65-73-73-20-70-6F-69-6E-74-20-64-61-74-61-20-28-61-64-64-2D-64-64-61-2E-74-78-74-29-2E-20-44-20-61-74-20-74-68-65-20-65-6E-64-20-6F-66-20-74-68-65-20-6C-69-6E-65-20-6D-61-72-6B-73-20-74-68-65-6D-20-61-73-20-72-65-73-6F-6C-76-65-64-20-75-73-69-6E-67-20-4F-53-20-72-65-66-65-72-65-6E-63-65-20-61-6E-64-20-6D-61-70-62-6F-6F-6B-2E-20-53-6F-6D-65-20-61-70-70-65-61-72-65-64-20-74-6F-20-66-61-6C-6C-20-6F-75-74-73-69-64-65-20-4B-65-6E-74-20-73-6F-20-77-65-72-65-20-6C-65-66-74-20-61-73-20-69-73-2E-0A-36-2E-20-54-68-69-73-20-69-73-20-61-20-72-65-63-6F-72-64-20-6F-66-20-64-69-73-74-72-69-63-74-73-20-77-69-74-68-20-6E-6F-20-61-72-65-61-20-28-61-73-20-73-68-6F-77-6E-20-69-6E-20-6D-65-72-67-65-2E-74-78-74-29-20-74-68-61-74-20-63-61-6E-6E-6F-74-20-62-65-20-66-6F-75-6E-64-20-69-6E-20-61-64-64-72-65-73-73-20-70-6F-69-6E-74-20-64-61-74-61-20-28-61-64-64-2D-64-64-61-2E-74-78-74-29-2E-20-44-20-61-74-20-74-68-65-20-65-6E-64-20-6F-66-20-74-68-65-20-6C-69-6E-65-20-6D-61-72-6B-73-20-74-68-65-6D-20-61-73-20-72-65-73-6F-6C-76-65-64-20-75-73-69-6E-67-20-4F-53-20-72-65-66-65-72-65-6E-63-65-20-61-6E-64-20-6D-61-70-62-6F-6F-6B-2E-20-53-6F-6D-65-20-61-70-70-65-61-72-65-64-20-74-6F-20-66-61-6C-6C-20-6F-75-74-73-69-64-65-20-4B-65-6E-74-20-73-6F-20-77-65-72-65-20-6C-65-66-74-20-61-73-20-69-73-2E-0A-0A-54-68-65-20-72-65-63-6F-72-64-20-61-6C-73-6F-20-69-6E-63-6C-75-64-65-73-20-70-6F-73-73-69-62-6C-65-20-64-75-70-6C-69-63-61-74-65-20-64-69-73-74-72-69-63-74-73-2E-0A-39-37-39-20-8E-04.
11/26/2014 09:33:03-13-Info-Frame 22 2 14 144 added to queue for Local UserAgent (preference 1) at priority 1.
11/26/2014 09:33:03-15-Info-UA Local UserAgent Replying to Frame 22 2 14 144 with Ack 22 0 14 144 of 15 bytes
01-16-00-0E-00-01-16-00-8E-11-01-20-32-83-04.
11/26/2014 09:33:03-15-Info-Frame 22 0 14 144 added to queue for MOB2 MLAN (preference 1) at priority 1.
11/26/2014 09:33:04-13-Debug-MOB2  Locked by GetNextFrameAndSendIt.
11/26/2014 09:33:04-13-Info-MOB2  Sending 15 bytes.
11/26/2014 09:33:04-14-Debug-MOB2  Locked by SendCallback.
11/26/2014 09:33:04-14-Debug-MOB2  Sent 15 bytes.
11/26/2014 09:33:06-14-Debug-MOB2  Locked by ReceiveCallback.
11/26/2014 09:33:06-14-Debug-MOB2  EndReceive 193 bytes added to read buffer.
11/26/2014 09:33:06-14-Debug-MOB2  Read 193 bytes. firstByteIndex 0 bytes in buffer 193 unprocessed 193
01-16-00-8E-2C-81-16-00-0E-11-01-23-1B-03-03-57-45-4E-4E-49 . . .
....,......#...WENNI . . ..
11/26/2014 09:33:06-13-Info-MOB2  Frame 22 2 14 145 of 193 bytes received for 22 0 14
01-16-00-8E-2C-81-16-00-0E-11-01-23-1B-03-03-57-45-4E-4E-49-4E-47-54-4F-4E-2C-20-39-30-39-20-54-49-4C-42-55-52-59-09-5B-4E-4F-20-4C-4F-43-41-54-49-4F-4E-5D-4E-4F-20-4D-41-50-0A-39-38-33-20-57-45-53-54-20-4B-49-4E-47-53-44-4F-57-4E-2C-20-33-30-31-20-46-41-57-4B-48-41-4D-09-5B-45-58-54-52-41-5D-46-41-57-4B-48-41-4D-20-49-53-20-4E-4F-57-48-45-52-45-20-4E-45-41-52-20-2D-20-4C-4F-43-41-54-49-4F-4E-20-45-52-52-4F-52-0A-31-30-35-31-20-4D-41-4E-53-54-4F-4E-20-50-41-52-4B-2C-20-35-36-33-20-4D-41-4E-53-54-4F-4E-09-5B-4E-4F-20-4C-4F-43-41-54-49-4F-4E-5D-6E-6F-20-6D-61-70-0A-0A-62-04.
11/26/2014 09:33:06-13-Info-Frame 22 2 14 145 added to queue for Local UserAgent (preference 1) at priority 1.
11/26/2014 09:33:06-15-Info-UA Received message type Text serial number 18434.
11/26/2014 09:33:06-4-Debug-MOB0  Locked by ReceiveCallback.
11/26/2014 09:33:06-4-Debug-MOB0  EndReceive 1 bytes added to read buffer.
11/26/2014 09:33:06-4-Debug-MOB0  Read 1 bytes. firstByteIndex 0 bytes in buffer 1 unprocessed 1
05
..
11/26/2014 09:33:06-4-Info-MOB0  ENQ received.
11/26/2014 09:33:06-4-Info-MOB0  Sending ACK.
11/26/2014 09:33:06-4-Debug-MOB0  Locked by SendCallback.
11/26/2014 09:33:06-4-Debug-MOB0  Sent 1 bytes.
11/26/2014 09:33:06-13-Info-MOB0  Locked by ProcessEnquiry 0 ACKs pending.
11/26/2014 09:33:06-13-Info-MOB0  Sending ENQ.
11/26/2014 09:33:06-13-Debug-MOB0  Locked by SendCallback.
11/26/2014 09:33:06-13-Debug-MOB0  Sent 1 bytes.
11/26/2014 09:33:06-4-Debug-MOB0  Locked by ReceiveCallback.
11/26/2014 09:33:06-4-Debug-MOB0  EndReceive 1 bytes added to read buffer.
11/26/2014 09:33:06-4-Debug-MOB0  Read 1 bytes. firstByteIndex 0 bytes in buffer 1 unprocessed 1
06
..
11/26/2014 09:33:06-4-Info-MOB0  ACK received.
11/26/2014 09:33:07-13-Info-GW_Msg27 Received message 18434 type Text from 22 2 14 for 22 0 14.
11/26/2014 09:33:07-13-Info-GW_Msg27 <?xml version="1.0" encoding="utf-16"?>
<GD92Msg27>
  <SerialNumber>18434</SerialNumber>
  <MsgType>Text</MsgType>
  <Header ProtocolVersion="1" Priority="1" StandardPort="15" />
  <Destination>MOB0</Destination>
  <SentAt>0001-01-01T00:00:00</SentAt>
  <ReceivedAt>2014-11-26T09:33:06.7361025+00:00</ReceivedAt>
  <From>MOB2</From>
  <ManualAck>false</ManualAck>
  <FromAddress>
    <Brigade>22</Brigade>
    <Node>2</Node>
    <Port>14</Port>
  </FromAddress>
  <DestAddress>
    <Brigade>22</Brigade>
    <Node>0</Node>
    <Port>14</Port>
  </DestAddress>
  <Text>1. This is a record of districts with no area (as shown in merge.txt) that cannot be found in address point data (add-dda.txt). D at the end of the line marks them as resolved using OS reference and mapbook. Some appeared to fall outside Kent so were left as is.
2. This is a record of districts with no area (as shown in merge.txt) that cannot be found in address point data (add-dda.txt). D at the end of the line marks them as resolved using OS reference and mapbook. Some appeared to fall outside Kent so were left as is.
3. This is a record of districts with no area (as shown in merge.txt) that cannot be found in address point data (add-dda.txt). D at the end of the line marks them as resolved using OS reference and mapbook. Some appeared to fall outside Kent so were left as is.
4. This is a record of districts with no area (as shown in merge.txt) that cannot be found in address point data (add-dda.txt). D at the end of the line marks them as resolved using OS reference and mapbook. Some appeared to fall outside Kent so were left as is.
5. This is a record of districts with no area (as shown in merge.txt) that cannot be found in address point data (add-dda.txt). D at the end of the line marks them as resolved using OS reference and mapbook. Some appeared to fall outside Kent so were left as is.
6. This is a record of districts with no area (as shown in merge.txt) that cannot be found in address point data (add-dda.txt). D at the end of the line marks them as resolved using OS reference and mapbook. Some appeared to fall outside Kent so were left as is.

The record also includes possible duplicate districts.
979 WENNINGTON, 909 TILBURY	[NO LOCATION]NO MAP
983 WEST KINGSDOWN, 301 FAWKHAM	[EXTRA]FAWKHAM IS NOWHERE NEAR - LOCATION ERROR
1051 MANSTON PARK, 563 MANSTON	[NO LOCATION]no map

</Text>
</GD92Msg27>.
11/26/2014 09:33:07-13-Info-TransmittedFrames Routing frame 22 0 14 145 of 15 bytes to 22 2 14
01-16-00-0E-00-01-16-00-8E-11-01-22-32-81-04.
11/26/2014 09:33:07-13-Info-Frame 22 0 14 145 added to queue for MOB2 MLAN (preference 1) at priority 1.
11/26/2014 09:33:07-15-Debug-MOB2  Locked by GetNextFrameAndSendIt.
11/26/2014 09:33:07-15-Info-MOB2  Sending 15 bytes.
11/26/2014 09:33:07-16-Debug-MOB2  Locked by SendCallback.
11/26/2014 09:33:07-16-Debug-MOB2  Sent 15 bytes.
11/26/2014 09:33:08-14-Debug-MOB2  Locked by ReceiveCallback.
11/26/2014 09:33:08-14-Debug-MOB2  EndReceive 1 bytes added to read buffer.
11/26/2014 09:33:08-14-Debug-MOB2  Read 1 bytes. firstByteIndex 0 bytes in buffer 1 unprocessed 1
05
..
11/26/2014 09:33:08-14-Info-MOB2  ENQ received.
11/26/2014 09:33:08-14-Info-MOB2  Sending ACK.
11/26/2014 09:33:08-14-Debug-MOB2  Locked by SendCallback.
11/26/2014 09:33:08-14-Debug-MOB2  Sent 1 bytes.
11/26/2014 09:33:08-12-Info-MOB2  Locked by ProcessEnquiry 0 ACKs pending.
11/26/2014 09:33:08-12-Info-MOB2  Sending ENQ.
11/26/2014 09:33:08-12-Debug-MOB2  Locked by SendCallback.
11/26/2014 09:33:08-12-Debug-MOB2  Sent 1 bytes.
11/26/2014 09:33:08-14-Debug-MOB2  Locked by ReceiveCallback.
11/26/2014 09:33:08-14-Debug-MOB2  EndReceive 1 bytes added to read buffer.
11/26/2014 09:33:08-14-Debug-MOB2  Read 1 bytes. firstByteIndex 0 bytes in buffer 1 unprocessed 1
06
..
11/26/2014 09:33:08-14-Info-MOB2  ACK received.
11/26/2014 09:33:09-14-Debug-MOB2  Locked by ReceiveCallback.
11/26/2014 09:33:09-14-Debug-MOB2  EndReceive 18 bytes added to read buffer.
11/26/2014 09:33:09-14-Debug-MOB2  Read 18 bytes. firstByteIndex 0 bytes in buffer 18 unprocessed 18
01-16-00-8E-00-C1-16-00-0E-11-01-25-01-80-40-00-B5-04
.....Á.....%..@.µ..
11/26/2014 09:33:09-17-Info-MOB2  Frame 22 2 14 146 of 18 bytes received for 22 0 14
01-16-00-8E-00-C1-16-00-0E-11-01-25-01-80-40-00-B5-04.
11/26/2014 09:33:09-17-Info-Frame 22 2 14 146 added to queue for Local UserAgent (preference 1) at priority 1.
11/26/2014 09:33:10-12-Debug-MOB0  Locked by ProcessConnection.
11/26/2014 09:33:10-12-Debug-MOB2  Locked by ProcessConnection.
11/26/2014 09:33:10-15-Info-UA Received message type MobiliseCommand serial number 18436.
11/26/2014 09:33:11-12-Info-GW_Msg1 Received message 18436 type MobiliseCommand from 22 2 14 for 22 0 14.
11/26/2014 09:33:11-12-Info-GW_Msg1 <?xml version="1.0" encoding="utf-16"?>
<GD92Msg1>
  <SerialNumber>18436</SerialNumber>
  <MsgType>MobiliseCommand</MsgType>
  <Header ProtocolVersion="1" Priority="1" StandardPort="12" />
  <Destination>MOB0</Destination>
  <SentAt>0001-01-01T00:00:00</SentAt>
  <ReceivedAt>2014-11-26T09:33:10.7360012+00:00</ReceivedAt>
  <From>MOB2</From>
  <ManualAck>false</ManualAck>
  <FromAddress>
    <Brigade>22</Brigade>
    <Node>2</Node>
    <Port>14</Port>
  </FromAddress>
  <DestAddress>
    <Brigade>22</Brigade>
    <Node>0</Node>
    <Port>14</Port>
  </DestAddress>
  <Sounders>true</Sounders>
  <Lights>false</Lights>
  <Spare2>false</Spare2>
  <Spare3>false</Spare3>
  <Spare4>false</Spare4>
  <Doors>false</Doors>
  <StandbySounder>false</StandbySounder>
  <Appliance9>false</Appliance9>
  <Appliance1>false</Appliance1>
  <Appliance2>true</Appliance2>
  <Appliance3>false</Appliance3>
  <Appliance4>false</Appliance4>
  <Appliance5>false</Appliance5>
  <Appliance6>false</Appliance6>
  <Appliance7>false</Appliance7>
  <Appliance8>false</Appliance8>
</GD92Msg1>.
11/26/2014 09:33:11-12-Debug-TransmitQueue for MOB0 Port 14 adding frame 22 2 14 5100 count now 1.
11/26/2014 09:33:11-12-Info-TransmittedFrames Routing frame 22 2 14 5100 of 18 bytes to 22 0 14
01-16-00-8E-00-C1-16-00-0E-11-27-D9-01-80-40-00-6F-04.
11/26/2014 09:33:11-12-Info-Frame 22 2 14 5100 added to queue for MOB0 MLAN (preference 1) at priority 1.
11/26/2014 09:33:12-12-Debug-MOB0  Locked by GetNextFrameAndSendIt.
11/26/2014 09:33:12-12-Info-MOB0  Sending 18 bytes.
11/26/2014 09:33:12-16-Debug-MOB0  Locked by SendCallback.
11/26/2014 09:33:12-16-Debug-MOB0  Sent 18 bytes.
11/26/2014 09:33:13-4-Debug-MOB0  Locked by ReceiveCallback.
11/26/2014 09:33:13-4-Debug-MOB0  EndReceive 15 bytes added to read buffer.
11/26/2014 09:33:13-4-Debug-MOB0  Read 15 bytes. firstByteIndex 0 bytes in buffer 15 unprocessed 15
01-16-00-0E-00-01-16-00-8E-11-27-D8-32-5D-04
..........'Ø2]..
11/26/2014 09:33:13-15-Info-MOB0  Frame 22 0 14 5100 of 15 bytes received for 22 2 14
01-16-00-0E-00-01-16-00-8E-11-27-D8-32-5D-04.
11/26/2014 09:33:13-15-Info-Frame 22 0 14 5100 added to queue for Local UserAgent (preference 1) at priority 1.
11/26/2014 09:33:13-12-Debug-TransmittedFrames Frame 22 2 14 5100 removed.
11/26/2014 09:33:13-12-Debug-TransmitQueue for MOB0 Removing frame 22 2 14 5100 from Pending Port 14 - frame matched.
11/26/2014 09:33:13-12-Debug-TransmitQueue for MOB0 Pending Port 14 now empty.
11/26/2014 09:33:13-12-Info-UA Received message type Ack serial number 18438 in reply to 18437.
11/26/2014 09:33:14-13-Info-GW_ReplyHandler Received reply 18438 to 18437 (18436) type Ack from 22 0 14 for 22 2 14.
11/26/2014 09:33:14-13-Info-TransmittedFrames Routing frame 22 0 14 146 of 15 bytes to 22 2 14
01-16-00-0E-00-01-16-00-8E-11-01-24-32-87-04.
11/26/2014 09:33:14-13-Info-Frame 22 0 14 146 added to queue for MOB2 MLAN (preference 1) at priority 1.
11/26/2014 09:33:14-17-Debug-MOB2  Locked by GetNextFrameAndSendIt.
11/26/2014 09:33:14-17-Info-MOB2  Sending 15 bytes.
11/26/2014 09:33:14-4-Debug-MOB2  Locked by SendCallback.
11/26/2014 09:33:14-4-Debug-MOB2  Sent 15 bytes.
11/26/2014 09:33:16-4-Debug-MOB0  Locked by ReceiveCallback.
11/26/2014 09:33:16-4-Debug-MOB0  EndReceive 1 bytes added to read buffer.
11/26/2014 09:33:16-4-Debug-MOB0  Read 1 bytes. firstByteIndex 0 bytes in buffer 1 unprocessed 1
05
..
11/26/2014 09:33:16-4-Info-MOB0  ENQ received.
11/26/2014 09:33:16-4-Info-MOB0  Sending ACK.
11/26/2014 09:33:16-4-Debug-MOB0  Locked by SendCallback.
11/26/2014 09:33:16-4-Debug-MOB0  Sent 1 bytes.
11/26/2014 09:33:16-17-Info-MOB0  Locked by ProcessEnquiry 0 ACKs pending.
11/26/2014 09:33:16-17-Info-MOB0  Sending ENQ.
11/26/2014 09:33:16-4-Debug-MOB0  Locked by SendCallback.
11/26/2014 09:33:16-4-Debug-MOB0  Sent 1 bytes.
11/26/2014 09:33:16-4-Debug-MOB0  Locked by ReceiveCallback.
11/26/2014 09:33:16-4-Debug-MOB0  EndReceive 1 bytes added to read buffer.
11/26/2014 09:33:16-4-Debug-MOB0  Read 1 bytes. firstByteIndex 0 bytes in buffer 1 unprocessed 1
06
..
11/26/2014 09:33:16-4-Info-MOB0  ACK received.
11/26/2014 09:33:17-14-Debug-MOB2  Locked by ReceiveCallback.
11/26/2014 09:33:17-14-Debug-MOB2  EndReceive 18 bytes added to read buffer.
11/26/2014 09:33:17-14-Debug-MOB2  Read 18 bytes. firstByteIndex 0 bytes in buffer 18 unprocessed 18
01-16-00-8E-00-C1-16-00-0E-11-01-27-01-80-40-01-B6-04
.....Á.....'..@.¶..
11/26/2014 09:33:17-13-Info-MOB2  Frame 22 2 14 147 of 18 bytes received for 22 0 14
01-16-00-8E-00-C1-16-00-0E-11-01-27-01-80-40-01-B6-04.
11/26/2014 09:33:17-13-Info-Frame 22 2 14 147 added to queue for Local UserAgent (preference 1) at priority 1.
11/26/2014 09:33:17-17-Info-UA Received message type MobiliseCommand serial number 18440.
11/26/2014 09:33:18-13-Info-GW_Msg1 Received message 18440 type MobiliseCommand from 22 2 14 for 22 0 14.
11/26/2014 09:33:18-13-Info-GW_Msg1 <?xml version="1.0" encoding="utf-16"?>
<GD92Msg1>
  <SerialNumber>18440</SerialNumber>
  <MsgType>MobiliseCommand</MsgType>
  <Header ProtocolVersion="1" Priority="1" StandardPort="12" />
  <Destination>MOB0</Destination>
  <SentAt>0001-01-01T00:00:00</SentAt>
  <ReceivedAt>2014-11-26T09:33:17.7358668+00:00</ReceivedAt>
  <From>MOB2</From>
  <ManualAck>true</ManualAck>
  <FromAddress>
    <Brigade>22</Brigade>
    <Node>2</Node>
    <Port>14</Port>
  </FromAddress>
  <DestAddress>
    <Brigade>22</Brigade>
    <Node>0</Node>
    <Port>14</Port>
  </DestAddress>
  <Sounders>true</Sounders>
  <Lights>false</Lights>
  <Spare2>false</Spare2>
  <Spare3>false</Spare3>
  <Spare4>false</Spare4>
  <Doors>false</Doors>
  <StandbySounder>false</StandbySounder>
  <Appliance9>false</Appliance9>
  <Appliance1>false</Appliance1>
  <Appliance2>true</Appliance2>
  <Appliance3>false</Appliance3>
  <Appliance4>false</Appliance4>
  <Appliance5>false</Appliance5>
  <Appliance6>false</Appliance6>
  <Appliance7>false</Appliance7>
  <Appliance8>false</Appliance8>
</GD92Msg1>.
11/26/2014 09:33:18-13-Debug-TransmitQueue for MOB0 Port 14 adding frame 22 2 14 5101 count now 1.
11/26/2014 09:33:18-13-Info-TransmittedFrames Routing frame 22 2 14 5101 of 18 bytes to 22 0 14
01-16-00-8E-00-C1-16-00-0E-11-27-DB-01-80-40-01-6C-04.
11/26/2014 09:33:18-13-Info-Frame 22 2 14 5101 added to queue for MOB0 MLAN (preference 1) at priority 1.
11/26/2014 09:33:18-14-Debug-MOB2  Locked by ReceiveCallback.
11/26/2014 09:33:18-14-Debug-MOB2  EndReceive 1 bytes added to read buffer.
11/26/2014 09:33:18-14-Debug-MOB2  Read 1 bytes. firstByteIndex 0 bytes in buffer 1 unprocessed 1
05
..
11/26/2014 09:33:18-14-Info-MOB2  ENQ received.
11/26/2014 09:33:18-14-Info-MOB2  Sending ACK.
11/26/2014 09:33:18-14-Debug-MOB2  Locked by SendCallback.
11/26/2014 09:33:18-14-Debug-MOB2  Sent 1 bytes.
11/26/2014 09:33:18-13-Info-MOB2  Locked by ProcessEnquiry 0 ACKs pending.
11/26/2014 09:33:18-13-Info-MOB2  Sending ENQ.
11/26/2014 09:33:18-13-Debug-MOB2  Locked by SendCallback.
11/26/2014 09:33:18-13-Debug-MOB2  Sent 1 bytes.
11/26/2014 09:33:18-14-Debug-MOB2  Locked by ReceiveCallback.
11/26/2014 09:33:18-14-Debug-MOB2  EndReceive 1 bytes added to read buffer.
11/26/2014 09:33:18-14-Debug-MOB2  Read 1 bytes. firstByteIndex 0 bytes in buffer 1 unprocessed 1
06
..
11/26/2014 09:33:18-14-Info-MOB2  ACK received.
11/26/2014 09:33:18-13-Debug-MOB0  Locked by GetNextFrameAndSendIt.
11/26/2014 09:33:18-13-Info-MOB0  Sending 18 bytes.
11/26/2014 09:33:18-14-Debug-MOB0  Locked by SendCallback.
11/26/2014 09:33:18-14-Debug-MOB0  Sent 18 bytes.
11/26/2014 09:33:19-4-Debug-MOB0  Locked by ReceiveCallback.
11/26/2014 09:33:19-4-Debug-MOB0  EndReceive 21 bytes added to read buffer.
11/26/2014 09:33:19-4-Debug-MOB0  Read 21 bytes. firstByteIndex 0 bytes in buffer 21 unprocessed 21
01-16-00-0E-01-81-16-00-8E-11-27-DA-33-01-16-00-0E-01-09-CE . . .
..........'Ú3......Î . . ..
11/26/2014 09:33:19-18-Info-MOB0  Frame 22 0 14 5101 of 21 bytes received for 22 2 14
01-16-00-0E-01-81-16-00-8E-11-27-DA-33-01-16-00-0E-01-09-CE-04.
11/26/2014 09:33:19-18-Info-Frame 22 0 14 5101 added to queue for Local UserAgent (preference 1) at priority 1.
11/26/2014 09:33:19-13-Debug-TransmittedFrames Frame 22 2 14 5101 timeout reset to 299 secs.
11/26/2014 09:33:19-13-Debug-TransmitQueue for MOB0 Removing frame 22 2 14 5101 from Pending Port 14 - frame matched.
11/26/2014 09:33:19-13-Debug-TransmitQueue for MOB0 Pending Port 14 now empty.
11/26/2014 09:33:19-13-Info-UA Received message type Nak serial number 18442 in reply to 18441.
11/26/2014 09:33:20-18-Info-GW_Msg51 Received reply 18442 to 18441 (18440) type Nak from 22 0 14 for 22 2 14.
11/26/2014 09:33:20-18-Info-GW_Msg51 <?xml version="1.0" encoding="utf-16"?>
<GD92Msg51>
  <SerialNumber>18442</SerialNumber>
  <MsgType>Nak</MsgType>
  <Header ProtocolVersion="1" Priority="1" StandardPort="1" />
  <Destination>MOB2</Destination>
  <SentAt>0001-01-01T00:00:00</SentAt>
  <ReceivedAt>2014-11-26T09:33:19.7358284+00:00</ReceivedAt>
  <From>MOB0</From>
  <ManualAck>false</ManualAck>
  <FromAddress>
    <Brigade>22</Brigade>
    <Node>0</Node>
    <Port>14</Port>
  </FromAddress>
  <DestAddress>
    <Brigade>22</Brigade>
    <Node>2</Node>
    <Port>14</Port>
  </DestAddress>
  <OriginalDestination>
    <Brigade>22</Brigade>
    <Node>0</Node>
    <Port>14</Port>
  </OriginalDestination>
  <ReasonCodeSet>General</ReasonCodeSet>
  <ReasonCode>9</ReasonCode>
</GD92Msg51>.
11/26/2014 09:33:20-18-Info-TransmittedFrames Routing frame 22 0 14 147 of 21 bytes to 22 2 14
01-16-00-0E-01-81-16-00-8E-11-01-26-33-01-00-00-00-01-09-0C-04.
11/26/2014 09:33:20-18-Info-Frame 22 0 14 147 added to queue for MOB2 MLAN (preference 1) at priority 1.
11/26/2014 09:33:20-17-Debug-MOB2  Locked by GetNextFrameAndSendIt.
11/26/2014 09:33:20-15-Debug-MOB0  Locked by ProcessConnection.
11/26/2014 09:33:20-17-Info-MOB2  Sending 21 bytes.
11/26/2014 09:33:20-15-Debug-MOB2  Locked by ProcessConnection.
11/26/2014 09:33:20-16-Debug-MOB2  Locked by SendCallback.
11/26/2014 09:33:20-16-Debug-MOB2  Sent 21 bytes.
11/26/2014 09:33:20-14-Debug-MOB2  Locked by ReceiveCallback.
11/26/2014 09:33:20-14-Debug-MOB2  EndReceive 121 bytes added to read buffer.
11/26/2014 09:33:20-14-Debug-MOB2  Read 121 bytes. firstByteIndex 0 bytes in buffer 121 unprocessed 121
01-16-00-8E-1A-81-16-00-0E-11-01-29-02-01-01-01-31-30-4F-43 . . .
...........)....10OC . . ..
11/26/2014 09:33:20-17-Info-MOB2  Frame 22 2 14 148 of 121 bytes received for 22 0 14
01-16-00-8E-1A-81-16-00-0E-11-01-29-02-01-01-01-31-30-4F-43-54-30-30-30-38-35-35-34-37-02-03-36-30-31-03-31-35-32-00-00-03-E5-01-39-4C-41-59-20-42-59-20-50-52-49-4F-52-20-54-4F-20-54-48-41-4E-4E-49-4E-47-54-4F-4E-20-45-58-49-54-3A-20-53-65-63-74-69-6F-6E-20-39-2C-20-41-32-20-4C-62-2C-20-4B-65-6E-74-20-00-00-00-00-00-00-00-06-57-4B-34-35-45-38-01-20-00-00-A0-04.
11/26/2014 09:33:20-17-Info-Frame 22 2 14 148 added to queue for Local UserAgent (preference 1) at priority 1.
11/26/2014 09:33:21-15-Info-UA Received message type MobiliseMessage serial number 18444.
11/26/2014 09:33:22-18-Info-GW_Msg2 Received message 18444 type MobiliseMessage from 22 2 14 for 22 0 14.
11/26/2014 09:33:22-18-Info-GW_Msg2 <?xml version="1.0" encoding="utf-16"?>
<GD92Msg2>
  <SerialNumber>18444</SerialNumber>
  <MsgType>MobiliseMessage</MsgType>
  <Header ProtocolVersion="1" Priority="1" StandardPort="15" />
  <Destination>MOB0</Destination>
  <SentAt>2000-10-10T08:55:47</SentAt>
  <ReceivedAt>2014-11-26T09:33:21.73579+00:00</ReceivedAt>
  <From>MOB2</From>
  <ManualAck>true</ManualAck>
  <FromAddress>
    <Brigade>22</Brigade>
    <Node>2</Node>
    <Port>14</Port>
  </FromAddress>
  <DestAddress>
    <Brigade>22</Brigade>
    <Node>0</Node>
    <Port>14</Port>
  </DestAddress>
  <CallsignList>
    <string>601</string>
    <string>152</string>
  </CallsignList>
  <IncidentNumber>997</IncidentNumber>
  <MobilisationType>1</MobilisationType>
  <Address>LAY BY PRIOR TO THANNINGTON EXIT: Section 9, A2 Lb, Kent </Address>
  <MapRef>WK45E8</MapRef>
  <TelNumber> </TelNumber>
  <Text />
</GD92Msg2>.
11/26/2014 09:33:22-18-Info-TransmittedFrames Routing frame 22 0 14 148 of 15 bytes to 22 2 14
01-16-00-0E-00-01-16-00-8E-11-01-28-32-8B-04.
11/26/2014 09:33:22-18-Info-Frame 22 0 14 148 added to queue for MOB2 MLAN (preference 1) at priority 1.
11/26/2014 09:33:23-15-Debug-MOB2  Locked by GetNextFrameAndSendIt.
11/26/2014 09:33:23-15-Info-MOB2  Sending 15 bytes.
11/26/2014 09:33:23-16-Debug-MOB2  Locked by SendCallback.
11/26/2014 09:33:23-16-Debug-MOB2  Sent 15 bytes.
11/26/2014 09:33:23-14-Debug-MOB2  Locked by ReceiveCallback.
11/26/2014 09:33:23-14-Debug-MOB2  EndReceive 16 bytes added to read buffer.
11/26/2014 09:33:23-14-Debug-MOB2  Read 16 bytes. firstByteIndex 0 bytes in buffer 16 unprocessed 16
01-16-00-8E-00-41-16-00-0E-31-01-2B-41-03-98-04
.....A...1.+A....
11/26/2014 09:33:23-13-Info-MOB2  Frame 22 2 14 149 of 16 bytes received for 22 0 14
01-16-00-8E-00-41-16-00-0E-31-01-2B-41-03-98-04.
11/26/2014 09:33:23-13-Info-Frame 22 2 14 149 added to queue for Local UserAgent (preference 1) at priority 3.
11/26/2014 09:33:24-12-Info-UA Received message type PrinterStatus serial number 18446.
11/26/2014 09:33:25-15-Warning-GW_Unexpected Received message 18446 type PrinterStatus from 22 2 14 for 22 0 14.
11/26/2014 09:33:25-15-Info-TransmittedFrames Routing frame 22 0 14 149 of 21 bytes to 22 2 14
01-16-00-0E-01-81-16-00-8E-31-01-2A-33-01-00-00-00-01-08-21-04.
11/26/2014 09:33:25-15-Info-Frame 22 0 14 149 added to queue for MOB2 MLAN (preference 1) at priority 3.
11/26/2014 09:33:25-12-Debug-MOB2  Locked by GetNextFrameAndSendIt.
11/26/2014 09:33:25-12-Info-MOB2  Sending 21 bytes.
11/26/2014 09:33:25-14-Debug-MOB2  Locked by SendCallback.
11/26/2014 09:33:25-14-Debug-MOB2  Sent 21 bytes.
11/26/2014 09:33:26-14-Debug-MOB2  Locked by ReceiveCallback.
11/26/2014 09:33:26-14-Debug-MOB2  EndReceive 19 bytes added to read buffer.
11/26/2014 09:33:26-14-Debug-MOB2  Read 19 bytes. firstByteIndex 0 bytes in buffer 19 unprocessed 19
01-16-00-8E-01-01-16-00-0E-31-01-2D-05-03-36-30-31-AC-04
.........1.-..601¬..
11/26/2014 09:33:26-18-Info-MOB2  Frame 22 2 14 150 of 19 bytes received for 22 0 14
01-16-00-8E-01-01-16-00-0E-31-01-2D-05-03-36-30-31-AC-04.
11/26/2014 09:33:26-18-Info-Frame 22 2 14 150 added to queue for Local UserAgent (preference 1) at priority 3.
11/26/2014 09:33:26-4-Debug-MOB0  Locked by ReceiveCallback.
11/26/2014 09:33:26-4-Debug-MOB0  EndReceive 1 bytes added to read buffer.
11/26/2014 09:33:26-4-Debug-MOB0  Read 1 bytes. firstByteIndex 0 bytes in buffer 1 unprocessed 1
05
..
11/26/2014 09:33:26-4-Info-MOB0  ENQ received.
11/26/2014 09:33:26-4-Info-MOB0  Sending ACK.
11/26/2014 09:33:26-4-Debug-MOB0  Locked by SendCallback.
11/26/2014 09:33:26-4-Debug-MOB0  Sent 1 bytes.
11/26/2014 09:33:26-12-Info-MOB0  Locked by ProcessEnquiry 0 ACKs pending.
11/26/2014 09:33:26-12-Info-MOB0  Sending ENQ.
11/26/2014 09:33:26-4-Debug-MOB0  Locked by SendCallback.
11/26/2014 09:33:26-4-Debug-MOB0  Sent 1 bytes.
11/26/2014 09:33:26-4-Debug-MOB0  Locked by ReceiveCallback.
11/26/2014 09:33:26-4-Debug-MOB0  EndReceive 1 bytes added to read buffer.
11/26/2014 09:33:26-4-Debug-MOB0  Read 1 bytes. firstByteIndex 0 bytes in buffer 1 unprocessed 1
06
..
11/26/2014 09:33:26-4-Info-MOB0  ACK received.
11/26/2014 09:33:27-15-Info-UA Received message type ResourceStatusRequest serial number 18448.
11/26/2014 09:33:28-13-Warning-GW_Unexpected Received message 18448 type ResourceStatusRequest from 22 2 14 for 22 0 14.
11/26/2014 09:33:28-13-Info-TransmittedFrames Routing frame 22 0 14 150 of 21 bytes to 22 2 14
01-16-00-0E-01-81-16-00-8E-31-01-2C-33-01-00-00-00-01-08-27-04.
11/26/2014 09:33:28-13-Info-Frame 22 0 14 150 added to queue for MOB2 MLAN (preference 1) at priority 3.
11/26/2014 09:33:28-14-Debug-MOB2  Locked by ReceiveCallback.
11/26/2014 09:33:28-14-Debug-MOB2  EndReceive 1 bytes added to read buffer.
11/26/2014 09:33:28-14-Debug-MOB2  Read 1 bytes. firstByteIndex 0 bytes in buffer 1 unprocessed 1
05
..
11/26/2014 09:33:28-14-Info-MOB2  ENQ received.
11/26/2014 09:33:28-14-Info-MOB2  Sending ACK.
11/26/2014 09:33:28-14-Debug-MOB2  Locked by SendCallback.
11/26/2014 09:33:28-14-Debug-MOB2  Sent 1 bytes.
11/26/2014 09:33:28-15-Info-MOB2  Locked by ProcessEnquiry 0 ACKs pending.
11/26/2014 09:33:28-15-Info-MOB2  Sending ENQ.
11/26/2014 09:33:28-14-Debug-MOB2  Locked by SendCallback.
11/26/2014 09:33:28-14-Debug-MOB2  Sent 1 bytes.
11/26/2014 09:33:28-14-Debug-MOB2  Locked by ReceiveCallback.
11/26/2014 09:33:28-14-Debug-MOB2  EndReceive 1 bytes added to read buffer.
11/26/2014 09:33:28-14-Debug-MOB2  Read 1 bytes. firstByteIndex 0 bytes in buffer 1 unprocessed 1
06
..
11/26/2014 09:33:28-14-Info-MOB2  ACK received.
11/26/2014 09:33:28-13-Debug-MOB2  Locked by GetNextFrameAndSendIt.
11/26/2014 09:33:28-13-Info-MOB2  Sending 21 bytes.
11/26/2014 09:33:28-14-Debug-MOB2  Locked by SendCallback.
11/26/2014 09:33:28-14-Debug-MOB2  Sent 21 bytes.
11/26/2014 09:33:29-14-Debug-MOB2  Locked by ReceiveCallback.
11/26/2014 09:33:29-14-Debug-MOB2  EndReceive 62 bytes added to read buffer.
11/26/2014 09:33:29-14-Debug-MOB2  Read 62 bytes. firstByteIndex 0 bytes in buffer 62 unprocessed 62
01-16-00-8E-0B-C1-16-00-0E-31-01-2F-14-03-36-30-31-21-04-44 . . .
.....Á...1./..601!.D . . ..
11/26/2014 09:33:29-17-Info-MOB2  Frame 22 2 14 151 of 62 bytes received for 22 0 14
01-16-00-8E-0B-C1-16-00-0E-31-01-2F-14-03-36-30-31-21-04-44-41-54-41-33-23-52-45-4D-41-52-4B-53-20-4F-4E-20-52-45-53-4F-55-52-43-45-20-53-54-41-54-55-53-20-46-52-4F-4D-20-36-30-31-1F-04.
11/26/2014 09:33:29-17-Info-Frame 22 2 14 151 added to queue for Local UserAgent (preference 1) at priority 3.
11/26/2014 09:33:30-13-Debug-MOB0  Locked by ProcessConnection.
11/26/2014 09:33:30-13-Debug-MOB2  Locked by ProcessConnection.
11/26/2014 09:33:30-15-Info-UA Received message type ResourceStatus serial number 18450.
11/26/2014 09:33:31-17-Info-GW_Msg20 Received message 18450 type ResourceStatus from 22 2 14 for 22 0 14.
11/26/2014 09:33:31-17-Info-GW_Msg20 <?xml version="1.0" encoding="utf-16"?>
<GD92Msg20>
  <SerialNumber>18450</SerialNumber>
  <MsgType>ResourceStatus</MsgType>
  <Header ProtocolVersion="1" Priority="3" StandardPort="1" />
  <Destination>MOB0</Destination>
  <SentAt>0001-01-01T00:00:00</SentAt>
  <ReceivedAt>2014-11-26T09:33:30.7356172+00:00</ReceivedAt>
  <From>MOB2</From>
  <ManualAck>false</ManualAck>
  <FromAddress>
    <Brigade>22</Brigade>
    <Node>2</Node>
    <Port>14</Port>
  </FromAddress>
  <DestAddress>
    <Brigade>22</Brigade>
    <Node>0</Node>
    <Port>14</Port>
  </DestAddress>
  <AvlType>33</AvlType>
  <StatusCode>51</StatusCode>
  <Callsign>601</Callsign>
  <AvlData>DATA</AvlData>
  <Remarks>REMARKS ON RESOURCE STATUS FROM 601</Remarks>
</GD92Msg20>.
11/26/2014 09:33:31-17-Info-TransmittedFrames Routing frame 22 0 14 151 of 15 bytes to 22 2 14
01-16-00-0E-00-01-16-00-8E-31-01-2E-32-AD-04.
11/26/2014 09:33:31-17-Info-Frame 22 0 14 151 added to queue for MOB2 MLAN (preference 1) at priority 3.
11/26/2014 09:33:31-18-Debug-MOB2  Locked by GetNextFrameAndSendIt.
11/26/2014 09:33:31-18-Info-MOB2  Sending 15 bytes.
11/26/2014 09:33:31-14-Debug-MOB2  Locked by SendCallback.
11/26/2014 09:33:31-14-Debug-MOB2  Sent 15 bytes.
11/26/2014 09:33:32-14-Debug-MOB2  Locked by ReceiveCallback.
11/26/2014 09:33:32-14-Debug-MOB2  EndReceive 515 bytes added to read buffer.
11/26/2014 09:33:32-14-Debug-MOB2  Read 515 bytes. firstByteIndex 0 bytes in buffer 515 unprocessed 515
01-16-00-8E-7D-01-16-00-0E-11-01-31-1B-01-01-01-F0-54-68-69 . . .
....}......1....ðThi . . ..
11/26/2014 09:33:32-17-Info-MOB2  Frame 22 2 14 152 of 515 bytes received for 22 0 14
01-16-00-8E-7D-01-16-00-0E-11-01-31-1B-01-01-01-F0-54-68-69-73-20-69-73-20-61-20-72-65-63-6F-72-64-20-6F-66-20-64-69-73-74-72-69-63-74-73-20-77-69-74-68-20-6E-6F-20-61-72-65-61-20-28-61-73-20-73-68-6F-77-6E-20-69-6E-20-6D-65-72-67-65-2E-74-78-74-29-20-74-68-61-74-20-63-61-6E-6E-6F-74-20-62-65-20-66-6F-75-6E-64-20-69-6E-20-61-64-64-72-65-73-73-20-70-6F-69-6E-74-20-64-61-74-61-20-28-61-64-64-2D-64-64-61-2E-74-78-74-29-2E-20-44-20-61-74-20-74-68-65-20-65-6E-64-20-6F-66-20-74-68-65-20-6C-69-6E-65-20-6D-61-72-6B-73-20-74-68-65-6D-20-61-73-20-72-65-73-6F-6C-76-65-64-20-75-73-69-6E-67-20-4F-53-20-72-65-66-65-72-65-6E-63-65-20-61-6E-64-20-6D-61-70-62-6F-6F-6B-2E-20-53-6F-6D-65-20-61-70-70-65-61-72-65-64-20-74-6F-20-66-61-6C-6C-20-6F-75-74-73-69-64-65-20-4B-65-6E-74-20-73-6F-20-77-65-72-65-20-6C-65-66-74-20-61-73-20-69-73-2E-0A-0A-54-68-65-20-72-65-63-6F-72-64-20-61-6C-73-6F-20-69-6E-63-6C-75-64-65-73-20-70-6F-73-73-69-62-6C-65-20-64-75-70-6C-69-63-61-74-65-20-64-69-73-74-72-69-63-74-73-2E-0A-39-37-39-20-57-45-4E-4E-49-4E-47-54-4F-4E-2C-20-39-30-39-20-54-49-4C-42-55-52-59-09-5B-4E-4F-20-4C-4F-43-41-54-49-4F-4E-5D-4E-4F-20-4D-41-50-0A-39-38-33-20-57-45-53-54-20-4B-49-4E-47-53-44-4F-57-4E-2C-20-33-30-31-20-46-41-57-4B-48-41-4D-09-5B-45-58-54-52-41-5D-46-41-57-4B-48-41-4D-20-49-53-20-4E-4F-57-48-45-52-45-20-4E-45-41-52-20-2D-20-4C-4F-43-41-54-49-4F-4E-20-45-52-52-4F-52-0A-31-30-35-31-20-4D-41-4E-53-54-4F-4E-20-50-41-52-4B-2C-20-35-36-33-20-4D-41-4E-53-54-4F-4E-09-5B-4E-4F-20-4C-4F-43-41-54-49-4F-4E-5D-6E-6F-20-6D-61-70-0A-0A-52-04.
11/26/2014 09:33:32-17-Info-Frame 22 2 14 152 added to queue for Local UserAgent (preference 1) at priority 1.
11/26/2014 09:33:33-17-Info-UA Received message type Text serial number 18452.
11/26/2014 09:33:34-13-Info-GW_Msg27 Received message 18452 type Text from 22 2 14 for 22 0 14.
11/26/2014 09:33:34-13-Info-GW_Msg27 <?xml version="1.0" encoding="utf-16"?>
<GD92Msg27>
  <SerialNumber>18452</SerialNumber>
  <MsgType>Text</MsgType>
  <Header ProtocolVersion="1" Priority="1" StandardPort="15" />
  <Destination>MOB0</Destination>
  <SentAt>0001-01-01T00:00:00</SentAt>
  <ReceivedAt>2014-11-26T09:33:33.7355596+00:00</ReceivedAt>
  <From>MOB2</From>
  <ManualAck>false</ManualAck>
  <FromAddress>
    <Brigade>22</Brigade>
    <Node>2</Node>
    <Port>14</Port>
  </FromAddress>
  <DestAddress>
    <Brigade>22</Brigade>
    <Node>0</Node>
    <Port>14</Port>
  </DestAddress>
  <Text>This is a record of districts with no area (as shown in merge.txt) that cannot be found in address point data (add-dda.txt). D at the end of the line marks them as resolved using OS reference and mapbook. Some appeared to fall outside Kent so were left as is.

The record also includes possible duplicate districts.
979 WENNINGTON, 909 TILBURY	[NO LOCATION]NO MAP
983 WEST KINGSDOWN, 301 FAWKHAM	[EXTRA]FAWKHAM IS NOWHERE NEAR - LOCATION ERROR
1051 MANSTON PARK, 563 MANSTON	[NO LOCATION]no map

</Text>
</GD92Msg27>.
11/26/2014 09:33:34-13-Info-TransmittedFrames Routing frame 22 0 14 152 of 15 bytes to 22 2 14
01-16-00-0E-00-01-16-00-8E-11-01-30-32-93-04.
11/26/2014 09:33:34-13-Info-Frame 22 0 14 152 added to queue for MOB2 MLAN (preference 1) at priority 1.
11/26/2014 09:33:34-17-Debug-MOB2  Locked by GetNextFrameAndSendIt.
11/26/2014 09:33:34-17-Info-MOB2  Sending 15 bytes.
11/26/2014 09:33:34-14-Debug-MOB2  Locked by SendCallback.
11/26/2014 09:33:34-14-Debug-MOB2  Sent 15 bytes.
11/26/2014 09:33:36-4-Debug-MOB0  Locked by ReceiveCallback.
11/26/2014 09:33:36-4-Debug-MOB0  EndReceive 1 bytes added to read buffer.
11/26/2014 09:33:36-4-Debug-MOB0  Read 1 bytes. firstByteIndex 0 bytes in buffer 1 unprocessed 1
05
..
11/26/2014 09:33:36-4-Info-MOB0  ENQ received.
11/26/2014 09:33:36-4-Info-MOB0  Sending ACK.
11/26/2014 09:33:36-4-Debug-MOB0  Locked by SendCallback.
11/26/2014 09:33:36-4-Debug-MOB0  Sent 1 bytes.
11/26/2014 09:33:36-18-Info-MOB0  Locked by ProcessEnquiry 0 ACKs pending.
11/26/2014 09:33:36-18-Info-MOB0  Sending ENQ.
11/26/2014 09:33:36-18-Debug-MOB0  Locked by SendCallback.
11/26/2014 09:33:36-18-Debug-MOB0  Sent 1 bytes.
11/26/2014 09:33:36-4-Debug-MOB0  Locked by ReceiveCallback.
11/26/2014 09:33:36-4-Debug-MOB0  EndReceive 1 bytes added to read buffer.
11/26/2014 09:33:36-4-Debug-MOB0  Read 1 bytes. firstByteIndex 0 bytes in buffer 1 unprocessed 1
06
..
11/26/2014 09:33:36-4-Info-MOB0  ACK received.
11/26/2014 09:33:38-14-Debug-MOB2  Locked by ReceiveCallback.
11/26/2014 09:33:38-14-Debug-MOB2  EndReceive 1 bytes added to read buffer.
11/26/2014 09:33:38-14-Debug-MOB2  Read 1 bytes. firstByteIndex 0 bytes in buffer 1 unprocessed 1
05
..
11/26/2014 09:33:38-14-Info-MOB2  ENQ received.
11/26/2014 09:33:38-14-Info-MOB2  Sending ACK.
11/26/2014 09:33:38-14-Debug-MOB2  Locked by SendCallback.
11/26/2014 09:33:38-14-Debug-MOB2  Sent 1 bytes.
11/26/2014 09:33:38-15-Info-MOB2  Locked by ProcessEnquiry 0 ACKs pending.
11/26/2014 09:33:38-15-Info-MOB2  Sending ENQ.
11/26/2014 09:33:38-14-Debug-MOB2  Locked by SendCallback.
11/26/2014 09:33:38-14-Debug-MOB2  Sent 1 bytes.
11/26/2014 09:33:38-14-Debug-MOB2  Locked by ReceiveCallback.
11/26/2014 09:33:38-14-Debug-MOB2  EndReceive 1 bytes added to read buffer.
11/26/2014 09:33:38-14-Debug-MOB2  Read 1 bytes. firstByteIndex 0 bytes in buffer 1 unprocessed 1
06
..
11/26/2014 09:33:38-14-Info-MOB2  ACK received.
11/26/2014 09:33:40-17-Debug-MOB0  Locked by ProcessConnection.
11/26/2014 09:33:40-15-Debug-MOB2  Locked by ProcessConnection.
11/26/2014 09:33:46-4-Debug-MOB0  Locked by ReceiveCallback.
11/26/2014 09:33:46-4-Debug-MOB0  EndReceive 1 bytes added to read buffer.
11/26/2014 09:33:46-4-Debug-MOB0  Read 1 bytes. firstByteIndex 0 bytes in buffer 1 unprocessed 1
05
..
11/26/2014 09:33:46-4-Info-MOB0  ENQ received.
11/26/2014 09:33:46-4-Info-MOB0  Sending ACK.
11/26/2014 09:33:46-4-Debug-MOB0  Locked by SendCallback.
11/26/2014 09:33:46-4-Debug-MOB0  Sent 1 bytes.
11/26/2014 09:33:46-15-Info-MOB0  Locked by ProcessEnquiry 0 ACKs pending.
11/26/2014 09:33:46-15-Info-MOB0  Sending ENQ.
11/26/2014 09:33:46-15-Debug-MOB0  Locked by SendCallback.
11/26/2014 09:33:46-15-Debug-MOB0  Sent 1 bytes.
11/26/2014 09:33:46-4-Debug-MOB0  Locked by ReceiveCallback.
11/26/2014 09:33:46-4-Debug-MOB0  EndReceive 1 bytes added to read buffer.
11/26/2014 09:33:46-4-Debug-MOB0  Read 1 bytes. firstByteIndex 0 bytes in buffer 1 unprocessed 1
06
..
11/26/2014 09:33:46-4-Info-MOB0  ACK received.
11/26/2014 09:33:48-14-Debug-MOB2  Locked by ReceiveCallback.
11/26/2014 09:33:48-14-Debug-MOB2  EndReceive 1 bytes added to read buffer.
11/26/2014 09:33:48-14-Debug-MOB2  Read 1 bytes. firstByteIndex 0 bytes in buffer 1 unprocessed 1
05
..
11/26/2014 09:33:48-14-Info-MOB2  ENQ received.
11/26/2014 09:33:48-14-Info-MOB2  Sending ACK.
11/26/2014 09:33:48-14-Debug-MOB2  Locked by SendCallback.
11/26/2014 09:33:48-14-Debug-MOB2  Sent 1 bytes.
11/26/2014 09:33:48-13-Info-MOB2  Locked by ProcessEnquiry 0 ACKs pending.
11/26/2014 09:33:48-13-Info-MOB2  Sending ENQ.
11/26/2014 09:33:48-14-Debug-MOB2  Locked by SendCallback.
11/26/2014 09:33:48-14-Debug-MOB2  Sent 1 bytes.
11/26/2014 09:33:48-14-Debug-MOB2  Locked by ReceiveCallback.
11/26/2014 09:33:48-14-Debug-MOB2  EndReceive 1 bytes added to read buffer.
11/26/2014 09:33:48-14-Debug-MOB2  Read 1 bytes. firstByteIndex 0 bytes in buffer 1 unprocessed 1
06
..
11/26/2014 09:33:48-14-Info-MOB2  ACK received.
11/26/2014 09:33:50-17-Debug-MOB2  Locked by ProcessConnection.
11/26/2014 09:33:50-15-Debug-MOB0  Locked by ProcessConnection.
11/26/2014 09:33:52-17-Notice-GD92Component Shutting down - please allow a few seconds.
11/26/2014 09:33:52-17-Debug-MOB0  Locked by Deactivate.
11/26/2014 09:33:52-17-Info-MOB0  Closing connection.
11/26/2014 09:33:52-17-Debug-MOB2  Locked by Deactivate.
11/26/2014 09:33:52-17-Info-MOB2  Closing connection.
11/26/2014 09:33:52-4-Debug-MOB0  Locked by ReceiveCallback.
11/26/2014 09:33:52-4-Debug-MOB0  ReceiveCallback found socket closed or replaced.
11/26/2014 09:33:52-14-Debug-MOB2  Locked by ReceiveCallback.
11/26/2014 09:33:52-14-Debug-MOB2  ReceiveCallback found socket closed or replaced.
11/26/2014 09:33:52-14-Debug-MLAN AcceptCallback socket closed..
11/26/2014 09:33:53-15-Notice-GW_GD92Handler MOB0 MLAN connection lost.
11/26/2014 09:33:53-15-Notice-GW_GD92Handler MOB2 MLAN connection lost.
