<?xml version="1.0" encoding="utf-8"?>
<GD92Msg27>
  <SerialNumber>0</SerialNumber>
  <MsgType>Text</MsgType>
  <Header ProtocolVersion="1" Priority="1" StandardPort="15" />
  <SentAt>0001-01-01T00:00:00</SentAt>
  <ReceivedAt>0001-01-01T00:00:00</ReceivedAt>
  <ManualAck>false</ManualAck>
  <FromAddress>
    <Brigade>0</Brigade>
    <Node>0</Node>
    <Port>0</Port>
  </FromAddress>
  <DestAddress>
    <Brigade>0</Brigade>
    <Node>0</Node>
    <Port>0</Port>
  </DestAddress>
  <FromNodeType>None</FromNodeType>
  <DestNodeType>None</DestNodeType>
  <Text />
</GD92Msg27>